<?xml version="1.0" encoding="utf-8"?>
<COLLADA xmlns="http://www.collada.org/2005/11/COLLADASchema" version="1.4.1">
  <asset>
    <contributor>
      <author>Blender User</author>
      <authoring_tool>Blender 2.78.0 commit date:2017-02-24, commit time:14:33, hash:e92f2352830</authoring_tool>
    </contributor>
    <created>2017-07-14T10:06:19</created>
    <modified>2017-07-14T10:06:19</modified>
    <unit name="meter" meter="1"/>
    <up_axis>Z_UP</up_axis>
  </asset>
  <library_images/>
  <library_effects/>
  <library_geometries>
    <geometry id="Arm_Base_Link-mesh" name="Arm Base Link">
      <mesh>
        <source id="Arm_Base_Link-mesh-positions">
          <float_array id="Arm_Base_Link-mesh-positions-array" count="1110">-0.04031777 -0.01729184 0.04367834 -0.04128897 -0.01730591 0.04427391 -0.04173177 -0.01352423 0.04367834 0.02671581 -0.03487432 0.04367834 0.02629154 -0.03666776 0.04455071 0.02401238 -0.03665882 0.04367834 0.02871477 -0.04395121 0.05129998 0.023225 -0.04692208 0.05129998 0.02468562 -0.04251807 0.04801696 0.0522111 -0.003486156 0.05129998 0.04791778 -0.003493547 0.04700511 0.05249994 0 0.05129998 0.04791778 0.003493547 0.04700511 0.04747271 0.01044827 0.04750943 0.05178391 0.008641183 0.05129998 0.0522111 0.003486156 0.05129998 0.04658669 0.01730591 0.04851335 0.04965537 0.01704668 0.05129998 0.05133002 0.01043367 0.05129998 0.04417759 0.0280404 0.05129998 0.04617232 0.02498722 0.05129998 0.04526799 0.02400285 0.05000752 0.04661017 0.02398908 0.05129998 0.04954344 0.01730191 0.05129998 0.03738451 0.03664052 0.05129998 0.04142987 0.03224611 0.05129998 0.03857886 0.0304768 0.04801696 0.03622901 0.03789573 0.05129998 0.0366792 0.03666776 0.0506407 0.03555727 0.03862547 0.05129998 0.03163224 0.03666776 0.04734516 0.03057885 0.04250031 0.05129998 0.02933889 0.04346543 0.05129998 0.02970016 0.04251807 0.0506407 0.02871477 0.04395121 0.05129998 0.02468562 0.04251807 0.04801696 0.01288795 0.05089348 0.05129998 0.01760476 0.0492742 0.05129998 0.01799649 0.04797351 0.05000752 0.02108895 0.04807806 0.05129998 0.0212841 0.0479725 0.05129998 0.01297539 0.04797351 0.04851335 0.007833719 0.04797351 0.04750943 0.01230204 0.05099123 0.05129998 0.007306456 0.05182486 0.05129998 0.004335403 0.05232065 0.05129998 0.002619326 0.04797351 0.04700511 0.002418398 0.05232065 0.05129998 -0.002619326 0.04797351 0.04700511 -0.002418398 0.05232065 0.05129998 -0.004335403 0.05232065 0.05129998 -0.007833719 0.04797351 0.04750943 -0.007306456 0.05182486 0.05129998 -0.01230204 0.05099123 0.05129998 -0.01297539 0.04797351 0.04851335 -0.01288795 0.05089348 0.05129998 -0.01799649 0.04797351 0.05000752 -0.0212841 0.0479725 0.05129998 -0.02108895 0.04807806 0.05129998 -0.01760476 0.0492742 0.05129998 -0.03555727 0.03862547 0.05129998 -0.03057885 0.04250031 0.05129998 -0.02970016 0.04251807 0.0506407 -0.02933889 0.04346543 0.05129998 -0.02468562 0.04251807 0.04801696 -0.02871477 0.04395121 0.05129998 -0.04142987 0.03224611 0.05129998 -0.03738451 0.03664052 0.05129998 -0.0366792 0.03666776 0.0506407 -0.03622901 0.03789573 0.05129998 -0.03163224 0.03666776 0.04734516 -0.04658669 0.01730591 0.04851335 -0.04661017 0.02398908 0.05129998 -0.04526799 0.02400285 0.05000752 -0.04617232 0.02498722 0.05129998 -0.04417759 0.0280404 0.05129998 -0.05178391 0.008641183 0.05129998 -0.05133002 0.01043367 0.05129998 -0.04747271 0.01044827 0.04750943 -0.04965537 0.01704668 0.05129998 -0.04954344 0.01730191 0.05129998 -0.04791778 -0.003493547 0.04700511 -0.05249994 0 0.05129998 -0.04791778 0.003493547 0.04700511 -0.0522111 0.003486156 0.05129998 -0.04747271 -0.01044827 0.04750943 -0.05178391 -0.008641183 0.05129998 -0.0522111 -0.003486156 0.05129998 -0.04658669 -0.01730591 0.04851335 -0.04965537 -0.01704668 0.05129998 -0.05133002 -0.01043367 0.05129998 -0.04417759 -0.0280404 0.05129998 -0.04617232 -0.02498722 0.05129998 -0.04526799 -0.02400285 0.05000752 -0.04661017 -0.02398908 0.05129998 -0.04954344 -0.01730191 0.05129998 -0.03857886 -0.0304768 0.04801696 -0.04012024 -0.02400285 0.04588812 -0.03738451 -0.03664052 0.05129998 -0.04142987 -0.03224611 0.05129998 -0.04260283 -0.03045076 0.05129998 -0.03622901 -0.03789573 0.05129998 -0.0366792 -0.03666776 0.0506407 -0.03555727 -0.03862547 0.05129998 -0.03163224 -0.03666776 0.04734516 -0.03057885 -0.04250031 0.05129998 -0.02933889 -0.04346543 0.05129998 -0.02970016 -0.04251807 0.0506407 -0.02871477 -0.04395121 0.05129998 -0.02468562 -0.04251807 0.04801696 -0.01944184 -0.04251807 0.04588812 -0.0212841 -0.0479725 0.05129998 -0.023225 -0.04692208 0.05129998 -0.01799649 -0.04797351 0.05000752 -0.01760476 -0.0492742 0.05129998 -0.02108895 -0.04807806 0.05129998 -0.01288795 -0.05089348 0.05129998 -0.01297539 -0.04797351 0.04851335 -0.01230204 -0.05099123 0.05129998 -0.007833719 -0.04797351 0.04750943 -0.007306456 -0.05182486 0.05129998 -0.004335403 -0.05232065 0.05129998 -0.002619326 -0.04797351 0.04700511 -0.002418398 -0.05232065 0.05129998 0.002619326 -0.04797351 0.04700511 0.002418398 -0.05232065 0.05129998 0.004335403 -0.05232065 0.05129998 0.007833719 -0.04797351 0.04750943 0.007306456 -0.05182486 0.05129998 0.01297539 -0.04797351 0.04851335 0.01230204 -0.05099123 0.05129998 0.01799649 -0.04797351 0.05000752 0.01760476 -0.0492742 0.05129998 0.01288795 -0.05089348 0.05129998 0.01944184 -0.04251807 0.04588812 0.0212841 -0.0479725 0.05129998 0.02108895 -0.04807806 0.05129998 0.03163224 -0.03666776 0.04734516 0.03555727 -0.03862547 0.05129998 0.02970016 -0.04251807 0.0506407 0.03057885 -0.04250031 0.05129998 0.02933889 -0.04346543 0.05129998 0.03857886 -0.0304768 0.04801696 0.04142987 -0.03224611 0.05129998 0.0366792 -0.03666776 0.0506407 0.03738451 -0.03664052 0.05129998 0.03622901 -0.03789573 0.05129998 0.04658669 -0.01730591 0.04851335 0.04661017 -0.02398908 0.05129998 0.04526799 -0.02400285 0.05000752 0.04617232 -0.02498722 0.05129998 0.04417759 -0.0280404 0.05129998 0.05178391 -0.008641183 0.05129998 0.05133002 -0.01043367 0.05129998 0.04747271 -0.01044827 0.04750943 0.04965537 -0.01704668 0.05129998 0.04954344 -0.01730191 0.05129998 0.04258149 -0.01043409 0.04367834 0.04329288 -0.007856488 0.04367834 0.0417267 -0.01353144 0.04367834 0.04128897 -0.01730591 0.04427391 0.04119431 -0.01546049 0.04367834 0.04031354 -0.0172894 0.04367834 0.0377717 -0.02256757 0.04367834 0.04012024 -0.02400285 0.04588812 0.03673988 -0.02398771 0.04367834 0.03379893 -0.02803564 0.04367834 0.03327053 -0.0304768 0.04455071 0.03313511 -0.02894926 0.04367834 0.03155153 -0.03046333 0.04367834 0.02743351 -0.03440058 0.04367834 0.01401746 -0.04251807 0.04427391 0.01417315 -0.04160004 0.04367834 0.02023106 -0.03901082 0.04367834 0.005906224 -0.04360175 0.04367834 0.008408844 -0.04303056 0.04367834 0.01065629 -0.0425176 0.04367834 0.01359671 -0.04184645 0.04367834 0.00278604 -0.04374188 0.04367834 -0.001974046 -0.04395568 0.04367834 -0.002782285 -0.04384618 0.04367834 -0.008403122 -0.0430848 0.04367834 -0.009790897 -0.0428968 0.04367834 -0.01095747 -0.04251772 0.04367834 -0.01419526 -0.04146575 0.04367834 -0.01401746 -0.04251807 0.04427391 -0.01729309 -0.04045921 0.04367834 -0.02025896 -0.03886318 0.04367834 -0.02423942 -0.03672116 0.04367834 -0.02430713 -0.03666722 0.04367834 -0.0267409 -0.03472638 0.04367834 -0.02629154 -0.03666776 0.04455071 -0.03040671 -0.03180295 0.04367834 -0.03157687 -0.03046363 0.04367834 -0.03382092 -0.02789509 0.04367834 -0.03327053 -0.0304768 0.04455071 -0.03559672 -0.02586251 0.04367834 -0.0367183 -0.02398526 0.04367834 -0.03964263 -0.01909083 0.04367834 -0.04382282 0.003944098 0.04367834 -0.04382282 0.003493547 0.04367834 -0.04382282 -0.003493547 0.04367834 -0.04382282 -0.003944098 0.04367834 -0.0426436 -0.01044219 0.04367834 -0.0426436 0.01044219 0.04367834 -0.04012024 0.02400285 0.04588812 -0.03964263 0.01909083 0.04367834 -0.04128897 0.01730591 0.04427391 -0.04031777 0.01729184 0.04367834 -0.04173177 0.01352423 0.04367834 -0.03040671 0.03180295 0.04367834 -0.03157687 0.03046363 0.04367834 -0.03327053 0.0304768 0.04455071 -0.03382092 0.02789509 0.04367834 -0.03857886 0.0304768 0.04801696 -0.03559672 0.02586251 0.04367834 -0.0367183 0.02398526 0.04367834 -0.02423942 0.03672116 0.04367834 -0.02430713 0.03666722 0.04367834 -0.02629154 0.03666776 0.04455071 -0.0267409 0.03472638 0.04367834 -0.023225 0.04692208 0.05129998 -0.01944184 0.04251807 0.04588812 -0.02025896 0.03886318 0.04367834 -0.009790897 0.0428968 0.04367834 -0.01095747 0.04251772 0.04367834 -0.01401746 0.04251807 0.04427391 -0.01419526 0.04146575 0.04367834 -0.01729309 0.04045921 0.04367834 -0.008403122 0.0430848 0.04367834 -0.002782285 0.04384618 0.04367834 0.005906224 0.04360175 0.04367834 0.00278604 0.04374188 0.04367834 -0.001974046 0.04395568 0.04367834 0.01065629 0.0425176 0.04367834 0.01401746 0.04251807 0.04427391 0.01359671 0.04184645 0.04367834 0.01417315 0.04160004 0.04367834 0.02023106 0.03901082 0.04367834 0.01944184 0.04251807 0.04588812 0.008408844 0.04303056 0.04367834 0.02085018 0.03874617 0.04367834 0.02401238 0.03665882 0.04367834 0.02671581 0.03487432 0.04367834 0.02629154 0.03666776 0.04455071 0.02743351 0.03440058 0.04367834 0.03155153 0.03046333 0.04367834 0.03313511 0.02894926 0.04367834 0.03327053 0.0304768 0.04455071 0.03379893 0.02803564 0.04367834 0.04012024 0.02400285 0.04588812 0.04031354 0.0172894 0.04367834 0.0377717 0.02256757 0.04367834 0.03673988 0.02398771 0.04367834 0.04128897 0.01730591 0.04427391 0.04119431 0.01546049 0.04367834 0.0417267 0.01353144 0.04367834 0.04258149 0.01043409 0.04367834 0.04368603 -0.003487825 0.04367834 0.04399996 0 0.04367834 0.04368603 0.003487825 0.04367834 0.04329288 0.007856488 0.04367834 0.02085018 -0.03874617 0.04367834 0.04260283 -0.03045076 0.05129998 -0.04241436 -0.01170557 0.04367834 0.04260283 0.03045076 0.05129998 -0.04260283 0.03045076 0.05129998 -0.04241436 0.01170557 0.04367834 0.023225 0.04692208 0.05129998 -0.04382282 -0.003944098 0.01159995 -0.03399997 0 0.01159995 -0.033257 -0.007068991 0.01159995 0.03106051 -0.01382899 0.01159995 0.0377717 -0.02256757 0.01159995 0.02750653 -0.01998466 0.01159995 0.03313511 -0.02894926 0.01159995 0.02275043 -0.02526688 0.01159995 0.02743351 -0.03440058 0.01159995 0.01699995 -0.02944481 0.01159995 0.02085018 -0.03874617 0.01159995 0.01050657 -0.03233587 0.01159995 0.01359671 -0.04184645 0.01159995 0.003553926 -0.03381371 0.01159995 0.005906224 -0.04360175 0.01159995 -0.003553926 -0.03381371 0.01159995 -0.001974046 -0.04395568 0.01159995 -0.009790897 -0.0428968 0.01159995 -0.01050657 -0.03233587 0.01159995 -0.01729309 -0.04045921 0.01159995 -0.01699995 -0.02944481 0.01159995 -0.02423942 -0.03672116 0.01159995 -0.02275043 -0.02526688 0.01159995 -0.03040671 -0.03180295 0.01159995 -0.02750653 -0.01998466 0.01159995 -0.03559672 -0.02586251 0.01159995 -0.03106051 -0.01382899 0.01159995 -0.03964263 -0.01909083 0.01159995 -0.04241436 -0.01170557 0.01159995 0.02750653 0.01998466 0.01159995 0.0377717 0.02256757 0.01159995 0.03106051 0.01382899 0.01159995 0.04119431 0.01546049 0.01159995 0.033257 0.007068991 0.01159995 0.04329288 0.007856488 0.01159995 0.03399997 0 0.01159995 0.04399996 0 0.01159995 0.033257 -0.007068991 0.01159995 0.04329288 -0.007856488 0.01159995 0.04119431 -0.01546049 0.01159995 -0.01699995 0.02944481 0.01159995 -0.01729309 0.04045921 0.01159995 -0.01050657 0.03233587 0.01159995 -0.009790897 0.0428968 0.01159995 -0.003553926 0.03381371 0.01159995 -0.001974046 0.04395568 0.01159995 0.003553926 0.03381371 0.01159995 0.005906224 0.04360175 0.01159995 0.01050657 0.03233587 0.01159995 0.01359671 0.04184645 0.01159995 0.01699995 0.02944481 0.01159995 0.02085018 0.03874617 0.01159995 0.02275043 0.02526688 0.01159995 0.02743351 0.03440058 0.01159995 0.03313511 0.02894926 0.01159995 -0.04399996 0 0.01159995 -0.04382282 0.003944098 0.01159995 -0.033257 0.007068991 0.01159995 -0.04241436 0.01170557 0.01159995 -0.03106051 0.01382899 0.01159995 -0.03964263 0.01909083 0.01159995 -0.02750653 0.01998466 0.01159995 -0.03559672 0.02586251 0.01159995 -0.02275043 0.02526688 0.01159995 -0.03040671 0.03180295 0.01159995 -0.02423942 0.03672116 0.01159995 -0.04399996 0 0.01159995 0.04399996 0 0.04367834 0.033257 0.007068991 0 0.03399997 0 0 0.033257 -0.007068991 0 0.03106051 -0.01382899 0 0.02750653 -0.01998466 0 0.02275043 -0.02526688 0 0.01699995 -0.02944481 0 0.01050657 -0.03233587 0 0.003553926 -0.03381371 0 -0.003553926 -0.03381371 0 -0.01050657 -0.03233587 0 -0.01699995 -0.02944481 0 -0.02275043 -0.02526688 0 -0.02750653 -0.01998466 0 -0.03106051 -0.01382899 0 -0.033257 -0.007068991 0 -0.03399997 0 0.01159995 -0.03399997 0 0 -0.033257 0.007068991 0 -0.03106051 0.01382899 0 -0.02750653 0.01998466 0 -0.02275043 0.02526688 0 -0.01699995 0.02944481 0 -0.01050657 0.03233587 0 -0.003553926 0.03381371 0 0.003553926 0.03381371 0 0.01050657 0.03233587 0 0.01699995 0.02944481 0 0.02275043 0.02526688 0 0.02750653 0.01998466 0 0.03106051 0.01382899 0 0.05249994 0 0.05129998 -0.05249994 0 0.05129998</float_array>
          <technique_common>
            <accessor source="#Arm_Base_Link-mesh-positions-array" count="370" stride="3">
              <param name="X" type="float"/>
              <param name="Y" type="float"/>
              <param name="Z" type="float"/>
            </accessor>
          </technique_common>
        </source>
        <source id="Arm_Base_Link-mesh-normals">
          <float_array id="Arm_Base_Link-mesh-normals-array" count="1848">-0.5110247 -0.1917917 -0.8378962 0.3130772 -0.4742955 -0.8228162 0.3419682 -0.6318999 -0.6955288 0.70607 -0.05850708 -0.705721 0.6838581 0 -0.729615 0.6796786 0.09622436 -0.7271712 0.7060706 0.05850595 -0.7057206 0.7060701 0.05850714 -0.7057209 0.6686397 0.1915662 -0.718487 0.6904464 0.1748449 -0.7019352 0.690446 0.1748433 -0.701936 0.5912733 0.3863006 -0.707932 0.6650298 0.2917075 -0.6874899 0.6650266 0.291708 -0.6874926 0.5192196 0.4779752 -0.7084848 0.5859857 0.5394223 -0.6046855 0.4698055 0.5115134 -0.7194699 0.4342644 0.5579436 -0.7071871 0.4802163 0.6169955 -0.6234652 0.3750981 0.5876855 -0.7168872 0.2469792 0.7194303 -0.6491698 0.2469813 0.7194318 -0.6491672 0.3032059 0.5602634 -0.770825 0.1389969 0.6883903 -0.7118979 0.1175974 0.7047209 -0.6996709 0.1175967 0.7047215 -0.6996704 0.06995266 0.6869808 -0.7233009 0 0.7028135 -0.7113743 0 0.7028123 -0.7113754 0 0.702813 -0.7113747 0 0.7028132 -0.7113745 -0.06995266 0.6869808 -0.7233009 -0.1175968 0.7047218 -0.6996701 -0.1147435 0.6876304 -0.7169368 -0.2095649 0.6783411 -0.7042272 -0.3032031 0.5602582 -0.7708299 -0.2469813 0.7194318 -0.6491672 -0.2469792 0.7194305 -0.6491695 -0.4802171 0.61699 -0.62347 -0.4802219 0.616999 -0.6234576 -0.3631841 0.6215321 -0.6941147 -0.4135181 0.5312852 -0.739418 -0.5859766 0.5394338 -0.6046841 -0.5859743 0.5394377 -0.6046828 -0.4584288 0.5449469 -0.7020513 -0.6664049 0.284946 -0.6889923 -0.6650298 0.2917075 -0.6874899 -0.591275 0.3863003 -0.7079309 -0.690446 0.1748433 -0.7019361 -0.6904464 0.1748449 -0.7019352 -0.6686393 0.1915662 -0.7184873 -0.6569713 0.2882014 -0.6966554 -0.656979 0.2881759 -0.6966587 -0.6838581 0 -0.729615 -0.7060701 0.05850714 -0.7057209 -0.7060706 0.05850595 -0.7057206 -0.6796786 -0.09622436 -0.7271712 -0.7060706 -0.05850595 -0.7057206 -0.7060701 -0.05850714 -0.7057209 -0.6686397 -0.1915662 -0.718487 -0.6904464 -0.1748449 -0.7019352 -0.690446 -0.1748433 -0.701936 -0.5912733 -0.3863006 -0.707932 -0.6650298 -0.2917075 -0.6874899 -0.6650266 -0.291708 -0.6874926 -0.5849754 -0.3756461 -0.7188142 -0.5763331 -0.3861933 -0.7202048 -0.5989099 -0.284915 -0.7484186 -0.6576131 -0.285076 -0.6973355 -0.6569713 -0.2882014 -0.6966554 -0.5192196 -0.4779752 -0.7084848 -0.5855603 -0.3825642 -0.7146775 -0.5855608 -0.3825649 -0.7146766 -0.5859857 -0.5394223 -0.6046855 -0.4698055 -0.5115134 -0.7194699 -0.4342644 -0.5579436 -0.7071871 -0.4802163 -0.6169955 -0.6234652 -0.3750981 -0.5876855 -0.7168872 -0.2948382 -0.6209974 -0.7262457 -0.3419667 -0.6319013 -0.6955283 -0.3419683 -0.6319001 -0.6955286 -0.2469813 -0.7194318 -0.6491672 -0.246977 -0.7194292 -0.6491718 -0.2095649 -0.6783411 -0.7042272 -0.1147433 -0.6876296 -0.7169376 -0.1389968 -0.6883897 -0.7118986 -0.1175974 -0.7047209 -0.6996709 -0.1175967 -0.7047215 -0.6996704 -0.06995266 -0.6869808 -0.7233009 0 -0.7028135 -0.7113743 0 -0.7028123 -0.7113754 0 -0.702813 -0.7113747 0 -0.7028132 -0.7113745 0.06995266 -0.6869808 -0.7233009 0.1175968 -0.7047218 -0.6996701 0.1147451 -0.6876313 -0.7169356 0.2469792 -0.7194305 -0.6491695 0.2915195 -0.6319743 -0.7180703 0.3285007 -0.6070167 -0.7236146 0.285911 -0.6245401 -0.7267769 0.3032059 -0.5602634 -0.770825 0.2469813 -0.7194318 -0.6491672 0.443235 -0.5465993 -0.7104731 0.4802184 -0.6169882 -0.6234709 0.4802219 -0.616999 -0.6234576 0.5299953 -0.463567 -0.710078 0.5859756 -0.539435 -0.6046839 0.5859743 -0.5394377 -0.6046828 0.6664049 -0.284946 -0.6889923 0.6650298 -0.2917075 -0.6874899 0.591275 -0.3863003 -0.7079309 0.690446 -0.1748433 -0.7019361 0.6904464 -0.1748449 -0.7019352 0.6686393 -0.1915662 -0.7184873 0.6569713 -0.2882014 -0.6966554 0.656979 -0.2881759 -0.6966587 0.6075912 -0.1676843 -0.7763473 0.6394611 -0.09623157 -0.7627773 0.6796786 -0.09622436 -0.7271712 0.7060706 -0.05850595 -0.7057206 0.6892945 -0.1902285 -0.699061 0.5026149 -0.2420455 -0.8299351 0.5026096 -0.2420449 -0.8299385 0.5585512 -0.2852165 -0.7788917 0.5074613 -0.3686913 -0.7788132 0.5295835 -0.3847627 -0.7559757 0.4068516 -0.4255377 -0.8083251 0.4068574 -0.4255363 -0.8083229 0.4275482 -0.4634746 -0.7761403 0.3620532 -0.5484918 -0.753707 0.2379437 -0.5567015 -0.795906 0.140753 -0.6166805 -0.7745282 0.1407505 -0.6166798 -0.7745292 0.1360328 -0.7043333 -0.6967135 0.1504948 -0.6190816 -0.770772 0.1362484 -0.6239813 -0.7694698 0.138559 -0.6070647 -0.7824793 0.2379423 -0.556705 -0.7959039 0.02925765 -0.6514601 -0.7581186 0.07567006 -0.6181121 -0.7824396 0.02777558 -0.6184801 -0.7853096 0 -0.6377581 -0.7702367 -0.08497124 -0.6273182 -0.7741136 -0.07494437 -0.6275839 -0.7749335 -0.08407741 -0.620683 -0.7795408 -0.08407402 -0.6206829 -0.7795411 -0.1485807 -0.6315394 -0.7609743 -0.1976229 -0.6082133 -0.7687795 -0.1646476 -0.5067297 -0.8462366 -0.2302565 -0.5901498 -0.7737604 -0.2915554 -0.5417997 -0.7883201 -0.2915545 -0.5417997 -0.7883205 -0.3132941 -0.5534589 -0.7717059 -0.417649 -0.5236185 -0.7425584 -0.3591971 -0.450423 -0.8173719 -0.4060369 -0.482627 -0.7760189 -0.5004112 -0.4372 -0.7472917 -0.4231643 -0.3697087 -0.8271927 -0.5015609 -0.3980592 -0.7681053 -0.5673447 -0.3389722 -0.7504784 -0.5034511 -0.3757152 -0.7780587 -0.5169687 -0.3088741 -0.7983359 -0.6305535 0 -0.7761459 -0.6305521 0 -0.776147 -0.6339825 -0.09621244 -0.7673391 -0.6175029 -0.1120603 -0.7785453 -0.6796785 0.09622436 -0.7271712 -0.6185514 0.09613144 -0.7798417 -0.6339596 0.1150469 -0.764761 -0.5840299 0.2851129 -0.7600129 -0.5110275 0.1917889 -0.8378949 -0.5110247 0.1917917 -0.8378961 -0.4231678 0.3697077 -0.8271912 -0.4231643 0.3697091 -0.8271924 -0.507733 0.3709655 -0.7775551 -0.478007 0.4176222 -0.7727231 -0.5269315 0.3760818 -0.7621718 -0.5169677 0.3088745 -0.7983365 -0.5169687 0.3088741 -0.7983359 -0.3592293 0.4504536 -0.8173409 -0.3592001 0.4504219 -0.8173711 -0.4137563 0.4510967 -0.7907703 -0.3419682 0.6318999 -0.6955288 -0.2915195 0.6319743 -0.7180703 -0.3162103 0.541611 -0.7788894 -0.1646507 0.5067357 -0.8462324 -0.1646456 0.5067282 -0.8462377 -0.2455845 0.5085423 -0.8252715 -0.1991356 0.612877 -0.7646744 -0.2915555 0.5418 -0.78832 -0.1147451 0.6876313 -0.7169356 -0.1360329 0.7043336 -0.6967133 -0.1502636 0.6205981 -0.7695966 -0.07548981 0.6204915 -0.7805714 -0.08497613 0.6273177 -0.7741135 0.07407814 0.6385845 -0.765978 0.02777594 0.618481 -0.7853087 0 0.618044 -0.7861436 0.02875208 0.6402291 -0.7676458 -0.08497083 0.6273184 -0.7741135 0.138559 0.6070647 -0.7824793 0.2379426 0.5567057 -0.7959034 0.2374357 0.5555071 -0.7968916 0.2369331 0.5567209 -0.7961938 0.222794 0.6243634 -0.7486878 0.1362484 0.6239813 -0.7694698 0.1504948 0.6190816 -0.770772 0.1407505 0.6166798 -0.7745292 0.1407536 0.6166807 -0.7745279 0.2374328 0.5555068 -0.7968926 0.3105832 0.5641539 -0.7650284 0.3505049 0.5309902 -0.7714894 0.313084 0.4742945 -0.8228142 0.4019982 0.4981093 -0.7682998 0.4341931 0.4541303 -0.7779731 0.5295832 0.3847624 -0.7559759 0.5045314 0.3852992 -0.772653 0.5101998 0.3758518 -0.7735838 0.5657562 0.2724542 -0.77826 0.5074619 0.3686916 -0.7788126 0.5074627 0.3686908 -0.7788124 0.5026141 0.2420455 -0.8299356 0.6892899 0.1902296 -0.6990653 0.4960809 0.2843198 -0.820406 0.5989092 0.2849152 -0.7484192 0.6131802 0.1920084 -0.7662524 0.6135166 0.1914195 -0.7661305 0.6075909 0.1676852 -0.7763472 0.6170346 -0.05553334 -0.7849742 0.6170349 -0.05553603 -0.7849738 0.6472695 0 -0.7622614 0.6170349 0.05553603 -0.7849738 0.6150938 0.09610754 -0.7825746 0.654416 0.05889797 -0.7538375 0.6075912 0.1676843 -0.7763472 0.3130835 -0.4742972 -0.8228128 0.3320343 -0.546613 -0.7687441 0.2582954 -0.604312 -0.7537179 0.31273 -0.5557088 -0.7703166 0.2371656 -0.5555005 -0.7969766 0.2227939 -0.6243634 -0.7486877 0.2227955 -0.6243635 -0.7486872 0.2095654 -0.6783424 -0.7042258 0.1147461 -0.6876302 -0.7169366 -0.3032032 -0.5602582 -0.7708299 -0.285911 -0.6245405 -0.7267766 -0.2227954 -0.6243636 -0.748687 -0.222794 -0.6243634 -0.7486876 -0.1491674 -0.6243507 -0.7667695 -0.1646461 -0.5067297 -0.8462368 0.407816 -0.475598 -0.7794182 0.3883126 -0.546299 -0.7421393 0.3883106 -0.5462982 -0.742141 0.3631836 -0.6215317 -0.6941153 0.4135181 -0.5312852 -0.739418 -0.4802217 -0.616999 -0.6234576 -0.5106412 -0.5437975 -0.6659804 -0.3883116 -0.5462986 -0.7421402 -0.3883113 -0.5462986 -0.7421403 -0.3368569 -0.5466699 -0.7666026 -0.3592 -0.4504216 -0.8173713 0.507463 -0.368691 -0.7788121 0.5101998 -0.3758518 -0.7735838 0.5045314 -0.3852992 -0.772653 0.4845604 -0.4631822 -0.7420671 0.4845589 -0.4631814 -0.7420685 0.4584293 -0.5449472 -0.7020506 0.503499 -0.4635079 -0.7291427 -0.5859758 -0.5394369 -0.6046819 -0.6156863 -0.460056 -0.6397491 -0.4845607 -0.4631817 -0.7420671 -0.4845587 -0.4631821 -0.7420682 -0.4030027 -0.4629865 -0.7894507 -0.4231641 -0.3697089 -0.8271927 0.6075906 -0.1676853 -0.7763474 0.6135166 -0.1914195 -0.7661305 0.6131802 -0.1920084 -0.7662524 0.59891 -0.2849146 -0.7484187 0.5989091 -0.2849155 -0.7484191 0.5763331 -0.3861933 -0.7202048 0.5849753 -0.3756461 -0.7188144 0.5855608 -0.3825649 -0.7146766 0.5855603 -0.3825642 -0.7146775 -0.6175032 -0.1120573 -0.7785454 -0.6232854 -0.2339237 -0.746187 -0.6137166 -0.1914213 -0.7659701 -0.6131262 -0.1924548 -0.7661836 -0.5989092 -0.2849152 -0.7484192 -0.4981675 -0.2843757 -0.8191214 -0.6675271 -0.2505252 -0.7011739 0.5855599 0.382564 -0.7146779 0.5855608 0.3825649 -0.7146766 0.5849754 0.3756461 -0.7188142 0.5763331 0.3861933 -0.7202048 0.5989099 0.284915 -0.7484186 0.6576131 0.285076 -0.6973355 0.6569713 0.2882014 -0.6966554 -0.5855613 0.3825645 -0.7146764 -0.5849748 0.3756462 -0.7188146 -0.5763332 0.3861933 -0.7202047 -0.5989091 0.2849155 -0.7484191 -0.5989101 0.2849144 -0.7484188 -0.6131262 0.1924548 -0.7661836 -0.6137164 0.1914212 -0.7659701 -0.6232854 0.2339237 -0.746187 -0.6175031 0.1120572 -0.7785456 0.4068516 0.4255377 -0.8083251 0.3982501 0.4628525 -0.7919372 0.4845587 0.4631822 -0.7420682 0.4845605 0.4631816 -0.7420674 0.6156872 0.4600559 -0.6397483 0.5859743 0.5394377 -0.6046828 -0.58556 0.382564 -0.7146778 -0.5299953 0.463567 -0.710078 -0.4845605 0.4631819 -0.7420672 -0.4845589 0.4631814 -0.7420685 -0.4476023 0.4636048 -0.7646718 -0.3903164 0.4894421 -0.7798074 0.3130772 0.4742955 -0.8228162 0.2976648 0.5457871 -0.7832703 0.3883114 0.5462985 -0.7421404 0.3883118 0.546299 -0.7421398 0.5106399 0.5437977 -0.6659812 0.480221 0.6169979 -0.6234592 -0.5034993 0.4635081 -0.7291424 -0.443235 0.5465993 -0.7104731 -0.3883126 0.546299 -0.7421393 -0.3883106 0.5462982 -0.742141 -0.3396027 0.5466942 -0.7653728 -0.2996169 0.5567823 -0.7747407 0.1147435 0.6876304 -0.7169368 0.2095654 0.6783424 -0.7042258 0.2227954 0.6243636 -0.7486871 0.285911 0.6245401 -0.7267769 0.2948382 0.6209974 -0.7262457 0.3419667 0.6319013 -0.6955283 0.3419683 0.6319001 -0.6955286 -0.3284999 0.6070169 -0.7236148 -0.285911 0.6245401 -0.7267769 -0.2227939 0.6243636 -0.7486875 -0.2227955 0.6243635 -0.7486872 -0.1635664 0.6246345 -0.7635955 -0.08900588 0.6570775 -0.7485501 0 0 -1 0 0 -1 -1.37449e-7 0 -1 0 0 -1 0 0 -1 4.02163e-7 0 -1 0 0 -1 -1.86646e-7 0 -1 4.06883e-7 0 -1 -1.85221e-7 0 -1 1.83265e-7 0 -1 -1.80812e-7 0 -1 -2.01862e-7 0 -1 1.86646e-7 0 -1 2.01081e-7 0 -1 -2.01082e-7 0 -1 -1.38916e-7 0 -1 0 0 -1 0 0 -1 0 0 -1 0 0 -1 0 0 -1 -1.86646e-7 0 -1 1.27151e-7 0 -1 0 0 -1 0.9959743 -0.08963918 0 0.9959744 -0.08963942 0 0.9639629 -0.2660371 0 0.963963 -0.2660366 0 0.9639629 -0.2660373 0 0.9639633 -0.2660354 0 0.9009688 -0.4338838 0 0.900969 -0.4338837 0 0.8090166 -0.5877859 0 0.8090174 -0.5877848 0 0.809018 -0.5877839 0 0.9009686 -0.4338846 0 0.8090168 -0.5877857 0 0.6910626 -0.7227949 0 0.6910628 -0.7227948 0 0.550898 -0.8345726 0 0.5508968 -0.8345734 0 0.5508968 -0.8345735 2.80084e-7 0.5508975 -0.8345729 0 0.3930235 -0.9195284 0 0.3930252 -0.9195278 2.7543e-7 0.3930251 -0.9195278 0 0.2225208 -0.974928 3.93569e-7 0.2225207 -0.974928 -2.30031e-7 0.2225208 -0.974928 0 0.3930258 -0.9195276 0 0.2225207 -0.974928 0 0.04486453 -0.9989931 0 0.04486495 -0.9989932 2.30031e-7 -0.1342332 -0.9909498 3.19903e-7 -0.1342331 -0.9909498 2.30031e-7 -0.1342326 -0.9909499 0 0.04486519 -0.9989931 0 -0.3090173 -0.9510564 5.33e-7 -0.3090171 -0.9510565 0 -0.3090171 -0.9510565 0 -0.1342329 -0.9909498 0 -0.4738689 -0.8805955 0 -0.4738689 -0.8805955 2.30031e-7 -0.4738693 -0.8805952 0 -0.3090166 -0.9510567 0 -0.6234903 -0.7818312 0 -0.6234898 -0.7818315 0 -0.6234896 -0.7818317 -2.36806e-7 -0.6234716 -0.7818461 0 -0.7530713 -0.657939 0 -0.7530714 -0.6579388 -1.33002e-7 -0.7530717 -0.6579386 0 -0.8584492 -0.5128986 0 -0.8584484 -0.5129 0 -0.858449 -0.5128989 0 -0.7530708 -0.6579396 0 -0.9362344 -0.3513762 0 -0.9362353 -0.3513739 0 -0.9362348 -0.3513751 0 -0.9362355 -0.3513732 0 -0.9839294 -0.178558 0 -0.9839296 -0.1785574 0 -0.9839297 -0.1785563 0 -1 0 0 -0.9989929 -0.04486417 6.30139e-4 -0.9999848 0 0.005521655 -0.9989929 0.04486417 6.30139e-4 -0.9839294 0.178558 0 -0.9839296 0.1785574 0 -0.9839297 0.1785563 0 -0.9362355 0.3513732 0 -0.9362347 0.3513755 0 -0.9362351 0.3513743 0 -0.858449 0.5128989 0 -0.8584484 0.5129 0 -0.8584492 0.5128986 0 -0.9362344 0.3513762 0 -0.7530708 0.6579396 0 -0.7530714 0.6579388 -1.33002e-7 -0.7530717 0.6579387 0 -0.7530713 0.657939 0 -0.6234898 0.7818315 0 -0.6234903 0.7818312 0 -0.6234896 0.7818317 -2.91453e-7 -0.4738693 0.8805952 0 -0.4738689 0.8805955 2.30031e-7 -0.4738689 0.8805955 0 -0.6234716 0.7818461 0 -0.3090171 0.9510565 0 -0.3090171 0.9510565 0 -0.3090174 0.9510564 2.665e-7 -0.3090166 0.9510567 0 -0.1342329 0.9909498 0 -0.1342332 0.9909498 3.19903e-7 -0.1342331 0.9909498 0 -0.1342326 0.9909499 0 0.04486519 0.9989931 0 0.04486495 0.9989932 2.30031e-7 0.2225209 0.974928 0 0.2225207 0.974928 0 0.2225207 0.974928 0 0.04486453 0.9989931 0 0.2225208 0.974928 0 0.3930258 0.9195276 0 0.3930251 0.9195278 0 0.3930252 0.9195278 2.7543e-7 0.3930235 0.9195284 0 0.5508975 0.8345729 0 0.5508968 0.8345735 2.80084e-7 0.5508968 0.8345734 0 0.550898 0.8345726 0 0.6910628 0.7227948 0 0.6910626 0.7227949 0 0.8090173 0.5877849 1.81328e-7 0.809017 0.5877854 0 0.8090168 0.5877857 0 0.6910626 0.7227949 0 0.809018 0.5877839 0 0.9009686 0.4338846 0 0.900969 0.4338837 0 0.963963 0.2660366 0 0.9639629 0.2660373 0 0.9639633 0.2660354 0 0.9009688 0.4338838 0 0.9639629 0.2660371 0 0.9959743 0.08963918 0 0.9959744 0.08963942 0 0.9959744 0.08963966 0 0.9959744 -0.08963966 0 0.994522 0.1045283 0 0.994522 -0.1045283 0 0.9945219 -0.104529 0 0.9510564 -0.3090174 0 0.9510566 -0.3090167 0 0.8660253 -0.5000001 0 0.8660258 -0.4999997 0 0.7431446 -0.6691309 0 0.7431454 -0.6691301 0 0.5877853 -0.809017 0 0.5877853 -0.8090171 0 0.4067364 -0.9135456 0 0.2079116 -0.9781476 0 0.2079117 -0.9781476 0 0 -1 0 -0.2079117 -0.9781476 0 -0.2079116 -0.9781476 0 -0.4067364 -0.9135456 0 -0.5877852 -0.8090171 0 -0.5877854 -0.809017 0 -0.7431454 -0.6691301 0 -0.7431446 -0.6691309 0 -0.8660258 -0.4999997 0 -0.8660253 -0.5000001 0 -0.9510566 -0.3090167 0 -0.9510564 -0.3090174 0 -0.9945219 -0.104529 0 -0.994522 -0.1045283 0 -0.994522 0.1045283 0 -0.9945219 0.104529 0 -0.9510564 0.3090174 0 -0.9510566 0.3090167 0 -0.8660253 0.5000001 0 -0.8660258 0.4999997 0 -0.7431446 0.6691309 0 -0.7431454 0.6691301 0 -0.5877853 0.809017 0 -0.5877853 0.8090171 0 -0.4067364 0.9135456 0 -0.2079116 0.9781476 0 -0.2079117 0.9781476 0 0 1 0 0.2079117 0.9781476 0 0.2079116 0.9781476 0 0.4067364 0.9135456 0 0.5877852 0.8090171 0 0.5877854 0.809017 0 0.7431454 0.6691301 0 0.7431446 0.6691309 0 0.8660258 0.4999997 0 0.8660253 0.5000001 0 0.9510566 0.3090167 0 0.9510564 0.3090174 0 0.9945219 0.104529 0 0 0 -1 0 0 -1 0 0 -1 0 0 -1 0 0 -1 0 0 -1 0 0 -1 0 0 -1 0 0 -1 0 0 -1 0 0 -1 0 0 -1 0 0 1 -3.36244e-7 0 1 4.45723e-6 0 1 1.10235e-6 0 1 -2.89799e-7 0 1 -3.31336e-6 0 1 -7.35198e-7 0 1 -1.06609e-6 0 1 -9.09025e-7 0 1 -1.91384e-7 0 1 -1.5317e-6 0 1 8.60845e-7 0 1 -1.24261e-6 0 1 4.06771e-7 0 1 1.6363e-6 0 1 -1.48371e-6 0 1 -3.69744e-5 0 1 -7.94384e-6 0 1 4.14411e-7 0 1 2.65987e-6 0 1 1.58426e-6 0 1 -9.32941e-6 0 1 -8.02033e-7 0 1 1.63831e-6 0 1 7.74896e-7 0 1 -1.42022e-6 0 1 4.05886e-6 0 1 -6.9242e-7 0 1 2.1927e-7 0 1 1.29494e-7 0 1 -6.8003e-7 0 1 1.18197e-6 0 1 -1.92405e-6 0 1 0 0 1 1.13534e-6 0 1 5.8831e-6 0 1 -7.95263e-6 0 1 4.03354e-6 0 1 -1.14931e-6 0 1 1.08723e-6 0 1 -7.06125e-7 0 1 1.05879e-6 0 1 -2.47004e-6 0 1 -8.90372e-7 0 1 -1.85941e-6 0 1 7.85903e-7 0 1 2.48592e-7 0 1 -2.33563e-6 0 1 1.10945e-6 0 1 5.39046e-7 0 1 4.76873e-6 0 1 2.55147e-7 0 1 -2.36102e-6 0 1 -1.61996e-6 0 1 4.34277e-7 0 1 2.8609e-5 0 1 -4.64998e-5 0 1</float_array>
          <technique_common>
            <accessor source="#Arm_Base_Link-mesh-normals-array" count="616" stride="3">
              <param name="X" type="float"/>
              <param name="Y" type="float"/>
              <param name="Z" type="float"/>
            </accessor>
          </technique_common>
        </source>
        <vertices id="Arm_Base_Link-mesh-vertices">
          <input semantic="POSITION" source="#Arm_Base_Link-mesh-positions"/>
        </vertices>
        <polylist count="726">
          <input semantic="VERTEX" source="#Arm_Base_Link-mesh-vertices" offset="0"/>
          <input semantic="NORMAL" source="#Arm_Base_Link-mesh-normals" offset="1"/>
          <vcount>3 3 3 3 3 3 3 3 3 3 3 3 3 3 3 3 3 3 3 3 3 3 3 3 3 3 3 3 3 3 3 3 3 3 3 3 3 3 3 3 3 3 3 3 3 3 3 3 3 3 3 3 3 3 3 3 3 3 3 3 3 3 3 3 3 3 3 3 3 3 3 3 3 3 3 3 3 3 3 3 3 3 3 3 3 3 3 3 3 3 3 3 3 3 3 3 3 3 3 3 3 3 3 3 3 3 3 3 3 3 3 3 3 3 3 3 3 3 3 3 3 3 3 3 3 3 3 3 3 3 3 3 3 3 3 3 3 3 3 3 3 3 3 3 3 3 3 3 3 3 3 3 3 3 3 3 3 3 3 3 3 3 3 3 3 3 3 3 3 3 3 3 3 3 3 3 3 3 3 3 3 3 3 3 3 3 3 3 3 3 3 3 3 3 3 3 3 3 3 3 3 3 3 3 3 3 3 3 3 3 3 3 3 3 3 3 3 3 3 3 3 3 3 3 3 3 3 3 3 3 3 3 3 3 3 3 3 3 3 3 3 3 3 3 3 3 3 3 3 3 3 3 3 3 3 3 3 3 3 3 3 3 3 3 3 3 3 3 3 3 3 3 3 3 3 3 3 3 3 3 3 3 3 3 3 3 3 3 3 3 3 3 3 3 3 3 3 3 3 3 3 3 3 3 3 3 3 3 3 3 3 3 3 3 3 3 3 3 3 3 3 3 3 3 3 3 3 3 3 3 3 3 3 3 3 3 3 3 3 3 3 3 3 3 3 3 3 3 3 3 3 3 3 3 3 3 3 3 3 3 3 3 3 3 3 3 3 3 3 3 3 3 3 3 3 3 3 3 3 3 3 3 3 3 3 3 3 3 3 3 3 3 3 3 3 3 3 3 3 3 3 3 3 3 3 3 3 3 3 3 3 3 3 3 3 3 3 3 3 3 3 3 3 3 3 3 3 3 3 3 3 3 3 3 3 3 3 3 3 3 3 3 3 3 3 3 3 3 3 3 3 3 3 3 3 3 3 3 3 3 3 3 3 3 3 3 3 3 3 3 3 3 3 3 3 3 3 3 3 3 3 3 3 3 3 3 3 3 3 3 3 3 3 3 3 3 3 3 3 3 3 3 3 3 3 3 3 3 3 3 3 3 3 3 3 3 3 3 3 3 3 3 3 3 3 3 3 3 3 3 3 3 3 3 3 3 3 3 3 3 3 3 3 3 3 3 3 3 3 3 3 3 3 3 3 3 3 3 3 3 3 3 3 3 3 3 3 3 3 3 3 3 3 3 3 3 3 3 3 3 3 3 3 3 3 3 3 3 3 3 3 3 3 3 3 3 3 3 3 3 3 3 3 3 3 3 3 3 3 3 3 3 3 3 3 3 3 3 3 3 3 3 3 3 3 3 3 3 3 3 3 3 3 3 3 3 3 3 3 3 3 3 3 3 3 3 3 3 3 3 3 3 3 3 3 3 3 3 3 3 3 3 3 3 3 3 3 3 3 3 3 3 3 3 3 3 3 3 3 3 3 3 3 3 3 3 3 3 3 3 3 3 3 3 3 3 3 3 3 3 3 3 3 3 3 3 3 3 3 3 3 3 3 3 3 3 3 3 3 3 3 3 3 3 3 3 </vcount>
          <p>0 0 1 0 2 0 3 1 4 1 5 1 6 2 7 2 8 2 9 3 10 3 11 3 11 4 10 4 12 4 13 5 14 5 12 5 12 6 14 6 15 6 12 7 15 7 11 7 16 8 17 8 13 8 13 9 17 9 18 9 13 10 18 10 14 10 19 11 20 11 21 11 21 12 20 12 22 12 21 13 22 13 23 13 24 14 25 14 26 14 27 15 28 15 29 15 29 16 28 16 30 16 29 17 30 17 31 17 32 18 33 18 34 18 34 19 33 19 35 19 36 20 37 20 38 20 38 21 37 21 39 21 38 22 39 22 40 22 41 23 42 23 43 23 43 24 42 24 44 24 44 25 42 25 45 25 45 26 42 26 46 26 45 27 46 27 47 27 47 28 46 28 48 28 47 29 48 29 49 29 49 30 48 30 50 30 50 31 48 31 51 31 50 32 51 32 52 32 53 33 54 33 55 33 55 34 54 34 56 34 57 35 58 35 56 35 56 36 58 36 59 36 56 37 59 37 55 37 60 38 61 38 62 38 62 39 61 39 63 39 62 40 63 40 64 40 64 41 63 41 65 41 66 42 67 42 68 42 68 43 67 43 69 43 68 44 69 44 70 44 71 45 72 45 73 45 73 46 72 46 74 46 73 47 74 47 75 47 76 48 77 48 78 48 78 49 77 49 79 49 78 50 79 50 71 50 71 51 79 51 80 51 71 52 80 52 72 52 81 53 82 53 83 53 83 54 82 54 84 54 83 55 84 55 76 55 85 56 86 56 81 56 81 57 86 57 87 57 81 58 87 58 82 58 88 59 89 59 85 59 85 60 89 60 90 60 85 61 90 61 86 61 91 62 92 62 93 62 93 63 92 63 94 63 93 64 94 64 95 64 96 65 91 65 97 65 97 66 91 66 93 66 97 67 93 67 88 67 88 68 93 68 95 68 88 69 95 69 89 69 98 70 99 70 96 70 96 71 99 71 100 71 96 72 100 72 91 72 101 73 102 73 103 73 103 74 102 74 104 74 103 75 104 75 105 75 106 76 107 76 108 76 108 77 107 77 109 77 110 78 111 78 109 78 109 79 111 79 112 79 109 80 112 80 108 80 113 81 114 81 115 81 114 82 113 82 116 82 116 83 113 83 117 83 116 84 117 84 118 84 118 85 117 85 119 85 118 86 119 86 120 86 120 87 119 87 121 87 121 88 119 88 122 88 121 89 122 89 123 89 123 90 122 90 124 90 123 91 124 91 125 91 125 92 124 92 126 92 126 93 124 93 127 93 126 94 127 94 128 94 129 95 130 95 128 95 131 96 132 96 133 96 8 97 7 97 134 97 134 98 7 98 135 98 134 99 135 99 131 99 131 100 135 100 136 100 131 101 136 101 132 101 137 102 138 102 139 102 139 103 138 103 140 103 139 104 140 104 141 104 142 105 143 105 144 105 144 106 143 106 145 106 144 107 145 107 146 107 147 108 148 108 149 108 149 109 148 109 150 109 149 110 150 110 151 110 152 111 153 111 154 111 154 112 153 112 155 112 154 113 155 113 147 113 147 114 155 114 156 114 147 115 156 115 148 115 157 116 158 116 154 116 154 117 158 117 10 117 154 118 10 118 152 118 152 119 10 119 9 119 159 120 160 120 161 120 161 121 160 121 162 121 162 122 160 122 163 122 163 123 160 123 164 123 163 124 164 124 165 124 166 125 167 125 168 125 168 126 167 126 169 126 169 127 167 127 170 127 170 128 167 128 137 128 170 129 137 129 3 129 171 130 172 130 173 130 174 131 175 131 127 131 127 132 175 132 176 132 128 133 127 133 129 133 129 134 127 134 176 134 129 135 176 135 171 135 171 136 176 136 177 136 171 137 177 137 172 137 174 138 127 138 178 138 178 139 127 139 124 139 178 140 124 140 179 140 179 141 124 141 122 141 179 142 122 142 180 142 180 143 122 143 119 143 180 144 119 144 181 144 181 145 119 145 182 145 182 146 119 146 117 146 182 147 117 147 183 147 184 148 185 148 186 148 186 149 185 149 110 149 186 150 110 150 187 150 187 151 110 151 188 151 188 152 110 152 109 152 188 153 109 153 189 153 190 154 191 154 192 154 192 155 191 155 104 155 192 156 104 156 193 156 194 157 195 157 196 157 196 158 195 158 96 158 196 159 96 159 197 159 197 160 96 160 97 160 197 161 97 161 198 161 199 162 200 162 83 162 83 163 200 163 201 163 83 163 201 163 81 163 81 162 201 162 202 162 81 164 202 164 85 164 85 165 202 165 203 165 76 166 78 166 83 166 83 167 78 167 204 167 83 168 204 168 199 168 205 169 206 169 207 169 207 170 206 170 208 170 207 171 208 171 209 171 210 172 211 172 212 172 212 173 211 173 213 173 212 174 213 174 214 174 214 175 213 175 215 175 214 176 215 176 205 176 205 177 215 177 216 177 205 178 216 178 206 178 217 179 218 179 219 179 219 180 218 180 220 180 219 181 220 181 70 181 65 182 221 182 64 182 64 183 221 183 222 183 64 184 222 184 223 184 224 185 225 185 226 185 226 186 225 186 227 186 226 187 227 187 222 187 222 188 227 188 228 188 222 189 228 189 223 189 53 190 52 190 54 190 54 191 52 191 51 191 54 192 51 192 229 192 229 193 51 193 48 193 229 194 48 194 230 194 42 195 231 195 46 195 46 196 231 196 232 196 46 197 232 197 48 197 48 198 232 198 233 198 48 199 233 199 230 199 234 200 235 200 236 200 236 201 235 201 237 201 238 202 237 202 239 202 239 203 237 203 235 203 239 204 235 204 41 204 41 205 235 205 234 205 41 206 234 206 42 206 42 207 234 207 240 207 42 208 240 208 231 208 238 209 239 209 241 209 241 210 239 210 35 210 241 211 35 211 242 211 243 212 244 212 245 212 245 213 244 213 30 213 245 214 30 214 246 214 247 215 248 215 249 215 249 216 248 216 26 216 249 217 26 217 250 217 251 218 252 218 250 218 250 219 252 219 253 219 250 220 253 220 249 220 251 221 254 221 255 221 255 222 254 222 256 222 251 223 250 223 254 223 254 224 250 224 16 224 254 225 16 225 256 225 256 226 16 226 13 226 256 227 13 227 257 227 158 228 258 228 10 228 10 229 258 229 259 229 10 230 259 230 12 230 12 231 259 231 260 231 12 232 260 232 13 232 13 233 260 233 261 233 13 234 261 234 257 234 5 235 4 235 262 235 262 236 4 236 8 236 262 237 8 237 173 237 173 238 8 238 134 238 173 239 134 239 171 239 171 240 134 240 131 240 171 241 131 241 129 241 129 242 131 242 133 242 129 243 133 243 130 243 115 244 111 244 113 244 113 245 111 245 110 245 113 246 110 246 117 246 117 247 110 247 185 247 117 248 185 248 183 248 183 249 185 249 184 249 3 250 137 250 4 250 4 251 137 251 139 251 4 252 139 252 8 252 8 253 139 253 141 253 8 254 141 254 6 254 106 255 105 255 107 255 107 256 105 256 104 256 107 257 104 257 109 257 109 258 104 258 191 258 109 259 191 259 189 259 189 260 191 260 190 260 165 261 164 261 166 261 166 262 164 262 142 262 166 263 142 263 167 263 167 264 142 264 144 264 167 265 144 265 137 265 137 266 144 266 146 266 137 267 146 267 138 267 101 268 98 268 102 268 102 269 98 269 96 269 102 270 96 270 104 270 104 271 96 271 195 271 104 272 195 272 193 272 193 273 195 273 194 273 157 274 154 274 159 274 159 275 154 275 147 275 159 276 147 276 160 276 160 277 147 277 149 277 160 278 149 278 164 278 164 279 149 279 151 279 164 280 151 280 142 280 142 281 151 281 263 281 142 282 263 282 143 282 203 283 264 283 85 283 85 284 264 284 2 284 85 285 2 285 88 285 88 286 2 286 1 286 88 287 1 287 97 287 1 288 0 288 97 288 97 289 0 289 198 289 25 290 265 290 26 290 26 291 265 291 19 291 26 292 19 292 250 292 250 293 19 293 21 293 250 294 21 294 16 294 16 295 21 295 23 295 16 296 23 296 17 296 266 297 214 297 75 297 75 298 214 298 205 298 75 299 205 299 73 299 73 300 205 300 207 300 73 301 207 301 71 301 71 302 207 302 209 302 71 303 209 303 78 303 78 304 209 304 267 304 78 305 267 305 204 305 247 306 246 306 248 306 248 307 246 307 30 307 248 308 30 308 26 308 26 309 30 309 28 309 26 310 28 310 24 310 24 311 28 311 27 311 266 312 66 312 214 312 214 313 66 313 68 313 214 314 68 314 212 314 212 315 68 315 70 315 212 316 70 316 210 316 210 317 70 317 220 317 243 318 242 318 244 318 244 319 242 319 35 319 244 320 35 320 30 320 30 321 35 321 33 321 30 322 33 322 31 322 31 323 33 323 32 323 69 324 60 324 70 324 70 325 60 325 62 325 70 326 62 326 219 326 219 327 62 327 64 327 219 328 64 328 217 328 217 329 64 329 223 329 43 330 36 330 41 330 41 331 36 331 38 331 41 332 38 332 239 332 239 333 38 333 40 333 239 334 40 334 35 334 35 335 40 335 268 335 35 336 268 336 34 336 221 337 57 337 222 337 222 338 57 338 56 338 222 339 56 339 226 339 226 340 56 340 54 340 226 341 54 341 224 341 224 342 54 342 229 342 269 343 270 343 271 343 272 343 273 343 274 343 274 343 273 343 275 343 274 343 275 343 276 343 276 343 275 343 277 343 276 343 277 343 278 343 278 343 277 343 279 343 278 343 279 343 280 343 280 344 279 344 281 344 280 343 281 343 282 343 282 345 281 345 283 345 282 343 283 343 284 343 283 343 285 343 284 343 284 346 285 346 286 346 284 343 286 343 287 343 287 347 286 347 288 347 287 348 288 348 289 348 289 349 288 349 290 349 289 343 290 343 291 343 291 350 290 350 292 350 291 351 292 351 293 351 293 352 292 352 294 352 293 343 294 343 295 343 295 353 294 353 296 353 295 343 296 343 271 343 271 354 296 354 297 354 271 343 297 343 269 343 298 343 299 343 300 343 300 343 299 343 301 343 300 355 301 355 302 355 302 356 301 356 303 356 302 343 303 343 304 343 304 343 303 343 305 343 304 343 305 343 306 343 306 343 305 343 307 343 306 343 307 343 272 343 272 343 307 343 308 343 272 343 308 343 273 343 309 357 310 357 311 357 311 347 310 347 312 347 311 358 312 358 313 358 313 346 312 346 314 346 313 343 314 343 315 343 315 343 314 343 316 343 315 343 316 343 317 343 317 359 316 359 318 359 317 343 318 343 319 343 319 360 318 360 320 360 319 343 320 343 321 343 321 361 320 361 322 361 321 343 322 343 298 343 298 343 322 343 323 343 298 343 323 343 299 343 269 362 324 362 270 362 270 343 324 343 325 343 270 363 325 363 326 363 326 343 325 343 327 343 326 364 327 364 328 364 328 365 327 365 329 365 328 366 329 366 330 366 330 343 329 343 331 343 330 343 331 343 332 343 332 343 331 343 333 343 332 367 333 367 309 367 309 343 333 343 334 343 309 349 334 349 310 349 158 368 307 368 258 368 258 369 307 369 305 369 158 370 157 370 307 370 307 371 157 371 159 371 307 372 159 372 308 372 159 373 161 373 308 373 308 374 161 374 162 374 308 375 162 375 273 375 166 376 275 376 165 376 165 377 275 377 273 377 165 378 273 378 163 378 163 379 273 379 162 379 166 380 168 380 275 380 275 381 168 381 169 381 275 381 169 381 277 381 169 382 170 382 277 382 277 383 170 383 3 383 277 384 3 384 279 384 279 385 3 385 5 385 279 386 5 386 262 386 262 387 173 387 279 387 279 388 173 388 172 388 279 389 172 389 281 389 175 390 283 390 176 390 176 391 283 391 281 391 176 392 281 392 177 392 177 393 281 393 172 393 175 394 174 394 283 394 283 395 174 395 178 395 283 396 178 396 285 396 181 397 286 397 180 397 180 398 286 398 285 398 180 399 285 399 179 399 179 400 285 400 178 400 184 401 288 401 183 401 183 402 288 402 286 402 183 403 286 403 182 403 182 404 286 404 181 404 188 405 290 405 187 405 187 406 290 406 288 406 187 407 288 407 186 407 186 408 288 408 184 408 192 409 292 409 190 409 190 410 292 410 290 410 190 411 290 411 189 411 189 412 290 412 188 412 192 413 193 413 292 413 292 414 193 414 194 414 292 415 194 415 294 415 198 416 296 416 197 416 197 417 296 417 294 417 197 418 294 418 196 418 196 419 294 419 194 419 198 420 0 420 296 420 296 421 0 421 2 421 296 422 2 422 297 422 2 423 264 423 297 423 297 424 264 424 203 424 297 425 203 425 269 425 203 426 202 426 269 426 269 427 202 427 201 427 269 428 201 428 335 428 335 429 201 429 200 429 335 430 200 430 325 430 267 431 327 431 204 431 204 432 327 432 325 432 204 433 325 433 199 433 199 427 325 427 200 427 267 434 209 434 327 434 327 435 209 435 208 435 327 436 208 436 329 436 215 437 331 437 216 437 216 438 331 438 329 438 216 439 329 439 206 439 206 440 329 440 208 440 215 441 213 441 331 441 331 442 213 442 211 442 331 443 211 443 333 443 333 444 211 444 210 444 333 445 210 445 334 445 334 446 210 446 220 446 334 447 220 447 218 447 228 448 310 448 223 448 223 449 310 449 334 449 223 450 334 450 217 450 217 451 334 451 218 451 224 452 312 452 225 452 225 453 312 453 310 453 225 454 310 454 227 454 227 455 310 455 228 455 224 456 229 456 312 456 312 457 229 457 230 457 312 458 230 458 314 458 230 459 233 459 314 459 314 460 233 460 232 460 314 461 232 461 316 461 234 462 318 462 240 462 240 463 318 463 316 463 240 464 316 464 231 464 231 465 316 465 232 465 234 466 236 466 318 466 318 467 236 467 237 467 318 468 237 468 320 468 320 469 237 469 238 469 320 470 238 470 241 470 241 471 242 471 320 471 320 472 242 472 243 472 320 473 243 473 322 473 243 474 245 474 322 474 322 475 245 475 246 475 322 476 246 476 323 476 253 477 299 477 249 477 249 478 299 478 323 478 249 479 323 479 247 479 247 480 323 480 246 480 253 481 252 481 299 481 299 482 252 482 251 482 299 483 251 483 301 483 257 484 303 484 256 484 256 485 303 485 301 485 256 486 301 486 255 486 255 487 301 487 251 487 257 488 261 488 303 488 303 489 261 489 260 489 303 490 260 490 305 490 305 491 260 491 336 491 305 492 336 492 258 492 337 493 304 493 338 493 338 494 304 494 306 494 338 495 306 495 339 495 339 496 306 496 272 496 339 497 272 497 340 497 340 498 272 498 274 498 340 499 274 499 341 499 341 500 274 500 276 500 341 501 276 501 342 501 342 502 276 502 278 502 342 503 278 503 343 503 343 504 278 504 280 504 343 504 280 504 344 504 344 505 280 505 282 505 344 506 282 506 345 506 345 507 282 507 284 507 345 507 284 507 346 507 346 508 284 508 287 508 346 509 287 509 347 509 347 510 287 510 289 510 347 510 289 510 348 510 348 511 289 511 291 511 348 512 291 512 349 512 349 513 291 513 293 513 349 514 293 514 350 514 350 515 293 515 295 515 350 516 295 516 351 516 351 517 295 517 271 517 351 518 271 518 352 518 352 519 271 519 353 519 352 520 353 520 354 520 354 521 353 521 326 521 354 522 326 522 355 522 355 523 326 523 328 523 355 524 328 524 356 524 356 525 328 525 330 525 356 526 330 526 357 526 357 527 330 527 332 527 357 528 332 528 358 528 358 529 332 529 309 529 358 530 309 530 359 530 359 531 309 531 311 531 359 531 311 531 360 531 360 532 311 532 313 532 360 533 313 533 361 533 361 534 313 534 315 534 361 534 315 534 362 534 362 535 315 535 317 535 362 536 317 536 363 536 363 537 317 537 319 537 363 537 319 537 364 537 364 538 319 538 321 538 364 539 321 539 365 539 365 540 321 540 298 540 365 541 298 541 366 541 366 542 298 542 300 542 366 543 300 543 367 543 367 544 300 544 302 544 367 545 302 545 337 545 337 546 302 546 304 546 355 343 340 343 354 343 354 547 340 547 341 547 354 548 341 548 342 548 355 343 356 343 340 343 340 549 356 549 357 549 340 550 357 550 358 550 358 343 359 343 340 343 340 343 359 343 360 343 340 551 360 551 361 551 342 343 343 343 354 343 354 343 343 343 344 343 354 552 344 552 345 552 361 343 362 343 340 343 340 553 362 553 363 553 340 343 363 343 364 343 364 343 365 343 340 343 340 554 365 554 366 554 340 555 366 555 367 555 367 343 337 343 340 343 340 343 337 343 338 343 340 343 338 343 339 343 354 556 348 556 349 556 349 343 350 343 354 343 354 557 350 557 351 557 354 343 351 343 352 343 345 343 346 343 354 343 354 558 346 558 347 558 354 343 347 343 348 343 153 559 74 559 155 559 155 559 74 559 156 559 153 559 152 559 74 559 74 560 152 560 9 560 74 559 9 559 75 559 123 559 74 559 121 559 121 561 74 561 120 561 145 559 143 559 74 559 74 562 143 562 263 562 74 563 263 563 151 563 63 559 61 559 9 559 123 559 125 559 74 559 74 559 125 559 126 559 74 564 126 564 128 564 140 565 138 565 74 565 74 566 138 566 146 566 74 567 146 567 145 567 151 559 150 559 74 559 74 568 150 568 148 568 74 559 148 559 156 559 114 559 74 559 115 559 115 559 74 559 111 559 114 569 116 569 74 569 74 570 116 570 118 570 74 571 118 571 120 571 368 559 221 559 9 559 9 572 221 572 65 572 9 573 65 573 63 573 32 559 34 559 221 559 221 559 34 559 268 559 221 559 268 559 57 559 57 574 268 574 58 574 77 575 76 575 84 575 100 576 99 576 74 576 74 577 99 577 98 577 74 578 98 578 101 578 101 559 103 559 74 559 74 579 103 579 105 579 74 580 105 580 106 580 106 559 108 559 74 559 74 581 108 581 112 581 74 582 112 582 111 582 7 583 6 583 74 583 74 584 6 584 141 584 74 585 141 585 140 585 22 559 20 559 221 559 221 586 20 586 19 586 221 587 19 587 265 587 265 559 25 559 221 559 221 588 25 588 24 588 221 589 24 589 27 589 27 559 29 559 221 559 221 559 29 559 31 559 221 559 31 559 32 559 39 559 37 559 59 559 49 559 50 559 52 559 61 559 60 559 9 559 9 590 60 590 69 590 9 591 69 591 67 591 67 559 66 559 9 559 9 592 66 592 266 592 9 593 266 593 75 593 74 594 84 594 369 594 369 595 87 595 74 595 74 596 87 596 86 596 74 597 86 597 90 597 128 598 130 598 74 598 74 599 130 599 133 599 74 600 133 600 132 600 132 559 136 559 74 559 74 601 136 601 135 601 74 602 135 602 7 602 368 603 15 603 221 603 221 604 15 604 14 604 221 605 14 605 18 605 94 559 92 559 74 559 74 606 92 606 91 606 74 607 91 607 100 607 18 608 17 608 221 608 221 609 17 609 23 609 221 559 23 559 22 559 58 610 268 610 59 610 59 559 268 559 40 559 59 611 40 611 39 611 37 559 36 559 59 559 59 612 36 612 43 612 59 613 43 613 44 613 44 559 45 559 47 559 90 559 89 559 74 559 74 614 89 614 95 614 74 559 95 559 94 559 55 559 59 559 53 559 53 559 59 559 44 559 53 559 44 559 52 559 52 559 44 559 47 559 52 559 47 559 49 559 74 559 72 559 84 559 84 559 72 559 80 559 84 559 80 559 77 559 77 615 80 615 79 615</p>
        </polylist>
      </mesh>
    </geometry>
  </library_geometries>
  <library_controllers/>
  <library_visual_scenes>
    <visual_scene id="Scene" name="Scene">
      <node id="VIS_hollie_left_arm_podest_link" name="VIS_hollie_left_arm_podest_link" type="NODE">
        <instance_geometry url="#Arm_Base_Link-mesh" name="VIS_hollie_left_arm_podest_link"/>
      </node>
    </visual_scene>
  </library_visual_scenes>
  <scene>
    <instance_visual_scene url="#Scene"/>
  </scene>
</COLLADA>