<?xml version="1.0" encoding="utf-8"?>
<COLLADA xmlns="http://www.collada.org/2005/11/COLLADASchema" version="1.4.1">
  <asset>
    <contributor>
      <author>Blender User</author>
      <authoring_tool>Blender 2.76.0 commit date:2015-11-03, commit time:10:56, hash:f337fea</authoring_tool>
    </contributor>
    <created>2016-11-13T17:55:48</created>
    <modified>2016-11-13T17:55:48</modified>
    <unit name="meter" meter="1"/>
    <up_axis>Z_UP</up_axis>
  </asset>
  <library_images/>
  <library_geometries>
    <geometry id="shape0_035-mesh" name="shape0.035">
      <mesh>
        <source id="shape0_035-mesh-positions">
          <float_array id="shape0_035-mesh-positions-array" count="294">3.480078 -2.651619 -3.684018 4.839096 -0.8515445 3.644198 -4.848236 -0.8525815 3.644208 -3.513078 -2.652369 -3.684018 3.505698 -9.335319 -2.353461 3.605988 -11.2029 3.630346 -3.612908 -11.2037 3.480486 -3.488828 -9.336071 -2.353461 3.919388 -6.146588 -3.764089 5.428406 -6.215389 4.006907 -5.436386 -6.216549 4.006907 -3.927448 -6.147438 -3.764089 -0.003398478 -11.7693 3.840666 -0.004632771 -0.2349236 4.006908 0.002346992 -9.526879 -2.537631 -0.01040285 -2.425909 -4.025538 -0.003992736 -6.215969 4.006907 -0.004004657 -6.141938 -4.347289 4.115827 -10.5496 -0.1010347 4.225216 -1.81248 -0.2877321 -4.118916 -10.5505 -0.1010326 -4.238128 -1.81339 -0.2877262 5.090556 -6.203669 -0.2981678 -5.098546 -6.204759 -0.2981659 -0.005040049 -1.28703 -0.3291621 -0.002962172 -11.0779 -0.1181767 3.821068 -7.988898 -3.05163 4.774206 -9.299443 4.006907 -4.781536 -9.300473 4.006907 -3.812927 -7.989708 -3.05163 -0.003662705 -9.29995 4.006907 -1.91692e-4 -8.004341 -3.531799 4.933086 -8.654802 -0.1963203 -4.938096 -8.655872 -0.1963193 5.428076 -3.08707 4.006908 -5.436736 -3.088241 4.006908 -3.827847 -4.148369 -3.858559 3.803528 -4.147559 -3.858559 -0.004327476 -3.087641 4.006908 -0.007866144 -4.101819 -4.466868 5.000786 -3.719799 -0.2977485 -5.011806 -3.720879 -0.2977455 3.926617 -2.242039 -2.23784 -3.925087 -9.91624 -1.427401 4.804136 -6.175198 -2.22548 -0.00801444 -1.72906 -2.380699 -9.411e-6 -10.4051 -1.445931 3.933788 -9.91539 -1.427411 -3.951386 -2.242879 -2.23785 -4.812176 -6.176218 -2.22547 -4.664896 -8.289542 -1.81535 4.667706 -8.288539 -1.81535 -4.679946 -3.966188 -2.27244 4.661016 -3.965189 -2.27245 3.923686 -11.0399 1.849727 -4.495606 -1.3089 1.835529 -5.218106 -6.209639 1.832608 4.486227 -1.30793 1.835529 -3.930307 -11.0407 1.817607 5.210116 -6.208519 1.832608 -0.004573643 -0.7973852 1.830869 -0.003420174 -11.5757 1.825397 4.868216 -8.950221 1.841437 -4.875436 -8.951259 1.841427 5.181356 -3.452159 1.834128 -5.190116 -3.453269 1.834138 2.711568 -0.2346336 4.006908 1.891518 -9.452072 -2.45265 2.712208 -6.21568 4.006907 1.822248 -11.6978 3.923786 1.872228 -2.508479 -3.892799 2.037118 -6.143048 -4.178699 2.149658 -10.9545 -0.1063447 2.208178 -1.4094 -0.30892 1.983098 -7.977248 -3.388859 2.385268 -9.299693 4.006907 1.970338 -4.135058 -4.289059 2.711868 -3.087351 4.006908 2.053038 -10.283 -1.411511 2.045458 -1.85547 -2.312119 2.035028 -11.464 1.837567 2.343848 -0.8981961 1.833199 -1.829058 -11.6982 3.795326 -1.899238 -2.508869 -3.892799 -2.045168 -6.143488 -4.178689 -2.720828 -0.2352085 4.006908 -1.880638 -9.452482 -2.45265 -2.720188 -6.216259 4.006907 -2.219698 -1.40988 -0.3089101 -2.154128 -10.955 -0.1063506 -2.392588 -9.30021 4.006907 -1.979178 -7.977678 -3.388859 -2.720528 -3.08795 4.006908 -1.990418 -4.135478 -4.289069 -2.065908 -1.85591 -2.312129 -2.048638 -10.2835 -1.411501 -2.353148 -0.8986992 1.833199 -2.041718 -11.4644 1.821507</float_array>
          <technique_common>
            <accessor source="#shape0_035-mesh-positions-array" count="98" stride="3">
              <param name="X" type="float"/>
              <param name="Y" type="float"/>
              <param name="Z" type="float"/>
            </accessor>
          </technique_common>
        </source>
        <source id="shape0_035-mesh-normals">
          <float_array id="shape0_035-mesh-normals-array" count="558">0.9479892 0.2111096 -0.2382212 -0.1680591 -1.76974e-5 0.9857769 -0.8553501 0.3689141 -0.3637014 0.1461245 0.2424636 -0.9590928 -0.223418 0.933888 -0.2791729 0.2191275 -0.9744091 -0.05010128 0.9873489 -0.123446 -0.09951555 0 0 1 -0.8394826 -0.240605 -0.487215 0.1971351 -0.3926374 -0.8983172 0 0 1 -0.07889401 0.2537503 -0.964047 0.0417729 0.9673352 -0.2500352 -0.03636753 -0.9947588 -0.09556287 0 0 1 -0.07514172 -0.4000982 -0.9133867 0.903353 0.3684812 -0.2194879 -0.9348319 0.3028894 -0.1853302 -0.192802 0.9519366 -0.2380006 0.1682751 -0.8801205 -0.4439272 0.9847217 -0.09223371 -0.1477032 -0.9961412 -0.06753641 -0.05604916 0.06706309 0.9753453 -0.2102479 -0.06043171 -0.8903324 -0.4512831 0.9108703 -0.4118173 -0.02686935 2.93113e-5 -0.2665673 0.9638164 -0.6743308 -0.4613239 -0.576592 0.1550429 -0.4831416 -0.8617053 3.6152e-6 -0.03464102 0.9993999 -0.06793791 -0.5379306 -0.8402472 0.8614501 -0.4463756 -0.2421836 -0.9169379 -0.3979391 -0.0294888 0.9936129 1.04955e-4 -0.1128427 0 -3.04853e-7 1 -0.8796992 0.0213803 -0.4750498 0.2280801 -0.04586726 -0.9725614 -2.24469e-7 -3.04851e-7 1 -0.08818644 -0.05845153 -0.9943876 0.9841451 0.0355972 -0.173757 -0.9963623 0.01016432 -0.08461123 -0.9047942 0.3681089 -0.2141103 -0.9842414 -0.0972535 -0.1476846 0.8525921 0.3707677 -0.3682635 -0.2024597 0.9244464 -0.3231238 0.1523643 -0.8043567 -0.5742783 0.8410292 -0.2335889 -0.4879614 0.06773692 0.9186251 -0.389281 -0.05897182 -0.7777546 -0.6257956 -0.8586733 -0.4493196 -0.2465606 0.6782526 -0.4571769 -0.5752937 -0.9848788 0.03442192 -0.1697914 0.8779588 0.02830022 -0.4778992 0.9344652 0.3030627 -0.1868897 -0.1824244 0.9513841 -0.2481727 0.1973019 -0.9551905 -0.2206425 0.9962223 -0.06632989 -0.05604994 0.055857 0.9737316 -0.2207414 -0.05235153 -0.9673991 -0.247787 -0.948067 0.2109422 -0.2380595 -0.9873147 -0.1237227 -0.09951084 0.9173409 -0.3970911 -0.02836513 -0.9109091 -0.4117296 -0.02689826 0.9962667 0.01044231 -0.08569478 -0.993622 -1.1125e-4 -0.1127623 0.07910567 0.2539697 -0.9639719 0.05503672 -0.9928784 -0.1056568 0.07523405 -0.3998373 -0.9134933 0.1680645 1.76976e-5 0.9857761 0.1786275 0.9322019 -0.3147888 0 0 1 0.05333763 -0.8863348 -0.4599628 0.204612 0.9517842 -0.2285627 0.06791448 -0.5376975 -0.8403982 2.0291e-5 -0.1940806 0.9809856 0.08840304 -0.05811738 -0.9943879 -2.24468e-7 -3.04851e-7 1 0.05668324 -0.7760322 -0.6281411 0.1318464 0.9109863 -0.3907949 0.05678373 -0.9665812 -0.2499929 0.1926856 0.951633 -0.239305 0 0 1 -1.00359e-4 0.9564328 -0.291953 -0.1456131 0.2418693 -0.9593207 -0.2518265 -0.9638508 -0.08703601 -0.1969453 -0.3937271 -0.8978818 -0.05603092 0.9736427 -0.2210896 -0.1800875 -0.8686744 -0.4614902 9.61797e-6 -0.08788901 0.9961303 -0.155205 -0.4839549 -0.8612196 0 -3.04851e-7 1 -0.2275525 -0.04726034 -0.9726184 -0.06957161 0.919397 -0.3871291 -0.09465336 -0.7705535 -0.630308 -0.04212987 0.9712287 -0.2343929 -0.2121438 -0.947797 -0.2380672 0.9393066 0.3046131 -0.1578422 -1.70528e-5 0.1601445 0.9870936 -0.8450356 0.2339019 -0.4808378 0.2266724 0.1610852 -0.9605578 -0.178818 0.9321694 -0.314777 0.2538833 -0.9637433 -0.08211106 0.9781941 -0.2074979 0.009003698 -2.58887e-7 0 1 -0.7919257 -0.1690569 -0.5867483 0.1659016 -0.3633802 -0.9167506 -0.09075129 0.240517 -0.9663932 -1.02077e-4 0.9564335 -0.2919507 -0.05396944 -0.992273 -0.1117215 -0.07144677 -0.3966613 -0.9151805 0.8993275 0.3873648 -0.202876 -0.9193235 0.3735279 -0.1237798 -0.2043648 0.9520512 -0.2276697 0.1802331 -0.8691603 -0.4605178 0.9817163 -0.0704177 -0.1768459 -0.9922063 -0.1239739 0.0125392 0.05585497 0.9735968 -0.2213363 -0.05315989 -0.8861984 -0.4602461 0.8389436 -0.534816 0.1007261 -0.208249 -0.1344181 0.9687952 -0.6689652 -0.4460419 -0.5945858 0.09040331 -0.5377328 -0.8382545 -0.04275608 -0.06711286 0.9968289 -0.05928599 -0.545842 -0.8357882 0.8685877 -0.3900095 -0.305693 -0.9110783 -0.411935 -0.01568418 0.9949473 0.0104357 -0.09985524 0 -3.04853e-7 1 -0.8664957 0.04127103 -0.4974755 0.2149322 -0.03366893 -0.9760485 2.24469e-7 -3.04851e-7 1 -0.08216655 -0.05246776 -0.9952366 0.9874346 0.0608462 -0.1458451 -0.9978273 0.03485548 -0.05590927 -0.9011561 0.3849797 -0.1992697 -0.9807283 -0.07174932 -0.1817252 0.8425494 0.238521 -0.4829268 -0.1315187 0.9112479 -0.390295 0.09446579 -0.7709023 -0.6299096 0.7947453 -0.1646752 -0.5841764 0.06952822 0.9192882 -0.3873952 -0.05661213 -0.775837 -0.6283886 -0.8658916 -0.3901318 -0.313096 0.6738496 -0.4446981 -0.5900596 -0.9877089 0.05599474 -0.1459304 0.8663613 0.04553532 -0.4973377 0.9188714 0.3742939 -0.1248181 -0.1927598 0.9516673 -0.239109 0.2143626 -0.9478656 -0.2357955 0.9922269 -0.1236906 0.01365482 0.04192453 0.9712279 -0.2344329 -0.05657863 -0.9660801 -0.2519686 -0.9394049 0.3043528 -0.157759 -0.9781512 -0.2077037 0.008919537 0.9111319 -0.4118845 -0.01377975 -0.8340076 -0.5414526 0.1061149 0.9977844 0.03607088 -0.05590444 -0.9949505 0.01015859 -0.09985184 0.09090101 0.2408853 -0.9662874 0.04329776 -0.994484 -0.09553617 0.07138466 -0.3962707 -0.9153545 -1.67428e-5 0.1601495 0.9870929 0.223207 0.9339281 -0.2792075 0.06051832 -0.8904361 -0.4510667 0.1926923 0.9516745 -0.2391346 0.05920928 -0.5457051 -0.835883 0.1825671 -0.0768367 0.9801864 0.08217728 -0.05196708 -0.9952619 2.2447e-7 -3.04852e-7 1 0.05894571 -0.7778811 -0.6256409 0.2026808 0.9239959 -0.324272 0.05448299 -0.967294 -0.2477378 0.182217 0.9513468 -0.2484679 -0.04197704 0.9673264 -0.2500352 -0.2262559 0.159714 -0.9608849 -0.2184829 -0.9743563 -0.05380678 -0.1661004 -0.3646503 -0.9162101 -0.06712251 0.9753814 -0.2100611 -0.1683598 -0.8794795 -0.4451637 -0.02738475 -0.06714743 0.9973672 -0.09063416 -0.5380411 -0.8380319 0 -3.04853e-7 1 -0.2149029 -0.03541523 -0.9759931 -0.06769561 0.9186983 -0.3891153 -0.1524134 -0.8036362 -0.575273 -0.05603224 0.9737272 -0.2207164 -0.1970838 -0.954347 -0.2244549</float_array>
          <technique_common>
            <accessor source="#shape0_035-mesh-normals-array" count="186" stride="3">
              <param name="X" type="float"/>
              <param name="Y" type="float"/>
              <param name="Z" type="float"/>
            </accessor>
          </technique_common>
        </source>
        <source id="shape0_035-mesh-colors-shape0-lib-vcolor" name="shape0-lib-vcolor">
          <float_array id="shape0_035-mesh-colors-shape0-lib-vcolor-array" count="1728">0.654902 0.5019608 0.3137255 0.654902 0.5019608 0.3137255 0.654902 0.5019608 0.3137255 0.654902 0.5019608 0.3137255 0.654902 0.5019608 0.3137255 0.654902 0.5019608 0.3137255 0.654902 0.5019608 0.3137255 0.654902 0.5019608 0.3137255 0.654902 0.5019608 0.3137255 0.654902 0.5019608 0.3137255 0.654902 0.5019608 0.3137255 0.654902 0.5019608 0.3137255 0.654902 0.5019608 0.3137255 0.654902 0.5019608 0.3137255 0.654902 0.5019608 0.3137255 0.654902 0.5019608 0.3137255 0.654902 0.5019608 0.3137255 0.654902 0.5019608 0.3137255 0.654902 0.5019608 0.3137255 0.654902 0.5019608 0.3137255 0.654902 0.5019608 0.3137255 0.654902 0.5019608 0.3137255 0.654902 0.5019608 0.3137255 0.654902 0.5019608 0.3137255 0.654902 0.5019608 0.3137255 0.654902 0.5019608 0.3137255 0.654902 0.5019608 0.3137255 0.654902 0.5019608 0.3137255 0.654902 0.5019608 0.3137255 0.654902 0.5019608 0.3137255 0.654902 0.5019608 0.3137255 0.654902 0.5019608 0.3137255 0.654902 0.5019608 0.3137255 0.654902 0.5019608 0.3137255 0.654902 0.5019608 0.3137255 0.654902 0.5019608 0.3137255 0.654902 0.5019608 0.3137255 0.654902 0.5019608 0.3137255 0.654902 0.5019608 0.3137255 0.654902 0.5019608 0.3137255 0.654902 0.5019608 0.3137255 0.654902 0.5019608 0.3137255 0.654902 0.5019608 0.3137255 0.654902 0.5019608 0.3137255 0.654902 0.5019608 0.3137255 0.654902 0.5019608 0.3137255 0.654902 0.5019608 0.3137255 0.654902 0.5019608 0.3137255 0.654902 0.5019608 0.3137255 0.654902 0.5019608 0.3137255 0.654902 0.5019608 0.3137255 0.654902 0.5019608 0.3137255 0.654902 0.5019608 0.3137255 0.654902 0.5019608 0.3137255 0.654902 0.5019608 0.3137255 0.654902 0.5019608 0.3137255 0.654902 0.5019608 0.3137255 0.654902 0.5019608 0.3137255 0.654902 0.5019608 0.3137255 0.654902 0.5019608 0.3137255 0.654902 0.5019608 0.3137255 0.654902 0.5019608 0.3137255 0.654902 0.5019608 0.3137255 0.654902 0.5019608 0.3137255 0.654902 0.5019608 0.3137255 0.654902 0.5019608 0.3137255 0.654902 0.5019608 0.3137255 0.654902 0.5019608 0.3137255 0.654902 0.5019608 0.3137255 0.654902 0.5019608 0.3137255 0.654902 0.5019608 0.3137255 0.654902 0.5019608 0.3137255 0.654902 0.5019608 0.3137255 0.654902 0.5019608 0.3137255 0.654902 0.5019608 0.3137255 0.654902 0.5019608 0.3137255 0.654902 0.5019608 0.3137255 0.654902 0.5019608 0.3137255 0.654902 0.5019608 0.3137255 0.654902 0.5019608 0.3137255 0.654902 0.5019608 0.3137255 0.654902 0.5019608 0.3137255 0.654902 0.5019608 0.3137255 0.654902 0.5019608 0.3137255 0.654902 0.5019608 0.3137255 0.654902 0.5019608 0.3137255 0.654902 0.5019608 0.3137255 0.654902 0.5019608 0.3137255 0.654902 0.5019608 0.3137255 0.654902 0.5019608 0.3137255 0.654902 0.5019608 0.3137255 0.654902 0.5019608 0.3137255 0.654902 0.5019608 0.3137255 0.654902 0.5019608 0.3137255 0.654902 0.5019608 0.3137255 0.654902 0.5019608 0.3137255 0.654902 0.5019608 0.3137255 0.654902 0.5019608 0.3137255 0.654902 0.5019608 0.3137255 0.654902 0.5019608 0.3137255 0.654902 0.5019608 0.3137255 0.654902 0.5019608 0.3137255 0.654902 0.5019608 0.3137255 0.654902 0.5019608 0.3137255 0.654902 0.5019608 0.3137255 0.654902 0.5019608 0.3137255 0.654902 0.5019608 0.3137255 0.654902 0.5019608 0.3137255 0.654902 0.5019608 0.3137255 0.654902 0.5019608 0.3137255 0.654902 0.5019608 0.3137255 0.654902 0.5019608 0.3137255 0.654902 0.5019608 0.3137255 0.654902 0.5019608 0.3137255 0.654902 0.5019608 0.3137255 0.654902 0.5019608 0.3137255 0.654902 0.5019608 0.3137255 0.654902 0.5019608 0.3137255 0.654902 0.5019608 0.3137255 0.654902 0.5019608 0.3137255 0.654902 0.5019608 0.3137255 0.654902 0.5019608 0.3137255 0.654902 0.5019608 0.3137255 0.654902 0.5019608 0.3137255 0.654902 0.5019608 0.3137255 0.654902 0.5019608 0.3137255 0.654902 0.5019608 0.3137255 0.654902 0.5019608 0.3137255 0.654902 0.5019608 0.3137255 0.654902 0.5019608 0.3137255 0.654902 0.5019608 0.3137255 0.654902 0.5019608 0.3137255 0.654902 0.5019608 0.3137255 0.654902 0.5019608 0.3137255 0.654902 0.5019608 0.3137255 0.654902 0.5019608 0.3137255 0.654902 0.5019608 0.3137255 0.654902 0.5019608 0.3137255 0.654902 0.5019608 0.3137255 0.654902 0.5019608 0.3137255 0.654902 0.5019608 0.3137255 0.654902 0.5019608 0.3137255 0.654902 0.5019608 0.3137255 0.654902 0.5019608 0.3137255 0.654902 0.5019608 0.3137255 0.654902 0.5019608 0.3137255 0.654902 0.5019608 0.3137255 0.654902 0.5019608 0.3137255 0.654902 0.5019608 0.3137255 0.654902 0.5019608 0.3137255 0.654902 0.5019608 0.3137255 0.654902 0.5019608 0.3137255 0.654902 0.5019608 0.3137255 0.654902 0.5019608 0.3137255 0.654902 0.5019608 0.3137255 0.654902 0.5019608 0.3137255 0.654902 0.5019608 0.3137255 0.654902 0.5019608 0.3137255 0.654902 0.5019608 0.3137255 0.654902 0.5019608 0.3137255 0.654902 0.5019608 0.3137255 0.654902 0.5019608 0.3137255 0.654902 0.5019608 0.3137255 0.654902 0.5019608 0.3137255 0.654902 0.5019608 0.3137255 0.654902 0.5019608 0.3137255 0.654902 0.5019608 0.3137255 0.654902 0.5019608 0.3137255 0.654902 0.5019608 0.3137255 0.654902 0.5019608 0.3137255 0.654902 0.5019608 0.3137255 0.654902 0.5019608 0.3137255 0.654902 0.5019608 0.3137255 0.654902 0.5019608 0.3137255 0.654902 0.5019608 0.3137255 0.654902 0.5019608 0.3137255 0.654902 0.5019608 0.3137255 0.654902 0.5019608 0.3137255 0.654902 0.5019608 0.3137255 0.654902 0.5019608 0.3137255 0.654902 0.5019608 0.3137255 0.654902 0.5019608 0.3137255 0.654902 0.5019608 0.3137255 0.654902 0.5019608 0.3137255 0.654902 0.5019608 0.3137255 0.654902 0.5019608 0.3137255 0.654902 0.5019608 0.3137255 0.654902 0.5019608 0.3137255 0.654902 0.5019608 0.3137255 0.654902 0.5019608 0.3137255 0.654902 0.5019608 0.3137255 0.654902 0.5019608 0.3137255 0.654902 0.5019608 0.3137255 0.654902 0.5019608 0.3137255 0.654902 0.5019608 0.3137255 0.654902 0.5019608 0.3137255 0.654902 0.5019608 0.3137255 0.654902 0.5019608 0.3137255 0.654902 0.5019608 0.3137255 0.654902 0.5019608 0.3137255 0.654902 0.5019608 0.3137255 0.654902 0.5019608 0.3137255 0.654902 0.5019608 0.3137255 0.654902 0.5019608 0.3137255 0.654902 0.5019608 0.3137255 0.654902 0.5019608 0.3137255 0.654902 0.5019608 0.3137255 0.654902 0.5019608 0.3137255 0.654902 0.5019608 0.3137255 0.654902 0.5019608 0.3137255 0.654902 0.5019608 0.3137255 0.654902 0.5019608 0.3137255 0.654902 0.5019608 0.3137255 0.654902 0.5019608 0.3137255 0.654902 0.5019608 0.3137255 0.654902 0.5019608 0.3137255 0.654902 0.5019608 0.3137255 0.654902 0.5019608 0.3137255 0.654902 0.5019608 0.3137255 0.654902 0.5019608 0.3137255 0.654902 0.5019608 0.3137255 0.654902 0.5019608 0.3137255 0.654902 0.5019608 0.3137255 0.654902 0.5019608 0.3137255 0.654902 0.5019608 0.3137255 0.654902 0.5019608 0.3137255 0.654902 0.5019608 0.3137255 0.654902 0.5019608 0.3137255 0.654902 0.5019608 0.3137255 0.654902 0.5019608 0.3137255 0.654902 0.5019608 0.3137255 0.654902 0.5019608 0.3137255 0.654902 0.5019608 0.3137255 0.654902 0.5019608 0.3137255 0.654902 0.5019608 0.3137255 0.654902 0.5019608 0.3137255 0.654902 0.5019608 0.3137255 0.654902 0.5019608 0.3137255 0.654902 0.5019608 0.3137255 0.654902 0.5019608 0.3137255 0.654902 0.5019608 0.3137255 0.654902 0.5019608 0.3137255 0.654902 0.5019608 0.3137255 0.654902 0.5019608 0.3137255 0.654902 0.5019608 0.3137255 0.654902 0.5019608 0.3137255 0.654902 0.5019608 0.3137255 0.654902 0.5019608 0.3137255 0.654902 0.5019608 0.3137255 0.654902 0.5019608 0.3137255 0.654902 0.5019608 0.3137255 0.654902 0.5019608 0.3137255 0.654902 0.5019608 0.3137255 0.654902 0.5019608 0.3137255 0.654902 0.5019608 0.3137255 0.654902 0.5019608 0.3137255 0.654902 0.5019608 0.3137255 0.654902 0.5019608 0.3137255 0.654902 0.5019608 0.3137255 0.654902 0.5019608 0.3137255 0.654902 0.5019608 0.3137255 0.654902 0.5019608 0.3137255 0.654902 0.5019608 0.3137255 0.654902 0.5019608 0.3137255 0.654902 0.5019608 0.3137255 0.654902 0.5019608 0.3137255 0.654902 0.5019608 0.3137255 0.654902 0.5019608 0.3137255 0.654902 0.5019608 0.3137255 0.654902 0.5019608 0.3137255 0.654902 0.5019608 0.3137255 0.654902 0.5019608 0.3137255 0.654902 0.5019608 0.3137255 0.654902 0.5019608 0.3137255 0.654902 0.5019608 0.3137255 0.654902 0.5019608 0.3137255 0.654902 0.5019608 0.3137255 0.654902 0.5019608 0.3137255 0.654902 0.5019608 0.3137255 0.654902 0.5019608 0.3137255 0.654902 0.5019608 0.3137255 0.654902 0.5019608 0.3137255 0.654902 0.5019608 0.3137255 0.654902 0.5019608 0.3137255 0.654902 0.5019608 0.3137255 0.654902 0.5019608 0.3137255 0.654902 0.5019608 0.3137255 0.654902 0.5019608 0.3137255 0.654902 0.5019608 0.3137255 0.654902 0.5019608 0.3137255 0.654902 0.5019608 0.3137255 0.654902 0.5019608 0.3137255 0.654902 0.5019608 0.3137255 0.654902 0.5019608 0.3137255 0.654902 0.5019608 0.3137255 0.654902 0.5019608 0.3137255 0.654902 0.5019608 0.3137255 0.654902 0.5019608 0.3137255 0.654902 0.5019608 0.3137255 0.654902 0.5019608 0.3137255 0.654902 0.5019608 0.3137255 0.654902 0.5019608 0.3137255 0.654902 0.5019608 0.3137255 0.654902 0.5019608 0.3137255 0.654902 0.5019608 0.3137255 0.654902 0.5019608 0.3137255 0.654902 0.5019608 0.3137255 0.654902 0.5019608 0.3137255 0.654902 0.5019608 0.3137255 0.654902 0.5019608 0.3137255 0.654902 0.5019608 0.3137255 0.654902 0.5019608 0.3137255 0.654902 0.5019608 0.3137255 0.654902 0.5019608 0.3137255 0.654902 0.5019608 0.3137255 0.654902 0.5019608 0.3137255 0.654902 0.5019608 0.3137255 0.654902 0.5019608 0.3137255 0.654902 0.5019608 0.3137255 0.654902 0.5019608 0.3137255 0.654902 0.5019608 0.3137255 0.654902 0.5019608 0.3137255 0.654902 0.5019608 0.3137255 0.654902 0.5019608 0.3137255 0.654902 0.5019608 0.3137255 0.654902 0.5019608 0.3137255 0.654902 0.5019608 0.3137255 0.654902 0.5019608 0.3137255 0.654902 0.5019608 0.3137255 0.654902 0.5019608 0.3137255 0.654902 0.5019608 0.3137255 0.654902 0.5019608 0.3137255 0.654902 0.5019608 0.3137255 0.654902 0.5019608 0.3137255 0.654902 0.5019608 0.3137255 0.654902 0.5019608 0.3137255 0.654902 0.5019608 0.3137255 0.654902 0.5019608 0.3137255 0.654902 0.5019608 0.3137255 0.654902 0.5019608 0.3137255 0.654902 0.5019608 0.3137255 0.654902 0.5019608 0.3137255 0.654902 0.5019608 0.3137255 0.654902 0.5019608 0.3137255 0.654902 0.5019608 0.3137255 0.654902 0.5019608 0.3137255 0.654902 0.5019608 0.3137255 0.654902 0.5019608 0.3137255 0.654902 0.5019608 0.3137255 0.654902 0.5019608 0.3137255 0.654902 0.5019608 0.3137255 0.654902 0.5019608 0.3137255 0.654902 0.5019608 0.3137255 0.654902 0.5019608 0.3137255 0.654902 0.5019608 0.3137255 0.654902 0.5019608 0.3137255 0.654902 0.5019608 0.3137255 0.654902 0.5019608 0.3137255 0.654902 0.5019608 0.3137255 0.654902 0.5019608 0.3137255 0.654902 0.5019608 0.3137255 0.654902 0.5019608 0.3137255 0.654902 0.5019608 0.3137255 0.654902 0.5019608 0.3137255 0.654902 0.5019608 0.3137255 0.654902 0.5019608 0.3137255 0.654902 0.5019608 0.3137255 0.654902 0.5019608 0.3137255 0.654902 0.5019608 0.3137255 0.654902 0.5019608 0.3137255 0.654902 0.5019608 0.3137255 0.654902 0.5019608 0.3137255 0.654902 0.5019608 0.3137255 0.654902 0.5019608 0.3137255 0.654902 0.5019608 0.3137255 0.654902 0.5019608 0.3137255 0.654902 0.5019608 0.3137255 0.654902 0.5019608 0.3137255 0.654902 0.5019608 0.3137255 0.654902 0.5019608 0.3137255 0.654902 0.5019608 0.3137255 0.654902 0.5019608 0.3137255 0.654902 0.5019608 0.3137255 0.654902 0.5019608 0.3137255 0.654902 0.5019608 0.3137255 0.654902 0.5019608 0.3137255 0.654902 0.5019608 0.3137255 0.654902 0.5019608 0.3137255 0.654902 0.5019608 0.3137255 0.654902 0.5019608 0.3137255 0.654902 0.5019608 0.3137255 0.654902 0.5019608 0.3137255 0.654902 0.5019608 0.3137255 0.654902 0.5019608 0.3137255 0.654902 0.5019608 0.3137255 0.654902 0.5019608 0.3137255 0.654902 0.5019608 0.3137255 0.654902 0.5019608 0.3137255 0.654902 0.5019608 0.3137255 0.654902 0.5019608 0.3137255 0.654902 0.5019608 0.3137255 0.654902 0.5019608 0.3137255 0.654902 0.5019608 0.3137255 0.654902 0.5019608 0.3137255 0.654902 0.5019608 0.3137255 0.654902 0.5019608 0.3137255 0.654902 0.5019608 0.3137255 0.654902 0.5019608 0.3137255 0.654902 0.5019608 0.3137255 0.654902 0.5019608 0.3137255 0.654902 0.5019608 0.3137255 0.654902 0.5019608 0.3137255 0.654902 0.5019608 0.3137255 0.654902 0.5019608 0.3137255 0.654902 0.5019608 0.3137255 0.654902 0.5019608 0.3137255 0.654902 0.5019608 0.3137255 0.654902 0.5019608 0.3137255 0.654902 0.5019608 0.3137255 0.654902 0.5019608 0.3137255 0.654902 0.5019608 0.3137255 0.654902 0.5019608 0.3137255 0.654902 0.5019608 0.3137255 0.654902 0.5019608 0.3137255 0.654902 0.5019608 0.3137255 0.654902 0.5019608 0.3137255 0.654902 0.5019608 0.3137255 0.654902 0.5019608 0.3137255 0.654902 0.5019608 0.3137255 0.654902 0.5019608 0.3137255 0.654902 0.5019608 0.3137255 0.654902 0.5019608 0.3137255 0.654902 0.5019608 0.3137255 0.654902 0.5019608 0.3137255 0.654902 0.5019608 0.3137255 0.654902 0.5019608 0.3137255 0.654902 0.5019608 0.3137255 0.654902 0.5019608 0.3137255 0.654902 0.5019608 0.3137255 0.654902 0.5019608 0.3137255 0.654902 0.5019608 0.3137255 0.654902 0.5019608 0.3137255 0.654902 0.5019608 0.3137255 0.654902 0.5019608 0.3137255 0.654902 0.5019608 0.3137255 0.654902 0.5019608 0.3137255 0.654902 0.5019608 0.3137255 0.654902 0.5019608 0.3137255 0.654902 0.5019608 0.3137255 0.654902 0.5019608 0.3137255 0.654902 0.5019608 0.3137255 0.654902 0.5019608 0.3137255 0.654902 0.5019608 0.3137255 0.654902 0.5019608 0.3137255 0.654902 0.5019608 0.3137255 0.654902 0.5019608 0.3137255 0.654902 0.5019608 0.3137255 0.654902 0.5019608 0.3137255 0.654902 0.5019608 0.3137255 0.654902 0.5019608 0.3137255 0.654902 0.5019608 0.3137255 0.654902 0.5019608 0.3137255 0.654902 0.5019608 0.3137255 0.654902 0.5019608 0.3137255 0.654902 0.5019608 0.3137255 0.654902 0.5019608 0.3137255 0.654902 0.5019608 0.3137255 0.654902 0.5019608 0.3137255 0.654902 0.5019608 0.3137255 0.654902 0.5019608 0.3137255 0.654902 0.5019608 0.3137255 0.654902 0.5019608 0.3137255 0.654902 0.5019608 0.3137255 0.654902 0.5019608 0.3137255 0.654902 0.5019608 0.3137255 0.654902 0.5019608 0.3137255 0.654902 0.5019608 0.3137255 0.654902 0.5019608 0.3137255 0.654902 0.5019608 0.3137255 0.654902 0.5019608 0.3137255 0.654902 0.5019608 0.3137255 0.654902 0.5019608 0.3137255 0.654902 0.5019608 0.3137255 0.654902 0.5019608 0.3137255 0.654902 0.5019608 0.3137255 0.654902 0.5019608 0.3137255 0.654902 0.5019608 0.3137255 0.654902 0.5019608 0.3137255 0.654902 0.5019608 0.3137255 0.654902 0.5019608 0.3137255 0.654902 0.5019608 0.3137255 0.654902 0.5019608 0.3137255 0.654902 0.5019608 0.3137255 0.654902 0.5019608 0.3137255 0.654902 0.5019608 0.3137255 0.654902 0.5019608 0.3137255 0.654902 0.5019608 0.3137255 0.654902 0.5019608 0.3137255 0.654902 0.5019608 0.3137255 0.654902 0.5019608 0.3137255 0.654902 0.5019608 0.3137255 0.654902 0.5019608 0.3137255 0.654902 0.5019608 0.3137255 0.654902 0.5019608 0.3137255 0.654902 0.5019608 0.3137255 0.654902 0.5019608 0.3137255 0.654902 0.5019608 0.3137255 0.654902 0.5019608 0.3137255 0.654902 0.5019608 0.3137255 0.654902 0.5019608 0.3137255 0.654902 0.5019608 0.3137255 0.654902 0.5019608 0.3137255 0.654902 0.5019608 0.3137255 0.654902 0.5019608 0.3137255 0.654902 0.5019608 0.3137255 0.654902 0.5019608 0.3137255 0.654902 0.5019608 0.3137255 0.654902 0.5019608 0.3137255 0.654902 0.5019608 0.3137255 0.654902 0.5019608 0.3137255 0.654902 0.5019608 0.3137255 0.654902 0.5019608 0.3137255 0.654902 0.5019608 0.3137255 0.654902 0.5019608 0.3137255 0.654902 0.5019608 0.3137255 0.654902 0.5019608 0.3137255 0.654902 0.5019608 0.3137255 0.654902 0.5019608 0.3137255 0.654902 0.5019608 0.3137255 0.654902 0.5019608 0.3137255 0.654902 0.5019608 0.3137255 0.654902 0.5019608 0.3137255 0.654902 0.5019608 0.3137255 0.654902 0.5019608 0.3137255 0.654902 0.5019608 0.3137255 0.654902 0.5019608 0.3137255 0.654902 0.5019608 0.3137255 0.654902 0.5019608 0.3137255 0.654902 0.5019608 0.3137255 0.654902 0.5019608 0.3137255 0.654902 0.5019608 0.3137255 0.654902 0.5019608 0.3137255 0.654902 0.5019608 0.3137255 0.654902 0.5019608 0.3137255 0.654902 0.5019608 0.3137255 0.654902 0.5019608 0.3137255 0.654902 0.5019608 0.3137255 0.654902 0.5019608 0.3137255 0.654902 0.5019608 0.3137255 0.654902 0.5019608 0.3137255 0.654902 0.5019608 0.3137255 0.654902 0.5019608 0.3137255 0.654902 0.5019608 0.3137255 0.654902 0.5019608 0.3137255 0.654902 0.5019608 0.3137255 0.654902 0.5019608 0.3137255 0.654902 0.5019608 0.3137255 0.654902 0.5019608 0.3137255 0.654902 0.5019608 0.3137255 0.654902 0.5019608 0.3137255 0.654902 0.5019608 0.3137255 0.654902 0.5019608 0.3137255 0.654902 0.5019608 0.3137255 0.654902 0.5019608 0.3137255 0.654902 0.5019608 0.3137255 0.654902 0.5019608 0.3137255 0.654902 0.5019608 0.3137255 0.654902 0.5019608 0.3137255 0.654902 0.5019608 0.3137255 0.654902 0.5019608 0.3137255 0.654902 0.5019608 0.3137255 0.654902 0.5019608 0.3137255 0.654902 0.5019608 0.3137255 0.654902 0.5019608 0.3137255 0.654902 0.5019608 0.3137255 0.654902 0.5019608 0.3137255</float_array>
          <technique_common>
            <accessor source="#shape0_035-mesh-colors-shape0-lib-vcolor-array" count="576" stride="3">
              <param name="R" type="float"/>
              <param name="G" type="float"/>
              <param name="B" type="float"/>
            </accessor>
          </technique_common>
        </source>
        <vertices id="shape0_035-mesh-vertices">
          <input semantic="POSITION" source="#shape0_035-mesh-positions"/>
        </vertices>
        <polylist count="192">
          <input semantic="VERTEX" source="#shape0_035-mesh-vertices" offset="0"/>
          <input semantic="NORMAL" source="#shape0_035-mesh-normals" offset="1"/>
          <input semantic="COLOR" source="#shape0_035-mesh-colors-shape0-lib-vcolor" offset="2" set="0"/>
          <vcount>3 3 3 3 3 3 3 3 3 3 3 3 3 3 3 3 3 3 3 3 3 3 3 3 3 3 3 3 3 3 3 3 3 3 3 3 3 3 3 3 3 3 3 3 3 3 3 3 3 3 3 3 3 3 3 3 3 3 3 3 3 3 3 3 3 3 3 3 3 3 3 3 3 3 3 3 3 3 3 3 3 3 3 3 3 3 3 3 3 3 3 3 3 3 3 3 3 3 3 3 3 3 3 3 3 3 3 3 3 3 3 3 3 3 3 3 3 3 3 3 3 3 3 3 3 3 3 3 3 3 3 3 3 3 3 3 3 3 3 3 3 3 3 3 3 3 3 3 3 3 3 3 3 3 3 3 3 3 3 3 3 3 3 3 3 3 3 3 3 3 3 3 3 3 3 3 3 3 3 3 3 3 3 3 3 3 3 3 3 3 3 3 </vcount>
          <p>57 0 0 1 0 1 34 0 2 92 1 3 85 1 4 2 1 5 52 2 6 48 2 7 3 2 8 76 3 9 70 3 10 0 3 11 55 4 12 2 4 13 85 4 14 80 5 15 54 5 16 5 5 17 62 6 18 59 6 19 9 6 20 87 7 21 10 7 22 28 7 23 49 8 24 11 8 25 29 8 26 74 9 27 71 9 28 8 9 29 77 10 30 66 10 31 13 10 32 83 11 33 15 11 34 39 11 35 81 12 36 60 12 37 13 12 38 61 13 39 12 13 40 82 13 41 75 14 42 68 14 43 16 14 44 84 15 45 17 15 46 31 15 47 42 16 48 19 16 49 40 16 50 65 17 51 55 17 52 21 17 53 48 18 54 21 18 55 88 18 56 78 19 57 47 19 58 18 19 59 51 20 60 44 20 61 22 20 62 56 21 63 23 21 64 33 21 65 79 22 66 45 22 67 24 22 68 95 23 69 46 23 70 25 23 71 54 24 72 62 24 73 27 24 74 90 25 75 28 25 76 6 25 77 50 26 78 29 26 79 7 26 80 74 27 81 26 27 82 4 27 83 69 28 84 75 28 85 30 28 86 86 29 87 91 29 88 31 29 89 47 30 90 51 30 91 32 30 92 63 31 93 33 31 94 20 31 95 64 32 96 34 32 97 9 32 98 92 33 99 35 33 100 10 33 101 52 34 102 36 34 103 11 34 104 71 35 105 76 35 106 37 35 107 77 36 108 38 36 109 16 36 110 93 37 111 39 37 112 17 37 113 53 38 114 40 38 115 22 38 116 56 39 117 65 39 118 41 39 119 41 40 120 21 40 121 48 40 122 23 41 123 49 41 124 50 41 125 0 42 126 42 42 127 53 42 128 3 43 129 48 43 130 94 43 131 4 44 132 47 44 133 78 44 134 26 45 135 8 45 136 44 45 137 70 46 138 15 46 139 45 46 140 86 47 141 14 47 142 46 47 143 33 48 144 50 48 145 43 48 146 4 49 147 26 49 148 51 49 149 23 50 150 41 50 151 52 50 152 8 51 153 37 51 154 53 51 155 19 52 156 57 52 157 64 52 158 21 53 159 55 53 160 96 53 161 72 54 162 18 54 163 54 54 164 32 55 165 22 55 166 59 55 167 73 56 168 24 56 169 60 56 170 25 57 171 61 57 172 97 57 173 35 58 174 2 58 175 55 58 176 10 59 177 56 59 178 63 59 179 18 60 180 32 60 181 62 60 182 28 61 183 63 61 184 58 61 185 40 62 186 64 62 187 59 62 188 10 63 189 35 63 190 65 63 191 39 64 192 15 64 193 70 64 194 61 65 195 80 65 196 69 65 197 31 66 198 17 66 199 71 66 200 1 67 201 66 67 202 77 67 203 57 68 204 81 68 205 66 68 206 27 69 207 9 69 208 68 69 209 78 70 210 72 70 211 25 70 212 42 71 213 79 71 214 73 71 215 31 72 216 74 72 217 67 72 218 5 73 219 27 73 220 75 73 221 17 74 222 39 74 223 76 74 224 34 75 225 77 75 226 68 75 227 67 76 228 78 76 229 46 76 230 0 77 231 70 77 232 79 77 233 25 78 234 72 78 235 80 78 236 19 79 237 73 79 238 81 79 239 38 80 240 13 80 241 85 80 242 96 81 243 85 81 244 13 81 245 16 7 246 87 7 247 90 7 248 3 82 249 83 82 250 93 82 251 97 83 252 82 83 253 6 83 254 11 84 255 84 84 256 91 84 257 94 85 258 88 85 259 24 85 260 95 86 261 89 86 262 20 86 263 30 87 264 90 87 265 82 87 266 7 88 267 29 88 268 91 88 269 16 89 270 38 89 271 92 89 272 36 90 273 93 90 274 84 90 275 83 91 276 94 91 277 45 91 278 7 92 279 86 92 280 95 92 281 88 93 282 96 93 283 60 93 284 89 94 285 97 94 286 58 94 287 64 95 288 57 95 289 34 95 290 35 96 291 92 96 292 2 96 293 36 97 294 52 97 295 3 97 296 37 98 297 76 98 298 0 98 299 96 99 300 55 99 301 85 99 302 69 100 303 80 100 304 5 100 305 27 101 306 62 101 307 9 101 308 90 102 309 87 102 310 28 102 311 50 103 312 49 103 313 29 103 314 26 104 315 74 104 316 8 104 317 38 7 318 77 7 319 13 7 320 93 105 321 83 105 322 39 105 323 66 106 324 81 106 325 13 106 326 97 107 327 61 107 328 82 107 329 30 7 330 75 7 331 16 7 332 91 108 333 84 108 334 31 108 335 53 109 336 42 109 337 40 109 338 41 110 339 65 110 340 21 110 341 94 111 342 48 111 343 88 111 344 72 112 345 78 112 346 18 112 347 32 113 348 51 113 349 22 113 350 63 114 351 56 114 352 33 114 353 73 115 354 79 115 355 24 115 356 89 116 357 95 116 358 25 116 359 5 117 360 54 117 361 27 117 362 82 118 363 90 118 364 6 118 365 43 119 366 50 119 367 7 119 368 67 120 369 74 120 370 4 120 371 12 121 372 69 121 373 30 121 374 14 122 375 86 122 376 31 122 377 18 123 378 47 123 379 32 123 380 58 124 381 63 124 382 20 124 383 59 125 384 64 125 385 9 125 386 87 126 387 92 126 388 10 126 389 49 127 390 52 127 391 11 127 392 8 128 393 71 128 394 37 128 395 68 129 396 77 129 397 16 129 398 84 130 399 93 130 400 17 130 401 44 131 402 53 131 403 22 131 404 23 132 405 56 132 406 41 132 407 52 133 408 41 133 409 48 133 410 33 134 411 23 134 412 50 134 413 37 135 414 0 135 415 53 135 416 83 136 417 3 136 418 94 136 419 67 137 420 4 137 421 78 137 422 51 138 423 26 138 424 44 138 425 79 139 426 70 139 427 45 139 428 95 140 429 86 140 430 46 140 431 20 141 432 33 141 433 43 141 434 47 142 435 4 142 436 51 142 437 49 143 438 23 143 439 52 143 440 44 144 441 8 144 442 53 144 443 40 145 444 19 145 445 64 145 446 88 146 447 21 146 448 96 146 449 80 147 450 72 147 451 54 147 452 62 148 453 32 148 454 59 148 455 81 149 456 73 149 457 60 149 458 89 150 459 25 150 460 97 150 461 65 151 462 35 151 463 55 151 464 28 152 465 10 152 466 63 152 467 54 153 468 18 153 469 62 153 470 6 154 471 28 154 472 58 154 473 22 155 474 40 155 475 59 155 476 56 156 477 10 156 478 65 156 479 76 157 480 39 157 481 70 157 482 12 158 483 61 158 484 69 158 485 74 159 486 31 159 487 71 159 488 34 160 489 1 160 490 77 160 491 1 161 492 57 161 493 66 161 494 75 7 495 27 7 496 68 7 497 46 162 498 78 162 499 25 162 500 19 163 501 42 163 502 73 163 503 14 164 504 31 164 505 67 164 506 69 165 507 5 165 508 75 165 509 71 166 510 17 166 511 76 166 512 9 167 513 34 167 514 68 167 515 14 168 516 67 168 517 46 168 518 42 169 519 0 169 520 79 169 521 61 170 522 25 170 523 80 170 524 57 171 525 19 171 526 81 171 527 92 7 528 38 7 529 85 7 530 60 172 531 96 172 532 13 172 533 30 7 534 16 7 535 90 7 536 36 173 537 3 173 538 93 173 539 58 174 540 97 174 541 6 174 542 29 175 543 11 175 544 91 175 545 45 176 546 94 176 547 24 176 548 43 177 549 95 177 550 20 177 551 12 178 552 30 178 553 82 178 554 86 179 555 7 179 556 91 179 557 87 180 558 16 180 559 92 180 560 11 181 561 36 181 562 84 181 563 15 182 564 83 182 565 45 182 566 43 183 567 7 183 568 95 183 569 24 184 570 88 184 571 60 184 572 20 185 573 89 185 574 58 185 575</p>
        </polylist>
      </mesh>
    </geometry>
  </library_geometries>
  <library_controllers/>
  <library_visual_scenes>
    <visual_scene id="Scene" name="Scene">
      <node id="VIZ_RightFingerJoint23y_link_0" name="VIZ_RightFingerJoint23y_link_0" type="NODE">
        <instance_geometry url="#shape0_035-mesh" name="VIZ_RightFingerJoint23y_link_0"/>
      </node>
    </visual_scene>
  </library_visual_scenes>
  <scene>
    <instance_visual_scene url="#Scene"/>
  </scene>
</COLLADA>