<?xml version="1.0" encoding="utf-8"?>
<COLLADA xmlns="http://www.collada.org/2005/11/COLLADASchema" version="1.4.1">
  <asset>
    <contributor>
      <author>Blender User</author>
      <authoring_tool>Blender 2.78.0</authoring_tool>
    </contributor>
    <created>2017-11-29T09:38:41</created>
    <modified>2017-11-29T09:38:41</modified>
    <unit name="meter" meter="1"/>
    <up_axis>Z_UP</up_axis>
  </asset>
  <library_images/>
  <library_effects/>
  <library_geometries>
    <geometry id="Cube_001-mesh" name="Cube.001">
      <mesh>
        <source id="Cube_001-mesh-positions">
          <float_array id="Cube_001-mesh-positions-array" count="108">-0.176015 -0.278326 0.002296447 -0.176015 -0.278326 0.03561431 -0.176015 0.274918 0.002296447 -0.176015 0.274918 0.03561431 0.2895792 -0.278326 0.002296447 0.2895792 -0.278326 0.03561431 0.2895792 0.274918 0.002296447 0.2895792 0.274918 0.03561431 -0.176015 0.1172889 0.002296447 -0.176015 0.1172889 0.03561431 0.2895792 0.1172889 0.002296447 0.2895792 0.1172889 0.03561431 -0.176015 -0.1325713 0.002296447 0.2895792 -0.1325713 0.03561431 -0.176015 -0.1325713 0.03561431 0.2895792 -0.1325713 0.002296447 0.03757417 0.274918 0.002296447 0.03757417 0.274918 0.03561431 0.03757417 -0.278326 0.002296447 0.03757417 -0.278326 0.03561431 0.03757417 0.1172889 0.03561431 0.03757417 0.1172889 0.002296447 0.03757417 -0.1325713 0.03561431 0.03757417 -0.1325713 0.002296447 0.07808333 0.274918 0.03561431 0.07808333 -0.278326 0.002296447 0.07808333 0.1172889 0.03561431 0.07808333 -0.1325713 0.03561431 0.07808333 0.274918 0.002296447 0.07808333 -0.278326 0.03561431 0.07808333 0.1172889 0.002296447 0.07808333 -0.1325713 0.002296447 0.03757417 0.1172889 0.9101814 0.03757417 -0.1325713 0.9101814 0.07808333 0.1172889 0.9101814 0.07808333 -0.1325713 0.9101814</float_array>
          <technique_common>
            <accessor source="#Cube_001-mesh-positions-array" count="36" stride="3">
              <param name="X" type="float"/>
              <param name="Y" type="float"/>
              <param name="Z" type="float"/>
            </accessor>
          </technique_common>
        </source>
        <source id="Cube_001-mesh-normals">
          <float_array id="Cube_001-mesh-normals-array" count="18">-1 0 0 0 1 0 1 0 0 0 -1 0 0 0 -1 0 0 1</float_array>
          <technique_common>
            <accessor source="#Cube_001-mesh-normals-array" count="6" stride="3">
              <param name="X" type="float"/>
              <param name="Y" type="float"/>
              <param name="Z" type="float"/>
            </accessor>
          </technique_common>
        </source>
        <vertices id="Cube_001-mesh-vertices">
          <input semantic="POSITION" source="#Cube_001-mesh-positions"/>
        </vertices>
        <polylist count="68">
          <input semantic="VERTEX" source="#Cube_001-mesh-vertices" offset="0"/>
          <input semantic="NORMAL" source="#Cube_001-mesh-normals" offset="1"/>
          <vcount>3 3 3 3 3 3 3 3 3 3 3 3 3 3 3 3 3 3 3 3 3 3 3 3 3 3 3 3 3 3 3 3 3 3 3 3 3 3 3 3 3 3 3 3 3 3 3 3 3 3 3 3 3 3 3 3 3 3 3 3 3 3 3 3 3 3 3 3 </vcount>
          <p>9 0 2 0 8 0 24 1 6 1 28 1 13 2 4 2 15 2 19 3 0 3 18 3 15 4 25 4 31 4 14 5 19 5 22 5 3 5 20 5 17 5 6 4 30 4 28 4 7 2 10 2 6 2 14 0 8 0 12 0 1 0 12 0 0 0 9 5 22 5 20 5 10 4 31 4 30 4 11 2 15 2 10 2 21 4 12 4 8 4 27 3 33 3 22 3 16 4 8 4 2 4 17 5 26 5 24 5 22 5 29 5 27 5 23 4 0 4 12 4 29 3 18 3 25 3 3 1 16 1 2 1 5 3 25 3 4 3 27 5 5 5 13 5 24 5 11 5 7 5 26 5 13 5 11 5 30 4 23 4 21 4 28 4 21 4 16 4 31 4 18 4 23 4 17 1 28 1 16 1 32 5 35 5 34 5 22 0 32 0 20 0 20 1 34 1 26 1 26 2 35 2 27 2 9 0 3 0 2 0 24 1 7 1 6 1 13 2 5 2 4 2 19 3 1 3 0 3 15 4 4 4 25 4 14 5 1 5 19 5 3 5 9 5 20 5 6 4 10 4 30 4 7 2 11 2 10 2 14 0 9 0 8 0 1 0 14 0 12 0 9 5 14 5 22 5 10 4 15 4 31 4 11 2 13 2 15 2 21 4 23 4 12 4 27 3 35 3 33 3 16 4 21 4 8 4 17 5 20 5 26 5 22 5 19 5 29 5 23 4 18 4 0 4 29 3 19 3 18 3 3 1 17 1 16 1 5 3 29 3 25 3 27 5 29 5 5 5 24 5 26 5 11 5 26 5 27 5 13 5 30 4 31 4 23 4 28 4 30 4 21 4 31 4 25 4 18 4 17 1 24 1 28 1 32 5 33 5 35 5 22 0 33 0 32 0 20 1 32 1 34 1 26 2 34 2 35 2</p>
        </polylist>
      </mesh>
    </geometry>
    <geometry id="Cube_002-mesh" name="Cube.002">
      <mesh>
        <source id="Cube_002-mesh-positions">
          <float_array id="Cube_002-mesh-positions-array" count="24">-0.03809392 -0.9709543 0.2141093 -0.03809392 -0.9709543 1.29917 -0.03809392 0.9535269 0.2141093 -0.03809392 0.9535269 1.29917 0.06162625 -0.9709543 0.2141093 0.06162625 -0.9709543 1.29917 0.06162625 0.9535269 0.2141093 0.06162625 0.9535269 1.29917</float_array>
          <technique_common>
            <accessor source="#Cube_002-mesh-positions-array" count="8" stride="3">
              <param name="X" type="float"/>
              <param name="Y" type="float"/>
              <param name="Z" type="float"/>
            </accessor>
          </technique_common>
        </source>
        <source id="Cube_002-mesh-normals">
          <float_array id="Cube_002-mesh-normals-array" count="18">-1 0 0 0 1 0 1 0 0 0 -1 0 0 0 -1 0 0 1</float_array>
          <technique_common>
            <accessor source="#Cube_002-mesh-normals-array" count="6" stride="3">
              <param name="X" type="float"/>
              <param name="Y" type="float"/>
              <param name="Z" type="float"/>
            </accessor>
          </technique_common>
        </source>
        <vertices id="Cube_002-mesh-vertices">
          <input semantic="POSITION" source="#Cube_002-mesh-positions"/>
        </vertices>
        <polylist count="12">
          <input semantic="VERTEX" source="#Cube_002-mesh-vertices" offset="0"/>
          <input semantic="NORMAL" source="#Cube_002-mesh-normals" offset="1"/>
          <vcount>3 3 3 3 3 3 3 3 3 3 3 3 </vcount>
          <p>1 0 2 0 0 0 3 1 6 1 2 1 7 2 4 2 6 2 5 3 0 3 4 3 6 4 0 4 2 4 3 5 5 5 7 5 1 0 3 0 2 0 3 1 7 1 6 1 7 2 5 2 4 2 5 3 1 3 0 3 6 4 4 4 0 4 3 5 1 5 5 5</p>
        </polylist>
      </mesh>
    </geometry>
    <geometry id="Cube_003-mesh" name="Cube.003">
      <mesh>
        <source id="Cube_003-mesh-positions">
          <float_array id="Cube_003-mesh-positions-array" count="24">-0.9012447 -0.5788376 -0.01255005 -0.9012447 -0.5788376 0.03568351 -1.017427 0.3900406 -0.01255005 -1.017427 0.3900406 0.03568351 -0.5510392 -0.5265553 -0.01255005 -0.5510392 -0.5265553 0.03568351 -0.6614128 0.4365137 -0.01255005 -0.6614128 0.4365137 0.03568351</float_array>
          <technique_common>
            <accessor source="#Cube_003-mesh-positions-array" count="8" stride="3">
              <param name="X" type="float"/>
              <param name="Y" type="float"/>
              <param name="Z" type="float"/>
            </accessor>
          </technique_common>
        </source>
        <source id="Cube_003-mesh-normals">
          <float_array id="Cube_003-mesh-normals-array" count="33">-0.992887 -0.1190616 0 -0.1294388 0.9915875 0 0.9934968 0.1138607 0 0.1476539 -0.9890391 0 0 0 -1 0 0 1 -0.9928869 -0.1190619 0 0.9934968 0.1138608 0 0.1476538 -0.9890391 0 0 0 -1 0 0 1</float_array>
          <technique_common>
            <accessor source="#Cube_003-mesh-normals-array" count="11" stride="3">
              <param name="X" type="float"/>
              <param name="Y" type="float"/>
              <param name="Z" type="float"/>
            </accessor>
          </technique_common>
        </source>
        <vertices id="Cube_003-mesh-vertices">
          <input semantic="POSITION" source="#Cube_003-mesh-positions"/>
        </vertices>
        <polylist count="12">
          <input semantic="VERTEX" source="#Cube_003-mesh-vertices" offset="0"/>
          <input semantic="NORMAL" source="#Cube_003-mesh-normals" offset="1"/>
          <vcount>3 3 3 3 3 3 3 3 3 3 3 3 </vcount>
          <p>1 0 2 0 0 0 3 1 6 1 2 1 7 2 4 2 6 2 5 3 0 3 4 3 2 4 4 4 0 4 3 5 5 5 7 5 1 6 3 6 2 6 3 1 7 1 6 1 7 7 5 7 4 7 5 8 1 8 0 8 2 9 6 9 4 9 3 10 1 10 5 10</p>
        </polylist>
      </mesh>
    </geometry>
  </library_geometries>
  <library_controllers/>
  <library_visual_scenes>
    <visual_scene id="Scene" name="Scene">
      <node id="Empty" name="Empty" type="NODE">
        <matrix sid="transform">1 0 0 0 0 1 0 0 0 0 1 0 0 0 0 1</matrix>
        <node id="Cube" name="Cube" type="NODE">
          <matrix sid="transform">1 0 0 0 0 1 0 0 0 0 1 0 0 0 0 1</matrix>
          <instance_geometry url="#Cube_001-mesh" name="Cube"/>
        </node>
        <node id="Cube_001" name="Cube_001" type="NODE">
          <matrix sid="transform">1 0 0 0 0 1 0 0 0 0 1 0 0 0 0 1</matrix>
          <instance_geometry url="#Cube_002-mesh" name="Cube_001"/>
        </node>
        <node id="Cube_002" name="Cube_002" type="NODE">
          <matrix sid="transform">1 0 0 0 0 1 0 0 0 0 1 0 0 0 0 1</matrix>
          <instance_geometry url="#Cube_003-mesh" name="Cube_002"/>
        </node>
      </node>
    </visual_scene>
  </library_visual_scenes>
  <scene>
    <instance_visual_scene url="#Scene"/>
  </scene>
</COLLADA>