<?xml version="1.0" encoding="utf-8"?>
<COLLADA xmlns="http://www.collada.org/2005/11/COLLADASchema" version="1.4.1">
  <asset>
    <contributor>
      <author>Blender User</author>
      <authoring_tool>Blender 2.77.0 commit date:2016-04-05, commit time:18:12, hash:abf6f08</authoring_tool>
    </contributor>
    <created>2017-08-02T11:22:50</created>
    <modified>2017-08-02T11:22:50</modified>
    <unit name="meter" meter="1"/>
    <up_axis>Z_UP</up_axis>
  </asset>
  <library_images>
    <image id="PBRFULL_MetalBeam-material_Base_Color_jpg" name="PBRFULL_MetalBeam-material_Base_Color_jpg">
      <init_from>PBRFULL_MetalBeam-material_Base_Color.jpg</init_from>
    </image>
  </library_images>
  <library_effects>
    <effect id="PBRFULL_MetalBeam-effect">
      <profile_COMMON>
        <newparam sid="PBRFULL_MetalBeam-material_Base_Color_jpg-surface">
          <surface type="2D">
            <init_from>PBRFULL_MetalBeam-material_Base_Color_jpg</init_from>
          </surface>
        </newparam>
        <newparam sid="PBRFULL_MetalBeam-material_Base_Color_jpg-sampler">
          <sampler2D>
            <source>PBRFULL_MetalBeam-material_Base_Color_jpg-surface</source>
          </sampler2D>
        </newparam>
        <technique sid="common">
          <phong>
            <emission>
              <color sid="emission">0 0 0 1</color>
            </emission>
            <ambient>
              <color sid="ambient">0 0 0 1</color>
            </ambient>
            <diffuse>
              <texture texture="PBRFULL_MetalBeam-material_Base_Color_jpg-sampler"/>
            </diffuse>
            <specular>
              <color sid="specular">0.5 0.5 0.5 1</color>
            </specular>
            <shininess>
              <float sid="shininess">50</float>
            </shininess>
            <index_of_refraction>
              <float sid="index_of_refraction">1</float>
            </index_of_refraction>
          </phong>
        </technique>
      </profile_COMMON>
    </effect>
  </library_effects>
  <library_materials>
    <material id="PBRFULL_MetalBeam-material" name="PBRFULL_MetalBeam">
      <instance_effect url="#PBRFULL_MetalBeam-effect"/>
    </material>
  </library_materials>
  <library_geometries>
    <geometry id="Cube_003-mesh" name="Cube.003">
      <mesh>
        <source id="Cube_003-mesh-positions">
          <float_array id="Cube_003-mesh-positions-array" count="1392">1 -0.2 0.2 1 0.2 0.2 -1 0.2 0.2 -1 -0.2 0.2 -0.9768336 -0.2 0.1076167 0.9768336 -0.2 0.1076167 1 -0.04600071 -0.2 1 0.04600071 -0.2 0.9768336 0.2 0.1076167 -0.9768336 0.2 0.1076167 -1 0.04600071 -0.2 -1 -0.04600071 -0.2 -0.9768336 -0.097871 -0.1500516 -0.8031538 -0.0662055 0.1076167 0.8031538 -0.0662055 0.1076167 0.9768336 0.097871 -0.1500516 0.8031538 0.0662055 0.1076167 -0.8031538 0.0662055 0.1076167 -0.6782794 -0.02775871 -0.08671253 -0.6996532 -0.03066176 -0.07203912 -0.7155354 -0.03397381 -0.05529838 -0.7253156 -0.03756755 -0.03713357 -0.7286182 -0.041305 -0.01824277 -0.8031538 -0.01522749 -0.1500516 0.8031538 -0.01522749 -0.1500516 0.6869612 -0.03066176 -0.07203912 0.6655872 -0.02775871 -0.08671253 0.6395431 -0.02537626 -0.0987547 0.6098294 -0.02360594 -0.1077029 0.5775882 -0.02251577 -0.1132131 0.5440586 -0.02214765 -0.1150736 0.5105289 -0.02251577 -0.1132131 0.4782877 -0.02360594 -0.1077029 0.4485741 -0.02537626 -0.0987547 0.4225301 -0.02775871 -0.08671253 0.4011561 -0.03066176 -0.07203912 0.3852738 -0.03397381 -0.05529838 0.3754935 -0.03756755 -0.03713357 0.3721912 -0.041305 -0.01824277 0.1692657 -0.041305 -0.01824277 0.1659632 -0.03756761 -0.03713351 0.1561831 -0.03397381 -0.05529832 0.1403008 -0.03066176 -0.07203912 0.1189268 -0.02775871 -0.08671253 0.09288287 -0.02537626 -0.0987547 0.06316912 -0.02360594 -0.1077029 0.03092789 -0.02251577 -0.1132131 -0.002601623 -0.02214765 -0.1150736 -0.03613138 -0.02251577 -0.1132131 -0.0683726 -0.02360594 -0.1077029 -0.09808611 -0.02537626 -0.0987547 -0.1241303 -0.02775871 -0.08671253 -0.1455042 -0.03066176 -0.07203912 -0.1613864 -0.03397381 -0.05529838 -0.1711667 -0.03756755 -0.03713357 -0.1744692 -0.041305 -0.01824277 -0.3848832 -0.041305 -0.01824277 -0.3881857 -0.03756761 -0.03713351 -0.3979657 -0.03397381 -0.05529832 -0.4138479 -0.03066176 -0.07203912 -0.4352219 -0.02775871 -0.08671253 -0.4612661 -0.02537626 -0.0987547 -0.4909799 -0.02360594 -0.1077029 -0.523221 -0.02251577 -0.1132131 -0.5567505 -0.02214765 -0.1150736 -0.5902803 -0.02251577 -0.1132131 -0.6225216 -0.02360594 -0.1077029 -0.652235 -0.02537626 -0.0987547 -0.7253156 -0.04504239 6.47792e-4 -0.7155357 -0.04863613 0.01881259 -0.6996534 -0.05194824 0.03555339 -0.6782794 -0.05485123 0.0502268 -0.6522355 -0.05723375 0.06226897 -0.6225216 -0.05900406 0.07121717 -0.5902803 -0.06009423 0.07672739 -0.5567508 -0.06046235 0.078588 -0.5232213 -0.06009423 0.07672744 -0.4909799 -0.05900406 0.07121723 -0.4612663 -0.05723375 0.06226909 -0.4352219 -0.05485129 0.05022692 -0.4138479 -0.05194824 0.03555351 -0.3979657 -0.04863619 0.01881277 -0.3881857 -0.04504239 6.47977e-4 -0.1711667 -0.04504239 6.47791e-4 -0.1613866 -0.04863613 0.01881259 -0.1455043 -0.05194824 0.03555339 -0.1241303 -0.05485123 0.0502268 -0.09808647 -0.05723375 0.06226897 -0.06837284 -0.05900406 0.07121717 -0.03613138 -0.06009423 0.07672739 -0.002601861 -0.06046235 0.078588 0.03092777 -0.06009423 0.07672744 0.06316912 -0.05900406 0.07121723 0.09288263 -0.05723375 0.06226909 0.1189268 -0.05485129 0.05022692 0.1403008 -0.05194824 0.03555351 0.1561831 -0.04863619 0.01881277 0.1659632 -0.04504239 6.47975e-4 0.3754935 -0.04504239 6.47792e-4 0.3852737 -0.04863613 0.01881259 0.401156 -0.05194824 0.03555339 0.4225298 -0.05485123 0.0502268 0.448574 -0.05723375 0.06226897 0.4782875 -0.05900406 0.07121717 0.5105288 -0.06009423 0.07672739 0.5440585 -0.06046235 0.078588 0.5775881 -0.06009423 0.07672744 0.6098293 -0.05900406 0.07121723 0.6395429 -0.05723375 0.06226909 0.6655872 -0.05485129 0.05022692 0.6869612 -0.05194824 0.03555351 0.7028434 -0.04863619 0.01881277 0.7126236 -0.04504239 6.47977e-4 0.7159261 -0.041305 -0.01824277 0.7126236 -0.03756761 -0.03713351 0.7028434 -0.03397381 -0.05529832 0.9768336 -0.097871 -0.1500516 -0.9768336 0.097871 -0.1500516 -0.7286182 0.041305 -0.01824277 0.7126236 0.03756761 -0.03713351 0.7159261 0.041305 -0.01824277 0.7126236 0.04504239 6.47973e-4 0.7028434 0.04863619 0.01881277 0.6869612 0.05194824 0.03555351 0.6655872 0.05485129 0.05022692 0.6395429 0.05723375 0.06226909 0.6098293 0.05900406 0.07121723 0.5775881 0.06009423 0.07672744 0.5440585 0.06046235 0.078588 0.5105288 0.06009423 0.07672739 0.4782875 0.05900406 0.07121711 0.448574 0.05723375 0.06226897 0.4225298 0.05485123 0.0502268 0.401156 0.05194824 0.03555339 0.3852737 0.04863613 0.01881259 0.3754935 0.04504239 6.47789e-4 0.3721912 0.041305 -0.01824277 0.1692657 0.041305 -0.01824277 0.1659632 0.04504239 6.47971e-4 0.1561831 0.04863619 0.01881277 0.1403008 0.05194824 0.03555351 0.1189268 0.05485129 0.05022692 0.09288263 0.05723375 0.06226909 0.06316912 0.05900406 0.07121723 0.03092777 0.06009423 0.07672744 -0.002601861 0.06046235 0.078588 -0.03613138 0.06009423 0.07672739 -0.06837284 0.05900406 0.07121711 -0.09808647 0.05723375 0.06226897 -0.1241303 0.05485123 0.0502268 -0.1455043 0.05194824 0.03555339 -0.1613866 0.04863613 0.01881259 -0.1711667 0.04504239 6.47787e-4 -0.1744692 0.041305 -0.01824283 -0.3848832 0.041305 -0.01824277 -0.3881857 0.04504239 6.47973e-4 -0.3979657 0.04863619 0.01881277 -0.4138479 0.05194824 0.03555351 -0.4352219 0.05485129 0.05022692 -0.4612663 0.05723375 0.06226909 -0.4909799 0.05900406 0.07121723 -0.5232213 0.06009423 0.07672744 -0.5567508 0.06046235 0.078588 -0.5902803 0.06009423 0.07672739 -0.6225216 0.05900406 0.07121711 -0.6522355 0.05723375 0.06226897 -0.6782794 0.05485123 0.0502268 -0.6996534 0.05194824 0.03555339 -0.7155357 0.04863613 0.01881259 -0.7253156 0.04504239 6.47789e-4 -0.6782794 0.02775871 -0.08671253 -0.652235 0.02537626 -0.0987547 -0.6225216 0.02360594 -0.1077029 -0.5902803 0.02251577 -0.1132131 -0.5567505 0.02214765 -0.1150736 -0.523221 0.02251577 -0.1132131 -0.4909799 0.02360594 -0.1077029 -0.4612661 0.02537626 -0.0987547 -0.4352219 0.02775871 -0.08671253 -0.4138479 0.03066176 -0.07203912 -0.3979657 0.03397381 -0.05529832 -0.3881857 0.03756761 -0.03713351 -0.1711667 0.03756755 -0.03713357 -0.1613864 0.03397381 -0.05529838 -0.1455042 0.03066176 -0.07203912 -0.1241303 0.02775871 -0.08671253 -0.09808611 0.02537626 -0.0987547 -0.0683726 0.02360594 -0.1077029 -0.03613138 0.02251577 -0.1132131 -0.002601623 0.02214765 -0.1150736 0.03092789 0.02251577 -0.1132131 0.06316912 0.02360594 -0.1077029 0.09288287 0.02537626 -0.0987547 0.1189268 0.02775871 -0.08671253 0.1403008 0.03066176 -0.07203912 0.1561831 0.03397381 -0.05529832 0.1659632 0.03756761 -0.03713351 0.3754935 0.03756755 -0.03713357 0.3852738 0.03397381 -0.05529838 0.4011561 0.03066176 -0.07203912 0.4225301 0.02775871 -0.08671253 0.4485741 0.02537626 -0.0987547 0.4782877 0.02360594 -0.1077029 0.5105289 0.02251577 -0.1132131 0.5440586 0.02214765 -0.1150736 0.5775882 0.02251577 -0.1132131 0.6098294 0.02360594 -0.1077029 0.6395431 0.02537626 -0.0987547 0.6655872 0.02775871 -0.08671253 0.6869612 0.03066176 -0.07203912 0.7028434 0.03397381 -0.05529832 0.8031538 0.01522749 -0.1500516 -0.8031538 0.01522749 -0.1500516 -0.7253156 0.03756755 -0.03713357 -0.7155354 0.03397381 -0.05529838 -0.6996532 0.03066176 -0.07203912 1 -0.2 0.2 1 -0.2 0.2 1 0.2 0.2 1 0.2 0.2 -1 0.2 0.2 -1 0.2 0.2 -1 -0.2 0.2 -1 -0.2 0.2 -0.9768336 -0.2 0.1076167 -0.9768336 -0.2 0.1076167 -0.9768336 -0.2 0.1076167 0.9768336 -0.2 0.1076167 0.9768336 -0.2 0.1076167 0.9768336 -0.2 0.1076167 1 0.04600071 -0.2 1 0.04600071 -0.2 0.9768336 0.097871 -0.1500516 0.9768336 0.097871 -0.1500516 0.9768336 0.097871 -0.1500516 0.9768336 0.2 0.1076167 0.9768336 0.2 0.1076167 0.9768336 0.2 0.1076167 -1 -0.04600071 -0.2 -1 -0.04600071 -0.2 -1 0.04600071 -0.2 -1 0.04600071 -0.2 1 -0.04600071 -0.2 1 -0.04600071 -0.2 0.8031538 0.0662055 0.1076167 0.8031538 0.0662055 0.1076167 -0.8031538 0.0662055 0.1076167 -0.8031538 0.0662055 0.1076167 -0.9768336 0.2 0.1076167 -0.9768336 0.2 0.1076167 -0.9768336 0.2 0.1076167 -0.9768336 -0.097871 -0.1500516 -0.9768336 -0.097871 -0.1500516 -0.9768336 -0.097871 -0.1500516 -0.8031538 -0.0662055 0.1076167 -0.8031538 -0.0662055 0.1076167 -0.6782794 -0.02775871 -0.08671253 -0.6996532 -0.03066176 -0.07203912 -0.7155354 -0.03397381 -0.05529838 -0.7253156 -0.03756755 -0.03713357 -0.7286182 -0.041305 -0.01824277 -0.8031538 -0.01522749 -0.1500516 -0.8031538 -0.01522749 -0.1500516 0.8031538 -0.01522749 -0.1500516 0.8031538 -0.01522749 -0.1500516 0.6869612 -0.03066176 -0.07203912 0.6655872 -0.02775871 -0.08671253 0.6395431 -0.02537626 -0.0987547 0.6098294 -0.02360594 -0.1077029 0.5775882 -0.02251577 -0.1132131 0.5440586 -0.02214765 -0.1150736 0.5105289 -0.02251577 -0.1132131 0.4782877 -0.02360594 -0.1077029 0.4485741 -0.02537626 -0.0987547 0.4225301 -0.02775871 -0.08671253 0.1692657 -0.041305 -0.01824277 0.1659632 -0.03756761 -0.03713351 0.1561831 -0.03397381 -0.05529832 0.1403008 -0.03066176 -0.07203912 0.1189268 -0.02775871 -0.08671253 0.09288287 -0.02537626 -0.0987547 0.06316912 -0.02360594 -0.1077029 0.03092789 -0.02251577 -0.1132131 -0.002601623 -0.02214765 -0.1150736 -0.03613138 -0.02251577 -0.1132131 -0.0683726 -0.02360594 -0.1077029 -0.09808611 -0.02537626 -0.0987547 -0.1241303 -0.02775871 -0.08671253 -0.1455042 -0.03066176 -0.07203912 -0.1613864 -0.03397381 -0.05529838 -0.1711667 -0.03756755 -0.03713357 -0.1744692 -0.041305 -0.01824277 -0.3848832 -0.041305 -0.01824277 -0.3881857 -0.03756761 -0.03713351 -0.3979657 -0.03397381 -0.05529832 -0.4138479 -0.03066176 -0.07203912 -0.4352219 -0.02775871 -0.08671253 -0.4612661 -0.02537626 -0.0987547 -0.4909799 -0.02360594 -0.1077029 -0.523221 -0.02251577 -0.1132131 -0.5567505 -0.02214765 -0.1150736 -0.5902803 -0.02251577 -0.1132131 -0.6225216 -0.02360594 -0.1077029 -0.652235 -0.02537626 -0.0987547 -0.7253156 -0.04504239 6.47792e-4 -0.7155357 -0.04863613 0.01881259 -0.6996534 -0.05194824 0.03555339 -0.6782794 -0.05485123 0.0502268 -0.6522355 -0.05723375 0.06226897 -0.6225216 -0.05900406 0.07121717 -0.5902803 -0.06009423 0.07672739 -0.5567508 -0.06046235 0.078588 -0.5232213 -0.06009423 0.07672744 -0.4909799 -0.05900406 0.07121723 -0.4612663 -0.05723375 0.06226909 -0.4352219 -0.05485129 0.05022692 -0.4138479 -0.05194824 0.03555351 -0.3979657 -0.04863619 0.01881277 -0.3881857 -0.04504239 6.47977e-4 -0.1711667 -0.04504239 6.47791e-4 -0.1613866 -0.04863613 0.01881259 -0.1455043 -0.05194824 0.03555339 -0.1241303 -0.05485123 0.0502268 -0.09808647 -0.05723375 0.06226897 -0.06837284 -0.05900406 0.07121717 -0.03613138 -0.06009423 0.07672739 -0.002601861 -0.06046235 0.078588 0.03092777 -0.06009423 0.07672744 0.06316912 -0.05900406 0.07121723 0.09288263 -0.05723375 0.06226909 0.1189268 -0.05485129 0.05022692 0.1403008 -0.05194824 0.03555351 0.1561831 -0.04863619 0.01881277 0.1659632 -0.04504239 6.47975e-4 0.401156 -0.05194824 0.03555339 0.4225298 -0.05485123 0.0502268 0.448574 -0.05723375 0.06226897 0.4782875 -0.05900406 0.07121717 0.5105288 -0.06009423 0.07672739 0.5440585 -0.06046235 0.078588 0.5775881 -0.06009423 0.07672744 0.8031538 -0.0662055 0.1076167 0.8031538 -0.0662055 0.1076167 0.9768336 -0.097871 -0.1500516 0.9768336 -0.097871 -0.1500516 0.9768336 -0.097871 -0.1500516 -0.9768336 0.097871 -0.1500516 -0.9768336 0.097871 -0.1500516 -0.9768336 0.097871 -0.1500516 0.5775881 0.06009423 0.07672744 0.5440585 0.06046235 0.078588 0.5105288 0.06009423 0.07672739 0.4782875 0.05900406 0.07121711 0.448574 0.05723375 0.06226897 0.4225298 0.05485123 0.0502268 0.401156 0.05194824 0.03555339 0.1692657 0.041305 -0.01824277 0.1659632 0.04504239 6.47971e-4 0.1561831 0.04863619 0.01881277 0.1403008 0.05194824 0.03555351 0.1189268 0.05485129 0.05022692 0.09288263 0.05723375 0.06226909 -0.3848832 0.041305 -0.01824277 -0.3881857 0.04504239 6.47973e-4 -0.3979657 0.04863619 0.01881277 -0.4138479 0.05194824 0.03555351 -0.4352219 0.05485129 0.05022692 -0.4612663 0.05723375 0.06226909 -0.4909799 0.05900406 0.07121723 -0.5232213 0.06009423 0.07672744 -0.5567508 0.06046235 0.078588 -0.5902803 0.06009423 0.07672739 -0.6225216 0.05900406 0.07121711 -0.6522355 0.05723375 0.06226897 -0.6782794 0.05485123 0.0502268 -0.6996534 0.05194824 0.03555339 -0.7155357 0.04863613 0.01881259 -0.7253156 0.04504239 6.47789e-4 -0.7286182 0.041305 -0.01824277 -0.6782794 0.02775871 -0.08671253 -0.652235 0.02537626 -0.0987547 -0.6225216 0.02360594 -0.1077029 -0.5902803 0.02251577 -0.1132131 -0.5567505 0.02214765 -0.1150736 -0.523221 0.02251577 -0.1132131 -0.4909799 0.02360594 -0.1077029 -0.4612661 0.02537626 -0.0987547 -0.4352219 0.02775871 -0.08671253 -0.4138479 0.03066176 -0.07203912 -0.3979657 0.03397381 -0.05529832 -0.3881857 0.03756761 -0.03713351 0.09288287 0.02537626 -0.0987547 0.1189268 0.02775871 -0.08671253 0.1403008 0.03066176 -0.07203912 0.1561831 0.03397381 -0.05529832 0.1659632 0.03756761 -0.03713351 0.4011561 0.03066176 -0.07203912 0.4225301 0.02775871 -0.08671253 0.4485741 0.02537626 -0.0987547 0.4782877 0.02360594 -0.1077029 0.5105289 0.02251577 -0.1132131 0.5440586 0.02214765 -0.1150736 0.5775882 0.02251577 -0.1132131 -0.7253156 0.03756755 -0.03713357 -0.7155354 0.03397381 -0.05529838 -0.6996532 0.03066176 -0.07203912 -0.8031538 0.01522749 -0.1500516 -0.8031538 0.01522749 -0.1500516 0.8031538 0.01522749 -0.1500516 0.8031538 0.01522749 -0.1500516 0.3721912 -0.041305 -0.01824277 0.3754935 -0.03756755 -0.03713357 0.3754935 0.03756755 -0.03713357 0.3721912 0.041305 -0.01824277 0.3754935 -0.04504239 6.47792e-4 0.3754935 0.04504239 6.47789e-4 0.3852738 -0.03397381 -0.05529838 0.3852738 0.03397381 -0.05529838 0.3852737 -0.04863613 0.01881259 0.3852737 0.04863613 0.01881259 0.4011561 -0.03066176 -0.07203912 0.6098294 0.02360594 -0.1077029 0.6098293 -0.05900406 0.07121723 0.6098293 0.05900406 0.07121723 0.6395431 0.02537626 -0.0987547 0.6395429 -0.05723375 0.06226909 0.6395429 0.05723375 0.06226909 0.6655872 0.02775871 -0.08671253 0.6655872 -0.05485129 0.05022692 0.6655872 0.05485129 0.05022692 0.6869612 0.03066176 -0.07203912 0.6869612 -0.05194824 0.03555351 0.6869612 0.05194824 0.03555351 0.7028434 -0.03397381 -0.05529832 0.7028434 0.03397381 -0.05529832 0.7028434 -0.04863619 0.01881277 0.7028434 0.04863619 0.01881277 0.7126236 -0.03756761 -0.03713351 0.7126236 0.03756761 -0.03713351 0.7126236 -0.04504239 6.47977e-4 0.7126236 0.04504239 6.47973e-4 0.7159261 -0.041305 -0.01824277 0.7159261 0.041305 -0.01824277 -0.1711667 0.03756755 -0.03713357 -0.1744692 0.041305 -0.01824283 -0.1711667 0.04504239 6.47787e-4 -0.1613864 0.03397381 -0.05529838 -0.1613866 0.04863613 0.01881259 -0.1455042 0.03066176 -0.07203912 -0.1455043 0.05194824 0.03555339 -0.1241303 0.02775871 -0.08671253 -0.1241303 0.05485123 0.0502268 -0.09808611 0.02537626 -0.0987547 -0.09808647 0.05723375 0.06226897 -0.0683726 0.02360594 -0.1077029 -0.06837284 0.05900406 0.07121711 -0.03613138 0.02251577 -0.1132131 -0.03613138 0.06009423 0.07672739 -0.002601623 0.02214765 -0.1150736 -0.002601861 0.06046235 0.078588 0.03092789 0.02251577 -0.1132131 0.03092777 0.06009423 0.07672744 0.06316912 0.02360594 -0.1077029 0.06316912 0.05900406 0.07121723</float_array>
          <technique_common>
            <accessor source="#Cube_003-mesh-positions-array" count="464" stride="3">
              <param name="X" type="float"/>
              <param name="Y" type="float"/>
              <param name="Z" type="float"/>
            </accessor>
          </technique_common>
        </source>
        <source id="Cube_003-mesh-normals">
          <float_array id="Cube_003-mesh-normals-array" count="210">0 0 1 0 -1 0 0.9873309 -0.1480798 -0.05701011 0.9909024 0.1252208 -0.04931926 0.9873309 0.1480798 -0.05701011 0 1 0 -0.9873309 0.1480798 -0.05701011 -0.9909024 -0.1252208 -0.04931926 -0.9873309 -0.1480798 -0.05701011 0 0 -1 0.8188344 0.5356148 -0.2064635 -0.8188344 0.5356148 -0.2064635 -0.9909024 0.1252208 -0.04931926 -0.8188344 -0.5356148 -0.2064635 0.4952074 -0.8375433 -0.2308486 0.5241717 -0.8130383 -0.253403 0.5822449 -0.7558076 -0.2995763 0 -0.9809871 -0.1940732 -0.5241717 -0.8130383 -0.253403 -0.4952074 -0.8375433 -0.2308486 -0.5822449 -0.7558076 -0.2995763 0.9909024 -0.1252208 -0.04931926 0.8188344 -0.5356148 -0.2064635 0.7896617 -0.5703791 -0.226058 0 0.6936441 -0.720318 0 -0.6936441 -0.720318 0 0.9809871 -0.1940732 -0.5241717 0.8130383 -0.253403 -0.4952074 0.8375433 -0.2308486 -0.4229718 0.8889153 -0.1758542 0.4952074 0.8375433 -0.2308486 0.5241717 0.8130383 -0.253403 0.4229718 0.8889153 -0.1758542 0.9508609 0 0.3096188 0.9997711 0 -0.02139377 0.9385514 0 -0.3451396 0.8177841 0 0.5755252 0.8020973 0 -0.5971935 0.6557064 0 0.7550161 0.6427325 0 -0.7660908 0.4990777 0 0.8665574 0.4899902 0 -0.8717279 0.357807 0 0.9337956 0.3519461 0 -0.9360203 0.2305394 0 0.9730631 0.2270945 0 -0.9738729 0.1128898 0 0.9936076 0.1113024 0 -0.9937867 -0.1128898 0 0.9936076 -0.1113024 0 -0.9937867 -0.2305394 0 0.9730631 -0.2270945 0 -0.9738729 -0.357807 0 0.9337956 -0.3519193 0 -0.9360303 -0.4990777 0 0.8665574 -0.4899902 0 -0.8717279 -0.6557064 0 0.7550161 -0.6427325 0 -0.7660908 -0.8177841 0 0.5755252 -0.8020973 0 -0.5971935 -0.9508609 0 0.3096188 -0.9385514 0 -0.3451396 -0.9997711 0 -0.02139377 0.7896617 0.5703791 -0.226058 -0.7896617 0.5703791 -0.226058 -0.7896617 -0.5703791 -0.226058 0.4229718 -0.8889153 -0.1758542 -0.4229718 -0.8889153 -0.1758542 -0.5822449 0.7558076 -0.2995763 0.5822449 0.7558076 -0.2995763</float_array>
          <technique_common>
            <accessor source="#Cube_003-mesh-normals-array" count="70" stride="3">
              <param name="X" type="float"/>
              <param name="Y" type="float"/>
              <param name="Z" type="float"/>
            </accessor>
          </technique_common>
        </source>
        <source id="Cube_003-mesh-map-0">
          <float_array id="Cube_003-mesh-map-0-array" count="2640">0.1704905 0.004759013 0.004158437 0.9565691 0.004158258 0.004759013 0.6259949 0.9455443 0.5879047 0.004759013 0.6259948 0.01578402 0.9324151 0.195121 0.7660829 0.07804805 0.9324151 0.004759013 0.6724016 0.9455441 0.6343115 0.004759013 0.6724016 0.01578402 0.1788073 0.9690892 0.2811019 0.7787271 0.3451395 0.9690892 0.4773784 0.8518639 0.533014 0.004759013 0.5330142 0.934519 0.7660829 0.07804805 0.8939993 0.004759013 0.9324151 0.004759013 0.5413311 0.956569 0.5795879 0.004759013 0.5795881 0.9565691 0.4690614 0.08741408 0.4134258 0.934519 0.4134255 0.004759013 0.1788073 0.9251235 0.2428448 0.7787271 0.1788073 0.9690892 0.2811019 0.7787271 0.3451395 0.9251235 0.3451395 0.9690892 0.7660829 0.2097496 0.8383043 0.3293777 0.7660829 0.3376513 0.2698865 0.4170466 0.2722173 0.4017028 0.2698865 0.6146036 0.1918733 0.369789 0.1918733 0.1379804 0.1942041 0.1533242 0.8383043 0.355443 0.7660829 0.4750709 0.7660829 0.3471693 0.7660829 0.121832 0.8939993 0.195121 0.786853 0.1465173 0.9958417 0.9455441 0.9724451 0.004759013 0.9958418 0.01578402 0.9407317 0.01578402 0.9641284 0.9565693 0.9407318 0.9455443 0.3091825 0.4041791 0.3115133 0.419523 0.3115133 0.6206438 0.3903134 0.3882221 0.4051089 0.004759013 0.4051089 0.7692089 0.7234006 0.8518639 0.7577662 0.004759013 0.7577663 0.934519 0.7150839 0.08741408 0.6807183 0.934519 0.6807182 0.004759013 0.8383042 0.7569682 0.7660829 0.6373402 0.8383042 0.6322297 0.7660829 0.617601 0.8383042 0.4979731 0.8383042 0.6227116 0.4833581 0.9606489 0.5161557 0.9696391 0.481804 0.9696391 0.4802498 0.9786292 0.5161557 0.9696391 0.5177099 0.9786292 0.4848525 0.9520041 0.5146016 0.9606489 0.4833581 0.9606489 0.4802498 0.9786292 0.5192043 0.9872739 0.4787554 0.9872739 0.4862297 0.9440371 0.5131072 0.9520041 0.4848525 0.9520041 0.4787554 0.9872739 0.5205816 0.9952409 0.4773782 0.995241 0.8478281 0.4760175 0.8721212 0.4861895 0.8466209 0.4861895 0.8128267 0.910776 0.7684162 0.900604 0.8140338 0.900604 0.8488188 0.463623 0.870914 0.4760175 0.8478281 0.4760175 0.8140338 0.900604 0.7674254 0.8882095 0.8150246 0.8882095 0.849555 0.4494822 0.8699232 0.463623 0.8488188 0.463623 0.8157607 0.8740686 0.7674254 0.8882095 0.7666893 0.8740686 0.8500083 0.4341384 0.8691871 0.4494822 0.849555 0.4494822 0.8157607 0.8740686 0.766236 0.8587248 0.816214 0.8587248 0.8501613 0.4181815 0.8687338 0.4341384 0.8500083 0.4341384 0.816214 0.8587248 0.7660829 0.8427679 0.8163671 0.8427678 0.8500083 0.4022246 0.8685807 0.4181815 0.8501613 0.4181815 0.816214 0.826811 0.7660829 0.8427679 0.766236 0.826811 0.849555 0.3868808 0.8687338 0.4022246 0.8500083 0.4022246 0.816214 0.826811 0.7666893 0.8114672 0.8157607 0.8114672 0.8488188 0.3727399 0.8691871 0.3868808 0.849555 0.3868808 0.8150245 0.7973264 0.7666893 0.8114672 0.7674254 0.7973264 0.8478281 0.3603454 0.8699232 0.3727399 0.8488188 0.3727399 0.8150245 0.7973264 0.7684161 0.7849318 0.8140338 0.7849318 0.8466209 0.3501734 0.8709139 0.3603454 0.8478281 0.3603454 0.8128266 0.7747598 0.7684161 0.7849318 0.7696233 0.7747598 0.3905538 0.9322284 0.3636763 0.9242614 0.3891765 0.9242614 0.3980281 0.9754653 0.356202 0.9674983 0.3966509 0.9674983 0.3920482 0.9408732 0.362299 0.9322284 0.3905538 0.9322284 0.3966509 0.9674983 0.3576964 0.9588536 0.3951565 0.9588536 0.3920482 0.9408732 0.3592505 0.9498634 0.3608046 0.9408732 0.3951565 0.9588536 0.3592505 0.9498634 0.3936023 0.9498634 0.6866981 0.9606488 0.7194957 0.9696391 0.685144 0.9696391 0.685144 0.9696391 0.7210499 0.9786292 0.6835898 0.9786292 0.6881925 0.9520041 0.7179416 0.9606488 0.6866981 0.9606488 0.6835898 0.9786292 0.7225443 0.9872739 0.6820954 0.9872739 0.6895698 0.9440371 0.7164472 0.9520041 0.6881925 0.9520041 0.6820954 0.9872739 0.7239215 0.9952409 0.6807182 0.9952409 0.8709139 0.5058795 0.8466209 0.4957076 0.8721211 0.4957076 0.8714274 0.910776 0.8270169 0.900604 0.8726346 0.900604 0.8699232 0.5182741 0.8478281 0.5058795 0.8709139 0.5058795 0.8726346 0.900604 0.8260262 0.8882095 0.8736253 0.8882095 0.8691871 0.5324149 0.8488188 0.5182741 0.8699232 0.5182741 0.8736253 0.8882095 0.8252901 0.8740686 0.8743615 0.8740686 0.8687338 0.5477587 0.849555 0.5324149 0.8691871 0.5324149 0.8743615 0.8740686 0.8248367 0.8587248 0.8748148 0.8587248 0.8685807 0.5637156 0.8500083 0.5477587 0.8687338 0.5477587 0.8748148 0.8587248 0.8246837 0.8427679 0.8749679 0.8427679 0.8687338 0.5796725 0.8501613 0.5637156 0.8685807 0.5637156 0.8748148 0.826811 0.8246837 0.8427679 0.8248367 0.826811 0.8691871 0.5950163 0.8500083 0.5796725 0.8687338 0.5796725 0.8748148 0.826811 0.8252901 0.8114672 0.8743615 0.8114672 0.8699232 0.6091572 0.849555 0.5950163 0.8691871 0.5950163 0.8736253 0.7973263 0.8252901 0.8114672 0.8260262 0.7973263 0.8709139 0.6215517 0.8488188 0.6091572 0.8699232 0.6091572 0.8726347 0.7849318 0.8260262 0.7973263 0.827017 0.7849318 0.8709139 0.6215517 0.8466209 0.6317237 0.8478281 0.6215517 0.8726347 0.7849318 0.8282241 0.7747598 0.8714275 0.7747598 0.8519546 0.9202941 0.8250772 0.9282611 0.8264545 0.9202941 0.8608062 0.971498 0.8189801 0.9635309 0.859429 0.9635309 0.8548263 0.9369058 0.8250772 0.9282611 0.8533319 0.9282611 0.859429 0.9635309 0.8204745 0.9548862 0.8579346 0.9548862 0.8548263 0.9369058 0.8220286 0.945896 0.8235828 0.9369058 0.8579346 0.9548862 0.8220286 0.945896 0.8563805 0.945896 0.450649 0.9786292 0.4178513 0.969639 0.4522031 0.969639 0.4537572 0.9606489 0.4178513 0.969639 0.4162972 0.9606489 0.4491546 0.9872739 0.4194055 0.9786292 0.450649 0.9786292 0.4537572 0.9606489 0.4148028 0.9520041 0.4552516 0.9520041 0.4477773 0.995241 0.4208999 0.9872739 0.4491546 0.9872739 0.4552516 0.9520041 0.4134255 0.9440371 0.4566289 0.9440371 0.8709139 0.214811 0.8466209 0.2046391 0.8721211 0.2046391 0.4015685 0.9147433 0.357158 0.9045713 0.4027757 0.9045713 0.8699232 0.2272056 0.8478281 0.214811 0.8709139 0.214811 0.4027757 0.9045713 0.3561673 0.8921769 0.4037664 0.8921769 0.8691871 0.2413464 0.8488188 0.2272056 0.8699232 0.2272056 0.4037664 0.8921769 0.3554311 0.8780359 0.4045025 0.8780359 0.8687338 0.2566902 0.849555 0.2413464 0.8691871 0.2413464 0.4045025 0.8780359 0.3549778 0.8626921 0.4049559 0.862692 0.8685807 0.2726472 0.8500083 0.2566902 0.8687338 0.2566902 0.4049559 0.862692 0.3548247 0.8467352 0.4051089 0.8467352 0.8687338 0.2886041 0.8501613 0.2726472 0.8685807 0.2726472 0.4049559 0.8307783 0.3548247 0.8467352 0.3549778 0.8307784 0.8691871 0.3039478 0.8500083 0.2886041 0.8687338 0.2886041 0.4049559 0.8307783 0.3554311 0.8154345 0.4045025 0.8154345 0.8699232 0.3180888 0.849555 0.3039478 0.8691871 0.3039478 0.4037663 0.8012936 0.3554311 0.8154345 0.3561673 0.8012937 0.8709139 0.3304833 0.8488188 0.3180888 0.8699232 0.3180888 0.4027757 0.788899 0.3561673 0.8012937 0.357158 0.788899 0.8709139 0.3304833 0.8466209 0.3406553 0.8478281 0.3304833 0.4027757 0.788899 0.3583651 0.7787271 0.4015685 0.7787271 0.8004347 0.9202941 0.7735572 0.9282611 0.7749345 0.9202941 0.8092862 0.971498 0.7674601 0.9635309 0.807909 0.9635309 0.8033064 0.9369058 0.7735572 0.9282611 0.8018119 0.9282611 0.807909 0.9635309 0.7689545 0.9548862 0.8064146 0.9548862 0.8033064 0.9369058 0.7705087 0.945896 0.7720628 0.9369058 0.8064146 0.9548862 0.7705087 0.945896 0.8048605 0.945896 0.1704905 0.004759013 0.1704906 0.9565691 0.004158437 0.9565691 0.6259949 0.9455443 0.5879048 0.9565693 0.5879047 0.004759013 0.9324151 0.195121 0.7660829 0.121832 0.7660829 0.07804805 0.6724016 0.9455441 0.6343115 0.9565691 0.6343115 0.004759013 0.1788073 0.9690892 0.2428448 0.7787271 0.2811019 0.7787271 0.4773784 0.8518639 0.4773782 0.08741408 0.533014 0.004759013 0.7660829 0.07804805 0.786853 0.05336272 0.8939993 0.004759013 0.5413311 0.956569 0.5413309 0.004759013 0.5795879 0.004759013 0.4690614 0.08741408 0.4690616 0.8518639 0.4134258 0.934519 0.1788073 0.9251235 0.2212756 0.8024979 0.2428448 0.7787271 0.2811019 0.7787271 0.3026711 0.8024979 0.3451395 0.9251235 0.7660829 0.2097496 0.8383043 0.2046391 0.8383043 0.3293777 0.240036 0.04180264 0.2320452 0.04023092 0.2877998 0.004759013 0.2877998 0.769209 0.2548009 0.7139124 0.2610077 0.7037404 0.2877998 0.769209 0.2610077 0.7037404 0.2661015 0.6913459 0.2320452 0.04023092 0.1788073 0.004759013 0.2877998 0.004759013 0.2477196 0.04645705 0.240036 0.04180264 0.2877998 0.004759013 0.2877998 0.769209 0.2661015 0.6913459 0.2698865 0.677205 0.2877998 0.769209 0.2698865 0.677205 0.2722173 0.6618613 0.2548009 0.05401551 0.2477196 0.04645705 0.2877998 0.004759013 0.2610077 0.0641874 0.2548009 0.05401551 0.2877998 0.004759013 0.2877998 0.769209 0.2722173 0.6618613 0.2730043 0.6459043 0.2877998 0.769209 0.2730043 0.6459043 0.2722173 0.6299474 0.2661014 0.07658207 0.2610077 0.0641874 0.2877998 0.004759013 0.2698864 0.09072279 0.2661014 0.07658207 0.2877998 0.004759013 0.2877998 0.004759013 0.2877998 0.769209 0.2730043 0.3857459 0.2877998 0.769209 0.2722173 0.4017028 0.2730043 0.3857459 0.2722173 0.1060667 0.2698864 0.09072279 0.2877998 0.004759013 0.2730042 0.1220236 0.2722173 0.1060667 0.2877998 0.004759013 0.2722173 0.6299474 0.2722173 0.4017028 0.2877998 0.769209 0.2722173 0.1379805 0.2730042 0.1220236 0.2877998 0.004759013 0.240036 0.5656834 0.2320453 0.5641118 0.2320453 0.4675385 0.240036 0.5656834 0.2320453 0.4675385 0.240036 0.4659668 0.2477197 0.5703378 0.240036 0.5656834 0.2477196 0.4613124 0.240036 0.5656834 0.240036 0.4659668 0.2477196 0.4613124 0.2548009 0.5778963 0.2477197 0.5703378 0.2477196 0.4613124 0.2548009 0.5778963 0.2477196 0.4613124 0.2548009 0.453754 0.2610077 0.5880683 0.2548009 0.5778963 0.2610077 0.4435819 0.2548009 0.5778963 0.2548009 0.453754 0.2610077 0.4435819 0.2320453 0.3039532 0.2320452 0.2038162 0.240036 0.3055249 0.240036 0.3055249 0.2320452 0.2038162 0.240036 0.2022445 0.240036 0.3055249 0.240036 0.2022445 0.2477196 0.1975901 0.2477196 0.3101794 0.240036 0.3055249 0.2477196 0.1975901 0.2477196 0.3101794 0.2477196 0.1975901 0.2548009 0.1900317 0.2548009 0.3177378 0.2477196 0.3101794 0.2548009 0.1900317 0.2548009 0.3177378 0.2548009 0.1900317 0.2610077 0.3279098 0.2610077 0.3279098 0.2548009 0.1900317 0.2610077 0.1798597 0.2610077 0.3279098 0.2610077 0.1798597 0.2661014 0.1674652 0.2661015 0.3403044 0.2610077 0.3279098 0.2661014 0.1674652 0.2661015 0.3403044 0.2661014 0.1674652 0.2698865 0.3544452 0.2698865 0.3544452 0.2661014 0.1674652 0.2698864 0.1533242 0.2698865 0.3544452 0.2698864 0.1533242 0.2722173 0.1379805 0.2722173 0.369789 0.2698865 0.3544452 0.2722173 0.1379805 0.2661015 0.6004627 0.2610077 0.5880683 0.2661015 0.4311875 0.2610077 0.5880683 0.2610077 0.4435819 0.2661015 0.4311875 0.2722173 0.369789 0.2722173 0.1379805 0.2877998 0.004759013 0.2730043 0.3857459 0.2722173 0.369789 0.2877998 0.004759013 0.2661015 0.6004627 0.2661015 0.4311875 0.2698865 0.4170466 0.2661015 0.6004627 0.2698865 0.4170466 0.2698865 0.6146036 0.2722173 0.6299474 0.2698865 0.6146036 0.2722173 0.4017028 0.1788073 0.004759013 0.2320452 0.04023092 0.2240546 0.04180264 0.1788073 0.004759013 0.2240546 0.04180264 0.216371 0.04645693 0.2477197 0.7214708 0.2548009 0.7139124 0.2877998 0.769209 0.240036 0.7261252 0.2477197 0.7214708 0.2877998 0.769209 0.1788073 0.004759013 0.216371 0.04645693 0.2092897 0.05401539 0.1788073 0.004759013 0.2092897 0.05401539 0.2030829 0.0641874 0.240036 0.7261252 0.2877998 0.769209 0.2320453 0.7276969 0.2320453 0.7276969 0.2877998 0.769209 0.1788073 0.769209 0.1788073 0.004759013 0.2030829 0.0641874 0.1979892 0.07658183 0.1788073 0.004759013 0.1979892 0.07658183 0.1942041 0.09072279 0.2240546 0.7261252 0.2320453 0.7276969 0.1788073 0.769209 0.2163709 0.7214708 0.2240546 0.7261252 0.1788073 0.769209 0.1788073 0.004759013 0.1942041 0.09072279 0.1918733 0.1060667 0.1788073 0.004759013 0.1918733 0.1060667 0.1910863 0.1220235 0.2092897 0.7139124 0.2163709 0.7214708 0.1788073 0.769209 0.2030829 0.7037404 0.2092897 0.7139124 0.1788073 0.769209 0.1788073 0.769209 0.1788073 0.004759013 0.1910863 0.3857458 0.1788073 0.004759013 0.1910863 0.1220235 0.1918733 0.1379804 0.1979891 0.6913458 0.2030829 0.7037404 0.1788073 0.769209 0.1942041 0.6772049 0.1979891 0.6913458 0.1788073 0.769209 0.1788073 0.004759013 0.1918733 0.369789 0.1910863 0.3857458 0.1918733 0.1379804 0.1918733 0.369789 0.1788073 0.004759013 0.1918733 0.6618612 0.1942041 0.6772049 0.1788073 0.769209 0.1910863 0.6459043 0.1918733 0.6618612 0.1788073 0.769209 0.2240546 0.2022445 0.2320452 0.2038162 0.2240546 0.3055249 0.2320452 0.2038162 0.2320453 0.3039532 0.2240546 0.3055249 0.2163709 0.1975901 0.2240546 0.2022445 0.2240546 0.3055249 0.2163709 0.1975901 0.2240546 0.3055249 0.216371 0.3101794 0.2092897 0.1900317 0.2163709 0.1975901 0.2092897 0.3177378 0.2163709 0.1975901 0.216371 0.3101794 0.2092897 0.3177378 0.2030829 0.1798597 0.2092897 0.1900317 0.2030829 0.3279098 0.2092897 0.1900317 0.2092897 0.3177378 0.2030829 0.3279098 0.1918733 0.6299473 0.1910863 0.6459043 0.1788073 0.769209 0.1979891 0.167465 0.2030829 0.1798597 0.1979892 0.3403042 0.2030829 0.1798597 0.2030829 0.3279098 0.1979892 0.3403042 0.2320453 0.4675385 0.2320453 0.5641118 0.2240546 0.5656834 0.2240546 0.4659668 0.2320453 0.4675385 0.2240546 0.5656834 0.2240546 0.4659668 0.2240546 0.5656834 0.216371 0.5703378 0.2163709 0.4613124 0.2240546 0.4659668 0.216371 0.5703378 0.2163709 0.4613124 0.216371 0.5703378 0.2092897 0.5778962 0.2092897 0.453754 0.2163709 0.4613124 0.2092897 0.5778962 0.2092897 0.453754 0.2092897 0.5778962 0.203083 0.5880682 0.2030829 0.4435819 0.2092897 0.453754 0.203083 0.5880682 0.2030829 0.4435819 0.203083 0.5880682 0.1979892 0.6004627 0.1979891 0.4311873 0.2030829 0.4435819 0.1979892 0.6004627 0.1979891 0.4311873 0.1979892 0.6004627 0.1942042 0.6146035 0.1942041 0.4170466 0.1979891 0.4311873 0.1942042 0.6146035 0.1942041 0.4170466 0.1942042 0.6146035 0.1918733 0.6299473 0.1918733 0.4017027 0.1942041 0.4170466 0.1918733 0.6299473 0.1979891 0.167465 0.1979892 0.3403042 0.1942042 0.354445 0.1979891 0.167465 0.1942042 0.354445 0.1942041 0.1533242 0.1918733 0.4017027 0.1918733 0.6299473 0.1788073 0.769209 0.1942042 0.354445 0.1918733 0.369789 0.1942041 0.1533242 0.1910863 0.3857458 0.1918733 0.4017027 0.1788073 0.769209 0.8383043 0.355443 0.8383043 0.4801814 0.7660829 0.4750709 0.7660829 0.121832 0.9324151 0.195121 0.8939993 0.195121 0.9958417 0.9455441 0.9724451 0.9565691 0.9724451 0.004759013 0.9407317 0.01578402 0.9641283 0.004759013 0.9641284 0.9565693 0.3413638 0.7321653 0.3493544 0.733737 0.2961164 0.7692089 0.2961164 0.004759013 0.3573451 0.0478428 0.3493544 0.04627114 0.2961164 0.004759013 0.3493544 0.04627114 0.3413637 0.0478428 0.3336802 0.727511 0.3413638 0.7321653 0.2961164 0.7692089 0.3265989 0.7199525 0.3336802 0.727511 0.2961164 0.7692089 0.2961164 0.004759013 0.3413637 0.0478428 0.3336801 0.05249726 0.2961164 0.004759013 0.3336801 0.05249726 0.3265988 0.06005567 0.3203921 0.7097806 0.3265989 0.7199525 0.2961164 0.7692089 0.3152983 0.6973862 0.3203921 0.7097806 0.2961164 0.7692089 0.2961164 0.004759013 0.3265988 0.06005567 0.320392 0.07022768 0.2961164 0.004759013 0.320392 0.07022768 0.3152983 0.08262228 0.3115133 0.6832452 0.3152983 0.6973862 0.2961164 0.7692089 0.3091825 0.6679013 0.3115133 0.6832452 0.2961164 0.7692089 0.2961164 0.004759013 0.3152983 0.08262228 0.3115133 0.09676313 0.2961164 0.004759013 0.3115133 0.09676313 0.3091825 0.1121069 0.3083955 0.6519445 0.3091825 0.6679013 0.2961164 0.7692089 0.3091825 0.6359876 0.3083955 0.6519445 0.2961164 0.7692089 0.2961164 0.004759013 0.3091825 0.1121069 0.3083955 0.1280638 0.2961164 0.004759013 0.3083955 0.1280638 0.3091825 0.1440207 0.3091825 0.6359876 0.2961164 0.7692089 0.3091825 0.4041791 0.3115133 0.6206438 0.3091825 0.6359876 0.3091825 0.4041791 0.3152983 0.606503 0.3115133 0.6206438 0.3115133 0.419523 0.3413638 0.2082847 0.3493544 0.2098563 0.3493544 0.3064296 0.3413638 0.2082847 0.3493544 0.3064296 0.3413637 0.3080012 0.3336802 0.2036303 0.3413638 0.2082847 0.3413637 0.3080012 0.3336802 0.2036303 0.3413637 0.3080012 0.3336801 0.3126556 0.3265989 0.1960718 0.3336802 0.2036303 0.3336801 0.3126556 0.3265989 0.1960718 0.3336801 0.3126556 0.3265988 0.3202141 0.3203921 0.1858999 0.3265989 0.1960718 0.3265988 0.3202141 0.3203921 0.1858999 0.3265988 0.3202141 0.320392 0.3303861 0.3152983 0.1735054 0.3203921 0.1858999 0.320392 0.3303861 0.3152983 0.1735054 0.320392 0.3303861 0.3152983 0.3427807 0.3115133 0.1593645 0.3152983 0.1735054 0.3152983 0.3427807 0.3115133 0.1593645 0.3152983 0.3427807 0.3115133 0.3569215 0.3091825 0.1440207 0.3115133 0.1593645 0.3115133 0.3569215 0.3091825 0.1440207 0.3115133 0.3569215 0.3091825 0.3722653 0.3493544 0.4700148 0.3493544 0.5701518 0.3413638 0.4684431 0.3413638 0.4684431 0.3493544 0.5701518 0.3413637 0.5717235 0.3413638 0.4684431 0.3413637 0.5717235 0.3336801 0.5763779 0.3336802 0.4637887 0.3413638 0.4684431 0.3336801 0.5763779 0.3336802 0.4637887 0.3336801 0.5763779 0.3265989 0.4562302 0.3265989 0.4562302 0.3336801 0.5763779 0.3265988 0.5839363 0.3265989 0.4562302 0.3265988 0.5839363 0.3203921 0.4460583 0.3203921 0.4460583 0.3265988 0.5839363 0.320392 0.5941083 0.2961164 0.004759013 0.3091825 0.1440207 0.3091825 0.3722653 0.2961164 0.004759013 0.3091825 0.3722653 0.3083955 0.3882222 0.3203921 0.4460583 0.320392 0.5941083 0.3152983 0.4336639 0.3152983 0.4336639 0.320392 0.5941083 0.3152983 0.606503 0.2961164 0.7692089 0.2961164 0.004759013 0.3083955 0.3882222 0.2961164 0.7692089 0.3083955 0.3882222 0.3091825 0.4041791 0.3115133 0.419523 0.3152983 0.4336639 0.3152983 0.606503 0.3573451 0.5717235 0.3493544 0.5701518 0.3573451 0.4684431 0.3493544 0.5701518 0.3493544 0.4700148 0.3573451 0.4684431 0.3650287 0.5763779 0.3573451 0.5717235 0.3573451 0.4684431 0.3650287 0.5763779 0.3573451 0.4684431 0.3650287 0.4637886 0.37211 0.5839363 0.3650287 0.5763779 0.3650287 0.4637886 0.37211 0.5839363 0.3650287 0.4637886 0.37211 0.4562302 0.3783168 0.5941083 0.37211 0.5839363 0.3783168 0.4460582 0.37211 0.5839363 0.37211 0.4562302 0.3783168 0.4460582 0.3834106 0.6065028 0.3783168 0.5941083 0.3783168 0.4460582 0.3834106 0.6065028 0.3783168 0.4460582 0.3834106 0.4336637 0.3871956 0.6206438 0.3834106 0.6065028 0.3871956 0.4195228 0.3834106 0.6065028 0.3834106 0.4336637 0.3871956 0.4195228 0.3895264 0.6359875 0.3871956 0.6206438 0.3871956 0.4195228 0.3895264 0.6359875 0.3871956 0.4195228 0.3895264 0.4041791 0.3903134 0.6519443 0.3895264 0.6359875 0.4051089 0.7692089 0.3895264 0.6359875 0.3895264 0.4041791 0.4051089 0.7692089 0.3573451 0.3080012 0.3493544 0.3064296 0.3573451 0.2082847 0.3493544 0.3064296 0.3493544 0.2098563 0.3573451 0.2082847 0.3650287 0.3126556 0.3573451 0.3080012 0.3573451 0.2082847 0.3650287 0.3126556 0.3573451 0.2082847 0.3650287 0.2036302 0.37211 0.3202141 0.3650287 0.3126556 0.3650287 0.2036302 0.37211 0.3202141 0.3650287 0.2036302 0.37211 0.1960718 0.3783168 0.3303861 0.37211 0.3202141 0.37211 0.1960718 0.3783168 0.3303861 0.37211 0.1960718 0.3783168 0.1858998 0.3834106 0.3427805 0.3783168 0.3303861 0.3783168 0.1858998 0.3834106 0.3427805 0.3783168 0.1858998 0.3834106 0.1735053 0.3871956 0.3569215 0.3834106 0.3427805 0.3834106 0.1735053 0.3871956 0.3569215 0.3834106 0.1735053 0.3871956 0.1593645 0.3895264 0.3722652 0.3871956 0.3569215 0.3871956 0.1593645 0.3895264 0.3722652 0.3871956 0.1593645 0.3895264 0.1440207 0.3903134 0.3882221 0.3895264 0.3722652 0.4051089 0.004759013 0.3895264 0.3722652 0.3895264 0.1440207 0.4051089 0.004759013 0.3895264 0.4041791 0.3903134 0.3882221 0.4051089 0.7692089 0.2961164 0.7692089 0.3493544 0.733737 0.4051089 0.7692089 0.3573451 0.0478428 0.2961164 0.004759013 0.4051089 0.004759013 0.3650287 0.05249726 0.3573451 0.0478428 0.4051089 0.004759013 0.4051089 0.7692089 0.3493544 0.733737 0.3573451 0.7321653 0.4051089 0.7692089 0.3573451 0.7321653 0.3650287 0.7275109 0.37211 0.06005567 0.3650287 0.05249726 0.4051089 0.004759013 0.3783168 0.07022768 0.37211 0.06005567 0.4051089 0.004759013 0.4051089 0.7692089 0.3650287 0.7275109 0.37211 0.7199524 0.4051089 0.7692089 0.37211 0.7199524 0.3783168 0.7097806 0.3834106 0.08262217 0.3783168 0.07022768 0.4051089 0.004759013 0.3871956 0.09676307 0.3834106 0.08262217 0.4051089 0.004759013 0.4051089 0.7692089 0.3783168 0.7097806 0.3834106 0.6973859 0.4051089 0.7692089 0.3834106 0.6973859 0.3871956 0.6832452 0.3895264 0.1121069 0.3871956 0.09676307 0.4051089 0.004759013 0.3903134 0.1280637 0.3895264 0.1121069 0.4051089 0.004759013 0.4051089 0.7692089 0.3871956 0.6832452 0.3895264 0.6679013 0.3895264 0.1440207 0.3903134 0.1280637 0.4051089 0.004759013 0.4051089 0.7692089 0.3895264 0.6679013 0.3903134 0.6519443 0.7234006 0.8518639 0.7234005 0.08741408 0.7577662 0.004759013 0.7150839 0.08741408 0.7150839 0.8518639 0.6807183 0.934519 0.8383042 0.7569682 0.7660829 0.7652417 0.7660829 0.6373402 0.7660829 0.617601 0.7660829 0.4896995 0.8383042 0.4979731 0.4833581 0.9606489 0.5146016 0.9606489 0.5161557 0.9696391 0.4802498 0.9786292 0.481804 0.9696391 0.5161557 0.9696391 0.4848525 0.9520041 0.5131072 0.9520041 0.5146016 0.9606489 0.4802498 0.9786292 0.5177099 0.9786292 0.5192043 0.9872739 0.4862297 0.9440371 0.51173 0.9440371 0.5131072 0.9520041 0.4787554 0.9872739 0.5192043 0.9872739 0.5205816 0.9952409 0.8478281 0.4760175 0.870914 0.4760175 0.8721212 0.4861895 0.8128267 0.910776 0.7696233 0.910776 0.7684162 0.900604 0.8488188 0.463623 0.8699232 0.463623 0.870914 0.4760175 0.8140338 0.900604 0.7684162 0.900604 0.7674254 0.8882095 0.849555 0.4494822 0.8691871 0.4494822 0.8699232 0.463623 0.8157607 0.8740686 0.8150246 0.8882095 0.7674254 0.8882095 0.8500083 0.4341384 0.8687338 0.4341384 0.8691871 0.4494822 0.8157607 0.8740686 0.7666893 0.8740686 0.766236 0.8587248 0.8501613 0.4181815 0.8685807 0.4181815 0.8687338 0.4341384 0.816214 0.8587248 0.766236 0.8587248 0.7660829 0.8427679 0.8500083 0.4022246 0.8687338 0.4022246 0.8685807 0.4181815 0.816214 0.826811 0.8163671 0.8427678 0.7660829 0.8427679 0.849555 0.3868808 0.8691871 0.3868808 0.8687338 0.4022246 0.816214 0.826811 0.766236 0.826811 0.7666893 0.8114672 0.8488188 0.3727399 0.8699232 0.3727399 0.8691871 0.3868808 0.8150245 0.7973264 0.8157607 0.8114672 0.7666893 0.8114672 0.8478281 0.3603454 0.8709139 0.3603454 0.8699232 0.3727399 0.8150245 0.7973264 0.7674254 0.7973264 0.7684161 0.7849318 0.8466209 0.3501734 0.8721211 0.3501734 0.8709139 0.3603454 0.8128266 0.7747598 0.8140338 0.7849318 0.7684161 0.7849318 0.3905538 0.9322284 0.362299 0.9322284 0.3636763 0.9242614 0.3980281 0.9754653 0.3548247 0.9754653 0.356202 0.9674983 0.3920482 0.9408732 0.3608046 0.9408732 0.362299 0.9322284 0.3966509 0.9674983 0.356202 0.9674983 0.3576964 0.9588536 0.3920482 0.9408732 0.3936023 0.9498634 0.3592505 0.9498634 0.3951565 0.9588536 0.3576964 0.9588536 0.3592505 0.9498634 0.6866981 0.9606488 0.7179416 0.9606488 0.7194957 0.9696391 0.685144 0.9696391 0.7194957 0.9696391 0.7210499 0.9786292 0.6881925 0.9520041 0.7164472 0.9520041 0.7179416 0.9606488 0.6835898 0.9786292 0.7210499 0.9786292 0.7225443 0.9872739 0.6895698 0.9440371 0.71507 0.9440371 0.7164472 0.9520041 0.6820954 0.9872739 0.7225443 0.9872739 0.7239215 0.9952409 0.8709139 0.5058795 0.8478281 0.5058795 0.8466209 0.4957076 0.8714274 0.910776 0.8282241 0.910776 0.8270169 0.900604 0.8699232 0.5182741 0.8488188 0.5182741 0.8478281 0.5058795 0.8726346 0.900604 0.8270169 0.900604 0.8260262 0.8882095 0.8691871 0.5324149 0.849555 0.5324149 0.8488188 0.5182741 0.8736253 0.8882095 0.8260262 0.8882095 0.8252901 0.8740686 0.8687338 0.5477587 0.8500083 0.5477587 0.849555 0.5324149 0.8743615 0.8740686 0.8252901 0.8740686 0.8248367 0.8587248 0.8685807 0.5637156 0.8501613 0.5637156 0.8500083 0.5477587 0.8748148 0.8587248 0.8248367 0.8587248 0.8246837 0.8427679 0.8687338 0.5796725 0.8500083 0.5796725 0.8501613 0.5637156 0.8748148 0.826811 0.8749679 0.8427679 0.8246837 0.8427679 0.8691871 0.5950163 0.849555 0.5950163 0.8500083 0.5796725 0.8748148 0.826811 0.8248367 0.826811 0.8252901 0.8114672 0.8699232 0.6091572 0.8488188 0.6091572 0.849555 0.5950163 0.8736253 0.7973263 0.8743615 0.8114672 0.8252901 0.8114672 0.8709139 0.6215517 0.8478281 0.6215517 0.8488188 0.6091572 0.8726347 0.7849318 0.8736253 0.7973263 0.8260262 0.7973263 0.8709139 0.6215517 0.8721211 0.6317237 0.8466209 0.6317237 0.8726347 0.7849318 0.827017 0.7849318 0.8282241 0.7747598 0.8519546 0.9202941 0.8533319 0.9282611 0.8250772 0.9282611 0.8608062 0.971498 0.8176029 0.971498 0.8189801 0.9635309 0.8548263 0.9369058 0.8235828 0.9369058 0.8250772 0.9282611 0.859429 0.9635309 0.8189801 0.9635309 0.8204745 0.9548862 0.8548263 0.9369058 0.8563805 0.945896 0.8220286 0.945896 0.8579346 0.9548862 0.8204745 0.9548862 0.8220286 0.945896 0.450649 0.9786292 0.4194055 0.9786292 0.4178513 0.969639 0.4537572 0.9606489 0.4522031 0.969639 0.4178513 0.969639 0.4491546 0.9872739 0.4208999 0.9872739 0.4194055 0.9786292 0.4537572 0.9606489 0.4162972 0.9606489 0.4148028 0.9520041 0.4477773 0.995241 0.4222771 0.995241 0.4208999 0.9872739 0.4552516 0.9520041 0.4148028 0.9520041 0.4134255 0.9440371 0.8709139 0.214811 0.8478281 0.214811 0.8466209 0.2046391 0.4015685 0.9147433 0.3583652 0.9147433 0.357158 0.9045713 0.8699232 0.2272056 0.8488188 0.2272056 0.8478281 0.214811 0.4027757 0.9045713 0.357158 0.9045713 0.3561673 0.8921769 0.8691871 0.2413464 0.849555 0.2413464 0.8488188 0.2272056 0.4037664 0.8921769 0.3561673 0.8921769 0.3554311 0.8780359 0.8687338 0.2566902 0.8500083 0.2566902 0.849555 0.2413464 0.4045025 0.8780359 0.3554311 0.8780359 0.3549778 0.8626921 0.8685807 0.2726472 0.8501613 0.2726472 0.8500083 0.2566902 0.4049559 0.862692 0.3549778 0.8626921 0.3548247 0.8467352 0.8687338 0.2886041 0.8500083 0.2886041 0.8501613 0.2726472 0.4049559 0.8307783 0.4051089 0.8467352 0.3548247 0.8467352 0.8691871 0.3039478 0.849555 0.3039478 0.8500083 0.2886041 0.4049559 0.8307783 0.3549778 0.8307784 0.3554311 0.8154345 0.8699232 0.3180888 0.8488188 0.3180888 0.849555 0.3039478 0.4037663 0.8012936 0.4045025 0.8154345 0.3554311 0.8154345 0.8709139 0.3304833 0.8478281 0.3304833 0.8488188 0.3180888 0.4027757 0.788899 0.4037663 0.8012936 0.3561673 0.8012937 0.8709139 0.3304833 0.8721211 0.3406553 0.8466209 0.3406553 0.4027757 0.788899 0.357158 0.788899 0.3583651 0.7787271 0.8004347 0.9202941 0.8018119 0.9282611 0.7735572 0.9282611 0.8092862 0.971498 0.7660829 0.971498 0.7674601 0.9635309 0.8033064 0.9369058 0.7720628 0.9369058 0.7735572 0.9282611 0.807909 0.9635309 0.7674601 0.9635309 0.7689545 0.9548862 0.8033064 0.9369058 0.8048605 0.945896 0.7705087 0.945896 0.8064146 0.9548862 0.7689545 0.9548862 0.7705087 0.945896</float_array>
          <technique_common>
            <accessor source="#Cube_003-mesh-map-0-array" count="1320" stride="2">
              <param name="S" type="float"/>
              <param name="T" type="float"/>
            </accessor>
          </technique_common>
        </source>
        <vertices id="Cube_003-mesh-vertices">
          <input semantic="POSITION" source="#Cube_003-mesh-positions"/>
        </vertices>
        <polylist material="PBRFULL_MetalBeam-material" count="440">
          <input semantic="VERTEX" source="#Cube_003-mesh-vertices" offset="0"/>
          <input semantic="NORMAL" source="#Cube_003-mesh-normals" offset="1"/>
          <input semantic="TEXCOORD" source="#Cube_003-mesh-map-0" offset="2" set="0"/>
          <vcount>3 3 3 3 3 3 3 3 3 3 3 3 3 3 3 3 3 3 3 3 3 3 3 3 3 3 3 3 3 3 3 3 3 3 3 3 3 3 3 3 3 3 3 3 3 3 3 3 3 3 3 3 3 3 3 3 3 3 3 3 3 3 3 3 3 3 3 3 3 3 3 3 3 3 3 3 3 3 3 3 3 3 3 3 3 3 3 3 3 3 3 3 3 3 3 3 3 3 3 3 3 3 3 3 3 3 3 3 3 3 3 3 3 3 3 3 3 3 3 3 3 3 3 3 3 3 3 3 3 3 3 3 3 3 3 3 3 3 3 3 3 3 3 3 3 3 3 3 3 3 3 3 3 3 3 3 3 3 3 3 3 3 3 3 3 3 3 3 3 3 3 3 3 3 3 3 3 3 3 3 3 3 3 3 3 3 3 3 3 3 3 3 3 3 3 3 3 3 3 3 3 3 3 3 3 3 3 3 3 3 3 3 3 3 3 3 3 3 3 3 3 3 3 3 3 3 3 3 3 3 3 3 3 3 3 3 3 3 3 3 3 3 3 3 3 3 3 3 3 3 3 3 3 3 3 3 3 3 3 3 3 3 3 3 3 3 3 3 3 3 3 3 3 3 3 3 3 3 3 3 3 3 3 3 3 3 3 3 3 3 3 3 3 3 3 3 3 3 3 3 3 3 3 3 3 3 3 3 3 3 3 3 3 3 3 3 3 3 3 3 3 3 3 3 3 3 3 3 3 3 3 3 3 3 3 3 3 3 3 3 3 3 3 3 3 3 3 3 3 3 3 3 3 3 3 3 3 3 3 3 3 3 3 3 3 3 3 3 3 3 3 3 3 3 3 3 3 3 3 3 3 3 3 3 3 3 3 3 3 3 3 3 3 3 3 3 3 3 3 3 3 3 3 3 3 3 3 3 3 3 3 3 3 3 3 3 3 3 3 3 3 3 3 3 3 3 3 3 3 3 3 3 3 3 3 3 3 3 3 3 </vcount>
          <p>218 0 0 222 0 1 216 0 2 227 1 3 223 1 4 224 1 5 0 2 6 230 3 7 1 4 8 249 5 9 219 5 10 236 5 11 2 6 12 238 7 13 3 8 14 254 9 15 228 9 16 226 9 17 230 3 18 235 10 19 1 4 20 241 9 21 243 9 22 239 9 23 244 9 24 248 9 25 237 9 26 250 11 27 240 12 28 2 6 29 238 7 30 225 13 31 3 8 32 253 14 33 13 15 34 4 16 35 281 17 36 282 17 37 272 17 38 325 17 39 312 17 40 313 17 41 14 18 42 343 19 43 229 20 44 242 21 45 5 22 46 345 23 47 234 24 48 10 24 49 347 24 50 252 25 51 6 25 52 344 25 53 457 26 54 455 26 55 368 26 56 189 26 57 408 26 58 406 26 59 24 0 60 12 0 61 116 0 62 407 0 63 233 0 64 348 0 65 16 27 66 15 28 67 211 29 68 117 30 69 17 31 70 212 32 71 37 33 72 136 34 73 38 34 74 98 35 75 136 34 76 135 35 77 36 36 78 412 33 79 37 33 80 98 35 81 134 37 82 99 37 83 35 38 84 417 36 85 36 36 86 99 37 87 133 39 88 100 39 89 34 40 90 199 38 91 35 38 92 100 39 93 132 41 94 101 41 95 33 42 96 200 40 97 34 40 98 101 41 99 131 43 100 102 43 101 32 44 102 201 42 103 33 42 104 103 45 105 131 43 106 130 45 107 31 46 108 202 44 109 32 44 110 103 45 111 129 47 112 104 47 113 30 0 114 203 46 115 31 46 116 104 47 117 128 9 118 105 9 119 29 48 120 204 0 121 30 0 122 106 49 123 128 9 124 127 49 125 28 50 126 205 48 127 29 48 128 106 49 129 126 51 130 107 51 131 27 52 132 421 50 133 28 50 134 108 53 135 126 51 136 125 53 137 26 54 138 424 52 139 27 52 140 108 53 141 124 55 142 109 55 143 25 56 144 427 54 145 26 54 146 110 57 147 124 55 148 123 57 149 115 58 150 430 56 151 25 56 152 110 57 153 122 59 154 111 59 155 114 60 156 434 58 157 115 58 158 111 59 159 121 61 160 112 61 161 114 60 162 442 62 163 119 60 164 112 61 165 442 62 166 113 62 167 54 33 168 153 34 169 55 34 170 55 34 171 152 35 172 83 35 173 53 36 174 443 33 175 54 33 176 83 35 177 151 37 178 84 37 179 52 38 180 446 36 181 53 36 182 84 37 183 150 39 184 85 39 185 51 40 186 448 38 187 52 38 188 85 39 189 149 41 190 86 41 191 50 42 192 450 40 193 51 40 194 86 41 195 148 43 196 87 43 197 49 44 198 452 42 199 50 42 200 87 43 201 147 45 202 88 45 203 48 46 204 454 44 205 49 44 206 88 45 207 146 47 208 89 47 209 47 0 210 456 46 211 48 46 212 89 47 213 145 9 214 90 9 215 46 48 216 458 0 217 47 0 218 91 49 219 145 9 220 144 49 221 45 50 222 460 48 223 46 48 224 91 49 225 143 51 226 92 51 227 44 52 228 462 50 229 45 50 230 93 53 231 143 51 232 142 53 233 43 54 234 192 52 235 44 52 236 94 55 237 142 53 238 141 55 239 43 54 240 194 56 241 193 54 242 94 55 243 140 57 244 95 57 245 42 56 246 195 58 247 194 56 248 95 57 249 139 59 250 96 59 251 40 60 252 195 58 253 41 58 254 96 59 255 138 61 256 97 61 257 40 60 258 137 62 259 196 60 260 97 61 261 137 62 262 39 62 263 21 33 264 118 34 265 22 34 266 68 35 267 118 34 268 169 35 269 20 36 270 213 33 271 21 33 272 68 35 273 168 37 274 69 37 275 19 38 276 214 36 277 20 36 278 69 37 279 167 39 280 70 39 281 18 40 282 215 38 283 19 38 284 70 39 285 166 41 286 71 41 287 67 42 288 170 40 289 18 40 290 71 41 291 165 43 292 72 43 293 66 44 294 171 42 295 67 42 296 72 43 297 164 45 298 73 45 299 65 46 300 172 44 301 66 44 302 73 45 303 163 47 304 74 47 305 64 0 306 173 46 307 65 46 308 74 47 309 162 9 310 75 9 311 63 48 312 174 0 313 64 0 314 76 49 315 162 9 316 161 49 317 62 50 318 175 48 319 63 48 320 76 49 321 160 51 322 77 51 323 61 52 324 176 50 325 62 50 326 78 53 327 160 51 328 159 53 329 60 54 330 177 52 331 61 52 332 79 55 333 159 53 334 158 55 335 60 54 336 179 56 337 178 54 338 79 55 339 157 57 340 80 57 341 59 56 342 180 58 343 179 56 344 80 57 345 156 59 346 81 59 347 57 60 348 180 58 349 58 58 350 81 59 351 155 61 352 82 61 353 57 60 354 154 62 355 181 60 356 82 61 357 154 62 358 56 62 359 218 0 360 220 0 361 222 0 362 227 1 363 217 1 364 223 1 365 0 2 366 242 21 367 230 3 368 249 5 369 221 5 370 219 5 371 2 6 372 240 12 373 238 7 374 254 9 375 341 9 376 228 9 377 230 3 378 232 63 379 235 10 380 241 9 381 231 9 382 243 9 383 244 9 384 246 9 385 248 9 386 250 11 387 346 64 388 240 12 389 238 7 390 251 65 391 225 13 392 253 14 393 261 66 394 13 15 395 259 17 396 260 17 397 262 17 398 263 17 399 265 17 400 266 17 401 263 17 402 266 17 403 267 17 404 260 17 405 255 17 406 262 17 407 258 17 408 259 17 409 262 17 410 263 17 411 267 17 412 268 17 413 263 17 414 268 17 415 269 17 416 257 17 417 258 17 418 262 17 419 256 17 420 257 17 421 262 17 422 263 17 423 269 17 424 270 17 425 263 17 426 270 17 427 271 17 428 303 17 429 256 17 430 262 17 431 302 17 432 303 17 433 262 17 434 262 17 435 263 17 436 283 17 437 263 17 438 282 17 439 283 17 440 301 17 441 302 17 442 262 17 443 300 17 444 301 17 445 262 17 446 271 17 447 282 17 448 263 17 449 299 17 450 300 17 451 262 17 452 411 17 453 410 17 454 275 17 455 411 17 456 275 17 457 276 17 458 416 17 459 411 17 460 277 17 461 411 17 462 276 17 463 277 17 464 420 17 465 416 17 466 277 17 467 420 17 468 277 17 469 278 17 470 274 17 471 420 17 472 279 17 473 420 17 474 278 17 475 279 17 476 291 17 477 292 17 478 290 17 479 290 17 480 292 17 481 293 17 482 290 17 483 293 17 484 294 17 485 289 17 486 290 17 487 294 17 488 289 17 489 294 17 490 295 17 491 288 17 492 289 17 493 295 17 494 288 17 495 295 17 496 287 17 497 287 17 498 295 17 499 296 17 500 287 17 501 296 17 502 297 17 503 286 17 504 287 17 505 297 17 506 286 17 507 297 17 508 285 17 509 285 17 510 297 17 511 298 17 512 285 17 513 298 17 514 299 17 515 284 17 516 285 17 517 299 17 518 273 17 519 274 17 520 280 17 521 274 17 522 279 17 523 280 17 524 284 17 525 299 17 526 262 17 527 283 17 528 284 17 529 262 17 530 273 17 531 280 17 532 281 17 533 273 17 534 281 17 535 272 17 536 271 17 537 272 17 538 282 17 539 255 17 540 260 17 541 304 17 542 255 17 543 304 17 544 305 17 545 433 17 546 265 17 547 263 17 548 437 17 549 433 17 550 263 17 551 255 17 552 305 17 553 306 17 554 255 17 555 306 17 556 307 17 557 437 17 558 263 17 559 441 17 560 441 17 561 263 17 562 342 17 563 255 17 564 307 17 565 308 17 566 255 17 567 308 17 568 309 17 569 439 17 570 441 17 571 342 17 572 435 17 573 439 17 574 342 17 575 255 17 576 309 17 577 310 17 578 255 17 579 310 17 580 311 17 581 431 17 582 435 17 583 342 17 584 428 17 585 431 17 586 342 17 587 342 17 588 255 17 589 326 17 590 255 17 591 311 17 592 312 17 593 425 17 594 428 17 595 342 17 596 422 17 597 425 17 598 342 17 599 255 17 600 325 17 601 326 17 602 312 17 603 325 17 604 255 17 605 340 17 606 422 17 607 342 17 608 339 17 609 340 17 610 342 17 611 318 17 612 292 17 613 319 17 614 292 17 615 291 17 616 319 17 617 317 17 618 318 17 619 319 17 620 317 17 621 319 17 622 320 17 623 316 17 624 317 17 625 321 17 626 317 17 627 320 17 628 321 17 629 315 17 630 316 17 631 322 17 632 316 17 633 321 17 634 322 17 635 338 17 636 339 17 637 342 17 638 314 17 639 315 17 640 323 17 641 315 17 642 322 17 643 323 17 644 275 17 645 410 17 646 414 17 647 333 17 648 275 17 649 414 17 650 333 17 651 414 17 652 418 17 653 332 17 654 333 17 655 418 17 656 332 17 657 418 17 658 334 17 659 331 17 660 332 17 661 334 17 662 331 17 663 334 17 664 335 17 665 330 17 666 331 17 667 335 17 668 330 17 669 335 17 670 336 17 671 329 17 672 330 17 673 336 17 674 329 17 675 336 17 676 337 17 677 328 17 678 329 17 679 337 17 680 328 17 681 337 17 682 338 17 683 327 17 684 328 17 685 338 17 686 314 17 687 323 17 688 324 17 689 314 17 690 324 17 691 313 17 692 327 17 693 338 17 694 342 17 695 324 17 696 325 17 697 313 17 698 326 17 699 327 17 700 342 17 701 14 18 702 264 67 703 343 19 704 242 21 705 0 2 706 5 22 707 234 24 708 7 24 709 10 24 710 252 25 711 11 25 712 6 25 713 377 26 714 378 26 715 247 26 716 245 26 717 438 26 718 120 26 719 245 26 720 120 26 721 440 26 722 376 26 723 377 26 724 247 26 725 375 26 726 376 26 727 247 26 728 245 26 729 440 26 730 436 26 731 245 26 732 436 26 733 432 26 734 374 26 735 375 26 736 247 26 737 373 26 738 374 26 739 247 26 740 245 26 741 432 26 742 429 26 743 245 26 744 429 26 745 426 26 746 372 26 747 373 26 748 247 26 749 371 26 750 372 26 751 247 26 752 245 26 753 426 26 754 423 26 755 245 26 756 423 26 757 349 26 758 370 26 759 371 26 760 247 26 761 369 26 762 370 26 763 247 26 764 245 26 765 349 26 766 350 26 767 245 26 768 350 26 769 351 26 770 369 26 771 247 26 772 457 26 773 368 26 774 369 26 775 457 26 776 367 26 777 368 26 778 455 26 779 415 26 780 413 26 781 356 26 782 415 26 783 356 26 784 357 26 785 419 26 786 415 26 787 357 26 788 419 26 789 357 26 790 358 26 791 355 26 792 419 26 793 358 26 794 355 26 795 358 26 796 359 26 797 354 26 798 355 26 799 359 26 800 354 26 801 359 26 802 360 26 803 353 26 804 354 26 805 360 26 806 353 26 807 360 26 808 361 26 809 352 26 810 353 26 811 361 26 812 352 26 813 361 26 814 463 26 815 351 26 816 352 26 817 463 26 818 351 26 819 463 26 820 461 26 821 444 26 822 362 26 823 445 26 824 445 26 825 362 26 826 363 26 827 445 26 828 363 26 829 364 26 830 447 26 831 445 26 832 364 26 833 447 26 834 364 26 835 449 26 836 449 26 837 364 26 838 365 26 839 449 26 840 365 26 841 451 26 842 451 26 843 365 26 844 366 26 845 245 26 846 351 26 847 461 26 848 245 26 849 461 26 850 459 26 851 451 26 852 366 26 853 453 26 854 453 26 855 366 26 856 367 26 857 247 26 858 245 26 859 459 26 860 247 26 861 459 26 862 457 26 863 455 26 864 453 26 865 367 26 866 390 26 867 362 26 868 182 26 869 362 26 870 444 26 871 182 26 872 389 26 873 390 26 874 182 26 875 389 26 876 182 26 877 183 26 878 388 26 879 389 26 880 183 26 881 388 26 882 183 26 883 184 26 884 387 26 885 388 26 886 185 26 887 388 26 888 184 26 889 185 26 890 386 26 891 387 26 892 185 26 893 386 26 894 185 26 895 186 26 896 385 26 897 386 26 898 187 26 899 386 26 900 186 26 901 187 26 902 384 26 903 385 26 904 187 26 905 384 26 906 187 26 907 188 26 908 383 26 909 384 26 910 406 26 911 384 26 912 188 26 913 406 26 914 395 26 915 356 26 916 197 26 917 356 26 918 413 26 919 197 26 920 394 26 921 395 26 922 197 26 923 394 26 924 197 26 925 198 26 926 393 26 927 394 26 928 198 26 929 393 26 930 198 26 931 396 26 932 392 26 933 393 26 934 396 26 935 392 26 936 396 26 937 397 26 938 391 26 939 392 26 940 397 26 941 391 26 942 397 26 943 398 26 944 191 26 945 391 26 946 398 26 947 191 26 948 398 26 949 399 26 950 190 26 951 191 26 952 399 26 953 190 26 954 399 26 955 400 26 956 189 26 957 190 26 958 408 26 959 190 26 960 400 26 961 408 26 962 188 26 963 189 26 964 406 26 965 247 26 966 378 26 967 406 26 968 438 26 969 245 26 970 408 26 971 210 26 972 438 26 973 408 26 974 406 26 975 378 26 976 403 26 977 406 26 978 403 26 979 404 26 980 209 26 981 210 26 982 408 26 983 208 26 984 209 26 985 408 26 986 406 26 987 404 26 988 405 26 989 406 26 990 405 26 991 379 26 992 207 26 993 208 26 994 408 26 995 206 26 996 207 26 997 408 26 998 406 26 999 379 26 1000 380 26 1001 406 26 1002 380 26 1003 381 26 1004 402 26 1005 206 26 1006 408 26 1007 401 26 1008 402 26 1009 408 26 1010 406 26 1011 381 26 1012 382 26 1013 400 26 1014 401 26 1015 408 26 1016 406 26 1017 382 26 1018 383 26 1019 24 0 1020 23 0 1021 12 0 1022 407 0 1023 409 0 1024 233 0 1025 16 27 1026 8 68 1027 15 28 1028 117 30 1029 9 69 1030 17 31 1031 37 33 1032 412 33 1033 136 34 1034 98 35 1035 38 34 1036 136 34 1037 36 36 1038 417 36 1039 412 33 1040 98 35 1041 135 35 1042 134 37 1043 35 38 1044 199 38 1045 417 36 1046 99 37 1047 134 37 1048 133 39 1049 34 40 1050 200 40 1051 199 38 1052 100 39 1053 133 39 1054 132 41 1055 33 42 1056 201 42 1057 200 40 1058 101 41 1059 132 41 1060 131 43 1061 32 44 1062 202 44 1063 201 42 1064 103 45 1065 102 43 1066 131 43 1067 31 46 1068 203 46 1069 202 44 1070 103 45 1071 130 45 1072 129 47 1073 30 0 1074 204 0 1075 203 46 1076 104 47 1077 129 47 1078 128 9 1079 29 48 1080 205 48 1081 204 0 1082 106 49 1083 105 9 1084 128 9 1085 28 50 1086 421 50 1087 205 48 1088 106 49 1089 127 49 1090 126 51 1091 27 52 1092 424 52 1093 421 50 1094 108 53 1095 107 51 1096 126 51 1097 26 54 1098 427 54 1099 424 52 1100 108 53 1101 125 53 1102 124 55 1103 25 56 1104 430 56 1105 427 54 1106 110 57 1107 109 55 1108 124 55 1109 115 58 1110 434 58 1111 430 56 1112 110 57 1113 123 57 1114 122 59 1115 114 60 1116 119 60 1117 434 58 1118 111 59 1119 122 59 1120 121 61 1121 114 60 1122 113 62 1123 442 62 1124 112 61 1125 121 61 1126 442 62 1127 54 33 1128 443 33 1129 153 34 1130 55 34 1131 153 34 1132 152 35 1133 53 36 1134 446 36 1135 443 33 1136 83 35 1137 152 35 1138 151 37 1139 52 38 1140 448 38 1141 446 36 1142 84 37 1143 151 37 1144 150 39 1145 51 40 1146 450 40 1147 448 38 1148 85 39 1149 150 39 1150 149 41 1151 50 42 1152 452 42 1153 450 40 1154 86 41 1155 149 41 1156 148 43 1157 49 44 1158 454 44 1159 452 42 1160 87 43 1161 148 43 1162 147 45 1163 48 46 1164 456 46 1165 454 44 1166 88 45 1167 147 45 1168 146 47 1169 47 0 1170 458 0 1171 456 46 1172 89 47 1173 146 47 1174 145 9 1175 46 48 1176 460 48 1177 458 0 1178 91 49 1179 90 9 1180 145 9 1181 45 50 1182 462 50 1183 460 48 1184 91 49 1185 144 49 1186 143 51 1187 44 52 1188 192 52 1189 462 50 1190 93 53 1191 92 51 1192 143 51 1193 43 54 1194 193 54 1195 192 52 1196 94 55 1197 93 53 1198 142 53 1199 43 54 1200 42 56 1201 194 56 1202 94 55 1203 141 55 1204 140 57 1205 42 56 1206 41 58 1207 195 58 1208 95 57 1209 140 57 1210 139 59 1211 40 60 1212 196 60 1213 195 58 1214 96 59 1215 139 59 1216 138 61 1217 40 60 1218 39 62 1219 137 62 1220 97 61 1221 138 61 1222 137 62 1223 21 33 1224 213 33 1225 118 34 1226 68 35 1227 22 34 1228 118 34 1229 20 36 1230 214 36 1231 213 33 1232 68 35 1233 169 35 1234 168 37 1235 19 38 1236 215 38 1237 214 36 1238 69 37 1239 168 37 1240 167 39 1241 18 40 1242 170 40 1243 215 38 1244 70 39 1245 167 39 1246 166 41 1247 67 42 1248 171 42 1249 170 40 1250 71 41 1251 166 41 1252 165 43 1253 66 44 1254 172 44 1255 171 42 1256 72 43 1257 165 43 1258 164 45 1259 65 46 1260 173 46 1261 172 44 1262 73 45 1263 164 45 1264 163 47 1265 64 0 1266 174 0 1267 173 46 1268 74 47 1269 163 47 1270 162 9 1271 63 48 1272 175 48 1273 174 0 1274 76 49 1275 75 9 1276 162 9 1277 62 50 1278 176 50 1279 175 48 1280 76 49 1281 161 49 1282 160 51 1283 61 52 1284 177 52 1285 176 50 1286 78 53 1287 77 51 1288 160 51 1289 60 54 1290 178 54 1291 177 52 1292 79 55 1293 78 53 1294 159 53 1295 60 54 1296 59 56 1297 179 56 1298 79 55 1299 158 55 1300 157 57 1301 59 56 1302 58 58 1303 180 58 1304 80 57 1305 157 57 1306 156 59 1307 57 60 1308 181 60 1309 180 58 1310 81 59 1311 156 59 1312 155 61 1313 57 60 1314 56 62 1315 154 62 1316 82 61 1317 155 61 1318 154 62 1319</p>
        </polylist>
      </mesh>
    </geometry>
  </library_geometries>
  <library_controllers/>
  <library_visual_scenes>
    <visual_scene id="Scene" name="Scene">
      <node id="metalbeam" name="metalbeam" type="NODE">
        <matrix sid="transform">1 0 0 0 0 1 0 0 0 0 1 0 0 0 0 1</matrix>
        <instance_geometry url="#Cube_003-mesh" name="metalbeam">
          <bind_material>
            <technique_common>
              <instance_material symbol="PBRFULL_MetalBeam-material" target="#PBRFULL_MetalBeam-material"/>
            </technique_common>
          </bind_material>
        </instance_geometry>
      </node>
    </visual_scene>
  </library_visual_scenes>
  <scene>
    <instance_visual_scene url="#Scene"/>
  </scene>
</COLLADA>