<?xml version="1.0" encoding="utf-8"?>
<COLLADA xmlns="http://www.collada.org/2005/11/COLLADASchema" version="1.4.1" xmlns:xsi="http://www.w3.org/2001/XMLSchema-instance">
  <asset>
    <contributor>
      <author>Blender User</author>
      <authoring_tool>Blender 2.80.46 commit date:2019-03-06, commit time:03:53, hash:ecd086ac3224</authoring_tool>
    </contributor>
    <created>2019-03-08T11:23:40</created>
    <modified>2019-03-08T11:23:40</modified>
    <unit name="meter" meter="1"/>
    <up_axis>Z_UP</up_axis>
  </asset>
  <library_cameras>
    <camera id="Camera-camera" name="Camera">
      <optics>
        <technique_common>
          <perspective>
            <xfov sid="xfov">39.59775</xfov>
            <aspect_ratio>1.777778</aspect_ratio>
            <znear sid="znear">0.1</znear>
            <zfar sid="zfar">100</zfar>
          </perspective>
        </technique_common>
      </optics>
      <extra>
        <technique profile="blender">
          <shiftx sid="shiftx" type="float">0</shiftx>
          <shifty sid="shifty" type="float">0</shifty>
          <dof_distance sid="dof_distance" type="float">0</dof_distance>
        </technique>
      </extra>
    </camera>
  </library_cameras>
  <library_lights>
    <light id="Light-light" name="Light">
      <technique_common>
        <point>
          <color sid="color">10 10 10</color>
          <constant_attenuation>1</constant_attenuation>
          <linear_attenuation>0</linear_attenuation>
          <quadratic_attenuation>0.00111109</quadratic_attenuation>
        </point>
      </technique_common>
      <extra>
        <technique profile="blender">
          <type sid="type" type="int">0</type>
          <flag sid="flag" type="int">0</flag>
          <mode sid="mode" type="int">1</mode>
          <gamma sid="blender_gamma" type="float">1</gamma>
          <red sid="red" type="float">1</red>
          <green sid="green" type="float">1</green>
          <blue sid="blue" type="float">1</blue>
          <shadow_r sid="blender_shadow_r" type="float">0</shadow_r>
          <shadow_g sid="blender_shadow_g" type="float">0</shadow_g>
          <shadow_b sid="blender_shadow_b" type="float">0</shadow_b>
          <energy sid="blender_energy" type="float">10</energy>
          <dist sid="blender_dist" type="float">29.99998</dist>
          <spotsize sid="spotsize" type="float">75</spotsize>
          <spotblend sid="spotblend" type="float">0.15</spotblend>
          <att1 sid="att1" type="float">0</att1>
          <att2 sid="att2" type="float">1</att2>
          <falloff_type sid="falloff_type" type="int">2</falloff_type>
          <clipsta sid="clipsta" type="float">1.000799</clipsta>
          <clipend sid="clipend" type="float">30.002</clipend>
          <bias sid="bias" type="float">1</bias>
          <soft sid="soft" type="float">3</soft>
          <bufsize sid="bufsize" type="int">2880</bufsize>
          <samp sid="samp" type="int">3</samp>
          <buffers sid="buffers" type="int">1</buffers>
          <area_shape sid="area_shape" type="int">1</area_shape>
          <area_size sid="area_size" type="float">0.1</area_size>
          <area_sizey sid="area_sizey" type="float">0.1</area_sizey>
          <area_sizez sid="area_sizez" type="float">1</area_sizez>
        </technique>
      </extra>
    </light>
  </library_lights>
  <library_effects>
    <effect id="Conveyor-effect">
      <profile_COMMON>
        <newparam sid="Conveyor_png-surface">
          <surface type="2D">
            <init_from>Conveyor_png</init_from>
          </surface>
        </newparam>
        <newparam sid="Conveyor_png-sampler">
          <sampler2D>
            <source>Conveyor_png-surface</source>
          </sampler2D>
        </newparam>
        <technique sid="common">
          <lambert>
            <diffuse>
              <texture texture="Conveyor_png-sampler" texcoord="WorkCell_001-mesh-map-0"/>
            </diffuse>
            <specular>
              <color sid="specular">0 0.5 0 1</color>
            </specular>
          </lambert>
        </technique>
      </profile_COMMON>
    </effect>
  </library_effects>
  <library_images>
    <image id="Conveyor_png" name="Conveyor_png">
      <init_from>Conveyor.png</init_from>
    </image>
  </library_images>
  <library_materials>
    <material id="Conveyor-material" name="Conveyor">
      <instance_effect url="#Conveyor-effect"/>
    </material>
  </library_materials>
  <library_geometries>
    <geometry id="WorkCell_001-mesh" name="WorkCell.001">
      <mesh>
        <source id="WorkCell_001-mesh-positions">
          <float_array id="WorkCell_001-mesh-positions-array" count="738">8.910645 -320.9644 699.1304 8.910645 6.343811 699.1304 -38.24219 6.343933 711.7651 -38.24219 -320.9644 711.7651 8.910645 6.343811 766.8768 -4.369141 6.343933 770.4353 -72.76123 6.343933 746.2837 -72.76123 -320.9644 746.2837 -14.09033 6.343933 780.1569 -85.39502 6.343933 793.4368 -85.39502 -320.9644 793.4368 -17.64893 6.343933 793.4368 -72.76123 6.343933 840.59 -72.76123 -320.9644 840.59 -14.09033 6.343933 806.7167 -38.24219 6.343933 875.1086 -38.24219 -320.9644 875.1086 -4.369141 6.343933 816.4384 8.910645 6.343933 887.7432 8.910645 -320.9644 887.7432 8.910645 6.343933 819.9968 8.910645 19.13403 819.9968 -4.369141 19.13403 816.4384 -4.369141 19.13403 770.4353 8.910645 19.13403 766.8768 -14.09033 19.13403 806.7167 -14.09033 19.13403 780.1569 -17.64893 19.13403 793.4368 -38.24219 -648.2724 711.7651 8.910645 -648.2724 699.1304 -4.369141 -648.2724 770.4353 8.910645 -648.2724 766.8768 -72.76123 -648.2724 746.2837 -14.09131 -648.2724 780.1569 -85.39502 -648.2724 793.4368 -17.64893 -648.2724 793.4368 -72.76123 -648.2724 840.59 -14.09131 -648.2724 806.7169 -38.24219 -648.2724 875.1086 -4.369141 -648.2724 816.4385 8.910645 -648.2724 887.7432 8.910645 -648.2724 819.9968 8.910645 -661.0625 819.9968 8.910645 -661.0625 766.8768 -4.369141 -661.0625 770.4353 -4.369141 -661.0625 816.4385 -14.09131 -661.0625 780.1569 -14.09131 -661.0625 806.7169 -17.64893 -661.0625 793.4368 1039.618 19.13355 819.9967 1039.617 -648.2724 887.7432 1039.617 -320.9644 699.1303 1039.617 -648.2724 766.8768 1039.617 -661.0625 766.8768 1039.617 -661.0625 819.9968 1039.618 6.343445 887.7432 1039.617 -320.9644 887.7432 1039.618 6.343445 819.9967 1039.618 6.343445 699.1303 1039.618 6.343323 766.8768 1039.618 19.13355 766.8768 1039.617 -648.2724 819.9968 1039.617 -648.2724 699.1303 2095.258 19.13345 819.9966 2095.258 -648.2724 887.7432 2095.258 -320.9644 699.1303 2095.258 -661.0625 766.8768 2095.258 6.343353 887.7431 2095.258 -320.9644 887.7431 2095.258 6.343353 819.9967 2095.258 6.343353 699.1303 2095.258 6.343262 766.8768 2095.258 19.13345 766.8767 2095.258 -648.2724 819.9967 2985.245 -6.10352e-5 0 3081.226 -1.83105e-4 0 2985.245 -6.10352e-5 739.4559 3081.226 -1.83105e-4 739.4559 3081.226 -43.70087 0 2985.245 -43.70074 0 2985.245 -43.70074 739.4559 3081.226 -43.70087 739.4559 2985.245 -641.9334 0 2985.245 -598.2335 0 2985.245 -598.2335 739.4559 2985.245 -641.9334 739.4559 3081.226 -598.2335 0 3081.226 -641.9334 0 3081.226 -641.9334 739.4559 3081.226 -598.2335 739.4559 2991.025 -16.16974 198.6169 2991.025 -16.16974 167.6575 3075.445 -16.16974 198.6169 3075.445 -16.16974 167.6575 2991.025 -625.7645 198.6168 2991.025 -625.7645 167.6575 3075.445 -625.7645 198.6168 3075.445 -625.7645 167.6575 2991.025 -16.16974 510.5926 2991.025 -16.16974 479.6331 3075.445 -16.16974 510.5926 3075.445 -16.16974 479.6331 2991.025 -625.7645 510.5926 2991.025 -625.7645 479.6331 3075.445 -625.7645 510.5926 3075.445 -625.7645 479.6331 3125.965 6.343323 887.7431 3125.965 6.343323 819.9966 3125.965 6.343323 699.1302 3125.965 6.343323 766.8767 3173.115 6.343323 711.7648 3139.245 6.343323 770.4349 3207.636 6.343323 746.2834 3148.965 6.343323 780.1566 3220.266 6.343323 793.4366 3152.525 6.343323 793.4366 3207.636 6.343323 840.5898 3148.965 6.343323 806.7166 3173.115 6.343323 875.1083 3139.245 6.343323 816.4382 3139.245 19.13342 770.4349 3125.965 19.13342 766.8767 3125.965 19.13342 819.9966 3139.245 19.13342 816.4382 3148.965 19.13342 806.7166 3152.525 19.13342 793.4366 3148.965 19.13342 780.1566 3125.965 -320.9654 699.1302 3125.965 -648.2735 699.1303 3173.115 -648.2735 711.7648 3173.115 -320.9654 711.7648 3125.965 -648.2735 766.8767 3139.245 -648.2735 770.4349 3207.636 -648.2735 746.2834 3207.636 -320.9654 746.2834 3148.965 -648.2735 780.1567 3220.266 -648.2735 793.4367 3220.266 -320.9654 793.4366 3152.525 -648.2735 793.4367 3207.636 -648.2735 840.5899 3207.636 -320.9654 840.5898 3148.965 -648.2735 806.7167 3173.115 -648.2735 875.1083 3173.115 -320.9654 875.1083 3139.245 -648.2735 816.4382 3125.965 -648.2735 887.7431 3125.965 -320.9654 887.7431 3125.965 -648.2735 819.9967 2095.258 -648.2724 766.8768 3125.965 -661.0634 819.9967 3139.245 -661.0634 816.4382 3139.245 -661.0634 770.4349 3125.965 -661.0634 766.8767 3148.965 -661.0634 806.7166 3148.965 -661.0634 780.1567 3152.525 -661.0634 793.4367 2095.258 -661.0625 819.9967 2095.258 -648.2724 699.1303 3076.915 18.41736 873.9953 3123.205 18.41736 886.3976 3169.485 18.41736 873.9953 3203.375 18.41736 840.1115 3215.775 18.41736 793.8253 3203.375 18.41736 747.5393 3169.485 18.41736 713.6553 3076.915 41.98291 873.9953 3123.205 41.98291 886.3976 3169.485 41.98291 873.9953 3203.375 41.98291 840.1115 3215.775 41.98285 793.8253 3203.375 41.98285 747.5391 3169.485 41.98285 713.6553 2753.864 18.41736 634.1569 2762.725 18.41736 667.2258 2820.002 18.41736 568.0189 2786.933 18.41736 576.8797 2762.725 18.41736 601.0879 2753.864 41.98291 634.1569 2762.725 41.98291 667.2258 2820.002 41.98291 568.0189 2786.933 41.98291 576.8797 2762.725 41.98291 601.0879 2786.933 18.41736 691.4342 2853.071 18.41736 576.8797 2786.933 41.98291 691.4342 2853.071 41.98291 576.8797 3081.386 41.98291 863.7565 3123.205 41.98291 874.9605 3163.775 41.98291 864.0905 3193.465 41.98291 834.3931 3204.336 41.98285 793.8253 3193.465 41.98285 753.2577 3163.165 41.98285 722.9588 2849.43 41.98291 587.3412 2820.002 41.98291 579.4559 2792.652 41.98291 586.7845 2772.629 41.98291 606.8063 2765.301 41.98291 634.1569 2772.629 41.98291 661.5074 2793.868 41.98291 682.7458 3083.275 90.93103 859.4484 3123.205 90.93103 870.1481 3161.365 90.93103 859.9227 3189.306 90.93103 831.9867 3199.525 90.93103 793.8253 3189.306 90.93103 755.6639 3160.516 90.93103 726.8734 2847.899 90.93103 591.7431 2820.002 90.93103 584.2683 2795.058 90.93103 590.9521 2776.797 90.93103 609.2126 2770.114 90.93103 634.1569 2776.797 90.93103 659.1011 2796.785 90.93103 679.0899 40.63867 -6.10352e-5 0 40.63867 -43.70074 0 40.63867 -43.70074 739.4559 40.63867 -6.10352e-5 739.4559 136.6147 -43.70087 0 136.6147 -1.83105e-4 0 136.6147 -1.83105e-4 739.4559 136.6147 -43.70087 739.4559 40.63867 -641.9334 0 40.63867 -641.9334 739.4559 40.63867 -598.2335 739.4559 40.63867 -598.2335 0 136.6138 -598.2335 0 136.6138 -598.2335 739.4559 136.6138 -641.9334 739.4559 136.6138 -641.9334 0 46.41797 -16.16974 198.6169 46.41797 -16.16974 167.6575 46.41797 -625.7645 167.6575 46.41797 -625.7645 198.6168 130.835 -16.16974 167.6575 130.835 -16.16974 198.6169 130.835 -625.7645 198.6168 130.835 -625.7645 167.6575 46.41797 -16.16974 510.5926 46.41797 -16.16974 479.6331 46.41797 -625.7645 479.6331 46.41797 -625.7645 510.5926 130.835 -16.16974 479.6331 130.835 -16.16974 510.5926 130.835 -625.7645 510.5926 130.835 -625.7645 479.6331</float_array>
          <technique_common>
            <accessor source="#WorkCell_001-mesh-positions-array" count="246" stride="3">
              <param name="X" type="float"/>
              <param name="Y" type="float"/>
              <param name="Z" type="float"/>
            </accessor>
          </technique_common>
        </source>
        <source id="WorkCell_001-mesh-normals">
          <float_array id="WorkCell_001-mesh-normals-array" count="747">-0.4999893 0 -0.8660317 -0.09583055 0.6788713 -0.7279769 -0.1305303 0 -0.9914444 2.58882e-6 1 0 -0.8660317 0 -0.4999893 -0.3785582 0.6532296 -0.6557322 0 1 0 -1 0 0 -0.6557323 0.6532297 -0.3785583 0 1 0 -0.8660317 0 0.4999893 -0.7571544 0.653236 0 0 1 0 -0.4999893 0 0.8660317 -0.6557323 0.6532297 0.3785583 -0.1305003 0 0.9914484 -0.3785582 0.6532296 0.6557322 0 1 0 0 0 1 4.73734e-7 1 0 0 0 -1 4.73735e-7 1 0 4.66331e-7 1 0 -0.2588304 0 -0.9659228 0 0 -1 0 0 1 -0.2588327 0 0.9659222 -0.7071263 0 0.7070873 -0.9659212 0 0.2588363 -0.9659212 0 -0.2588363 -0.7071208 0 -0.7070928 -0.09583055 -0.6788713 -0.7279769 0 -1 0 -0.3785582 -0.6532296 -0.6557322 -0.6557323 -0.6532297 -0.3785583 -0.7571544 -0.653236 0 -0.6557323 -0.6532297 0.3785583 -0.3785582 -0.6532296 0.6557322 -0.2588301 0 -0.965923 -0.2588094 0 0.9659285 -0.7070901 0 0.7071235 -0.9659397 0 0.2587677 -0.9659389 0 -0.2587705 -0.7070846 0 -0.707129 0 1 0 1.33403e-7 0 1 0 1 0 0 1 1.80248e-6 0 0 -1 1.44657e-7 0 1 1 0 0 1.27181e-6 1 0 -1.39104e-6 -1 0 -1 0 0 0 -1.75217e-7 1 0.09583055 0.6788713 -0.7279769 0.4999893 0 -0.8660317 0.1305303 0 -0.9914444 0.3785582 0.6532296 -0.6557322 0.8660449 0 -0.4999665 0.6557453 0.6532122 -0.3785658 0 1 0 0.7571544 0.653236 0 0.8660449 0 0.4999665 0 1 0 0.6557453 0.6532122 0.3785658 0.4999893 0 0.8660317 0.3785582 0.6532296 0.6557322 0.1305303 0 0.9914444 0 1 0 -1.51407e-7 0 -1 0 1 0 0 1 0 0.2588075 0 -0.9659289 0 4.77206e-6 1 0.2588179 0 0.9659262 0.7071651 0 0.7070486 0.9658955 0 0.2589325 0.9658947 0 -0.2589352 0.7071706 0 -0.707043 0.09583055 -0.6788713 -0.7279769 0.3785582 -0.6532296 -0.6557322 0 -1 1.2228e-6 0.6557453 -0.6532122 -0.3785658 0 -1 -2.44573e-6 0.7571544 -0.653236 0 0 -1 -6.5133e-6 0.6557453 -0.6532122 0.3785658 0.3785582 -0.6532296 0.6557322 0 -1 2.17094e-6 2.24116e-7 0 1 -1.0659e-6 -1 0 0 -3.72952e-7 -1 -8.29039e-7 -1 0 0.2588094 0 -0.9659285 -1.48158e-7 0 -1 0 0 1 0.2588301 0 0.965923 0.7071623 0 0.7070512 0.9658944 -4.44283e-5 0.2589367 0.9658951 0 -0.2589339 0.7071734 0 -0.7070401 0 -0.653236 0.7571544 -0.2953373 0.6749696 0.6761598 -0.2953373 -0.6749696 0.6761598 0 0.653236 0.7571544 0.6557378 -0.6532046 0.378592 0.6557378 0.6532046 0.378592 0.6557378 -0.6532046 -0.378592 0.4185088 -0.6672397 -0.6161506 0.6557378 0.6532046 -0.378592 0 1 0 -0.6557148 -0.6532427 0.3785658 -0.4557455 -0.6828401 0.5709866 0 -0.653236 -0.7571544 0.2375619 0.6910476 -0.6826548 0.2375619 -0.6910476 -0.6826548 -0.3785844 -0.6532222 -0.6557247 0 0.653236 -0.7571544 -0.6557148 -0.6532427 -0.3785658 -0.3785844 0.6532222 -0.6557247 -0.6557148 0.6532427 -0.3785658 0 -1 0 0 1 -1.7322e-7 0 -1 0 0.4185088 0.6672397 -0.6161506 0 1 0 0 1 1.73016e-7 7.51916e-7 1 -1.31488e-6 0 1 0 0 1 -2.30495e-7 1.49112e-7 1 2.56438e-7 0 1 -1.95117e-7 -0.2538321 0.773216 0.5811251 0 0.6891841 0.7245864 -0.2820929 0.7094593 0.6458259 0 0.7995897 0.6005468 0.3622602 0.68921 0.6275007 0.5201395 0.7995432 0.3003094 0.3002787 0.7996343 0.5200172 0.6005809 0.7995641 0 0.6275703 0.6891279 0.3622957 0.6275641 0.6891517 -0.3622616 0.7245566 0.6892154 0 0.3500847 0.7821744 -0.5154068 0.5201172 0.7995558 -0.3003141 0.2152535 0.7557219 -0.6185066 0.4001106 0.702162 -0.5889652 0 0.6891841 -0.7245864 0.2265159 0.7245641 -0.6509205 -0.3002487 0.7996053 -0.5200791 0 0.7996044 -0.6005273 -0.5200791 0.7996053 -0.3002487 -0.3622602 0.68921 -0.6275007 -0.7245566 0.6892154 0 -0.6275139 0.689194 -0.3622679 -0.5200791 0.7996053 0.3002487 -0.6005273 0.7996044 0 -0.4021825 0.7644154 0.5039032 -0.6275139 0.689194 0.3622679 -0.4349639 0.716842 0.5449256 1.27188e-6 1 0 -1.39112e-6 -1 0 -1 0 0 0 -1.75217e-7 1 7.9606e-6 1 -4.57933e-6 0 1 0 0 1 0 -0.09583055 0.6788713 0.7279769 0 0 1 4.73735e-7 1 0 0 0 -1 3.553e-7 1 1.80413e-6 4.66332e-7 1 0 -0.2588327 0 -0.9659222 1.48157e-7 0 1 -0.2588223 0 0.965925 -0.7071208 0 0.7070928 0 -1 -2.17086e-6 0 -1 -8.68382e-6 0 -1 4.88458e-6 -0.09583055 -0.6788713 0.7279769 0 0 -1 -0.2588357 0 -0.9659215 -0.2588253 0 0.9659242 -0.7070873 0 0.7071262 -0.9659403 0 0.2587652 -0.9659395 0 -0.2587679 -0.7070873 0 -0.7071262 0 1 0 1.44657e-7 4.77206e-6 1 0 0 1 0 1 0 0 1 1.35186e-6 -1.44656e-7 -4.77203e-6 -1 0 1.86476e-7 1 1.27182e-6 1 0 -1.39105e-6 -1 0 0 -1.75218e-7 1 0 1 0 0 1 0 0.09583055 0.6788713 0.7279769 0 1 0 0 1 0 0 0 -1 0 1 1.35659e-6 0 1 0 0.2588075 0 -0.965929 0 -4.77203e-6 -1 0 0 1 0.2588179 0 0.9659262 0.7071706 0 0.707043 0.9658947 0 0.2589353 0.9658955 0 -0.2589325 0.7071651 0 -0.7070486 0 -1 -2.1709e-6 0 -1 6.5133e-6 0 -1 2.44573e-6 0 -1 -1.2228e-6 0.09583055 -0.6788713 0.7279769 -1.85263e-7 1.86476e-7 1 -1.0659e-6 -1 0 0 0 -1 -1.0659e-6 -1 0 -8.29034e-7 -1 0 0.2588046 0 -0.9659297 0 0 -1 0.2588253 0 0.9659242 0.7071679 -1.80026e-5 0.7070457 0.9658944 0 0.2589367 0 -1 0 0 1 0 0 1 -2.29018e-7 0 1 -1.56347e-7 -0.4557455 0.6828401 0.5709866 0 -1 0 0 1 -3.09461e-7 0 -1 0 0 1 0 0 1 -5.26059e-7 0 1 -1.38331e-6 1.691e-7 1 0 0 1 -2.4206e-7 0 1 1.95117e-7 0 1 1.28992e-7 1.27188e-6 1 0 -1.39112e-6 -1 0 0 -1.75217e-7 1 -4.20277e-7 0 1</float_array>
          <technique_common>
            <accessor source="#WorkCell_001-mesh-normals-array" count="249" stride="3">
              <param name="X" type="float"/>
              <param name="Y" type="float"/>
              <param name="Z" type="float"/>
            </accessor>
          </technique_common>
        </source>
        <source id="WorkCell_001-mesh-map-0">
          <float_array id="WorkCell_001-mesh-map-0-array" count="2712">0.9541748 0.9975597 0.9006401 0.8191379 0.9006401 0.9975597 0.9541748 0.8191379 0.9006401 0.7831421 0.9006401 0.8191379 0.9720889 0.9975597 0.9541748 0.8191379 0.9541748 0.9975597 0.9541748 0.8191379 0.9720888 0.7831421 0.9541748 0.7831421 1.005833 0.9975597 0.9720889 0.8191379 0.9720889 0.9975597 1.005833 0.8191379 0.9720888 0.7831421 0.9720889 0.8191379 1.039876 0.9975597 1.005833 0.8191379 1.005833 0.9975597 1.005833 0.8191379 1.039876 0.7831421 1.005833 0.7831421 1.07404 0.9975597 1.039876 0.8191379 1.039876 0.9975597 1.07404 0.8191379 1.039876 0.7831421 1.039876 0.8191379 1.109797 0.9975597 1.07404 0.8191379 1.07404 0.9975597 1.07404 0.8191379 1.109797 0.7831421 1.07404 0.7831421 1.763469 0.9975597 1.109797 0.8191379 1.109797 0.9975597 1.763469 0.8191379 1.109797 0.7831421 1.109797 0.8191379 0.9006401 0.8191379 2.00033e-4 0.9975597 0.9006401 0.9975597 1.99795e-4 0.7831424 0.9006401 0.8191379 0.9006401 0.7831421 0.2240518 0.780531 0.2159154 0.810972 0.2240518 0.8131576 0.2159154 0.7827166 0.2099592 0.805001 0.2159154 0.810972 0.2099592 0.805001 0.2099592 0.7886876 0.207779 0.7968443 0.2240518 0.8131576 0.8555474 0.7805309 0.2240518 0.780531 0.9541748 0.7831421 0.2240518 0.780531 0.9006401 0.7831421 0.2240518 0.780531 1.99795e-4 0.7831424 0.9006401 0.7831421 0.8555474 0.8131576 1.109797 0.7831421 1.763469 0.7831419 0.2240518 0.8131576 1.07404 0.7831421 1.109797 0.7831421 0.2159154 0.810972 1.039876 0.7831421 1.07404 0.7831421 0.2099592 0.805001 1.005833 0.7831421 1.039876 0.7831421 0.207779 0.7968443 0.9720888 0.7831421 1.005833 0.7831421 0.2099592 0.7886876 0.9541748 0.7831421 0.9720888 0.7831421 0.9006401 0.8191379 0.9541748 0.9975597 0.9006401 0.9975597 0.9006401 0.7831421 0.9541748 0.8191379 0.9006401 0.8191379 0.9541748 0.8191379 0.9720889 0.9975597 0.9541748 0.9975597 0.9541748 0.8191379 0.9720888 0.7831421 0.9720889 0.8191379 0.9720889 0.8191379 1.005833 0.9975597 0.9720889 0.9975597 0.9720888 0.7831421 1.005833 0.8191379 0.9720889 0.8191379 1.005833 0.8191379 1.039876 0.9975597 1.005833 0.9975597 1.005833 0.8191379 1.039876 0.7831421 1.039876 0.8191379 1.039876 0.8191379 1.07404 0.9975597 1.039876 0.9975597 1.039876 0.7831421 1.07404 0.8191379 1.039876 0.8191379 1.07404 0.8191379 1.109797 0.9975597 1.07404 0.9975597 1.07404 0.8191379 1.109797 0.7831421 1.109797 0.8191379 1.109797 0.8191379 1.763469 0.9975597 1.109797 0.9975597 1.109797 0.7831421 1.763469 0.8191379 1.109797 0.8191379 0.9006401 0.9975597 1.99795e-4 0.8191379 0.9006401 0.8191379 0.9006401 0.8191379 1.99795e-4 0.7831424 0.9006401 0.7831421 0.2240518 0.8131576 0.2159154 0.7827166 0.2240518 0.780531 0.2099592 0.805001 0.2159154 0.7827166 0.2159154 0.810972 0.2099592 0.805001 0.207779 0.7968443 0.2099592 0.7886876 0.8555474 0.7805309 0.2240518 0.8131576 0.2240518 0.780531 0.9006401 0.7831421 0.2159154 0.7827166 0.9541748 0.7831421 1.99795e-4 0.7831424 0.2240518 0.780531 0.9006401 0.7831421 1.109797 0.7831421 0.8555474 0.8131576 1.763469 0.7831419 1.07404 0.7831421 0.2240518 0.8131576 1.109797 0.7831421 1.039876 0.7831421 0.2159154 0.810972 1.07404 0.7831421 1.005833 0.7831421 0.2099592 0.805001 1.039876 0.7831421 0.9720888 0.7831421 0.207779 0.7968443 1.005833 0.7831421 0.9541748 0.7831421 0.2099592 0.7886876 0.9720888 0.7831421 0.8555474 0.8131576 1.558759 0.7805309 0.8555474 0.7805309 1.763469 0.7831419 1.558759 0.8131576 0.8555474 0.8131576 1.763469 0.7831419 2.466681 0.8191379 1.763469 0.8191379 2.00033e-4 0.9975597 0.7034116 0.8191379 1.99795e-4 0.8191379 1.99795e-4 0.8191379 0.7034116 0.7831424 1.99795e-4 0.7831424 0.8555474 0.7805309 1.558759 0.8131576 0.8555474 0.8131576 1.99795e-4 0.7831424 1.558759 0.7805309 0.8555474 0.7805309 1.763469 0.8191379 2.466681 0.9975597 2.466681 0.8191379 1.763469 0.8191379 2.466681 0.7831419 1.763469 0.7831419 1.99795e-4 0.8191379 0.7034118 0.9975597 2.00033e-4 0.9975597 1.99795e-4 0.7831424 0.7034116 0.8191379 1.99795e-4 0.8191379 0.8555474 0.7805309 0.7034116 0.7831424 1.99795e-4 0.7831424 1.763469 0.8191379 2.466681 0.9975597 1.763469 0.9975597 0.8555474 0.8131576 2.466681 0.7831419 1.763469 0.7831419 0.4610978 0.8183272 0.04104882 0.7773731 0.4610978 0.7773731 0.4610978 0.7773749 0.04104882 0.8183128 0.4610977 0.8183128 0.4610978 0.7773731 0.04104882 0.722854 0.4610978 0.722854 0.04104882 0.722854 0.4610978 0.7773731 0.4610978 0.722854 0.04104882 0.7773731 0.4610978 0.8183272 0.4610978 0.7773731 0.04104882 0.8183128 0.4610978 0.7773749 0.4610977 0.8183128 0.04104882 0.722854 0.4610978 0.7773731 0.4610978 0.722854 0.4610978 0.7773731 0.04104882 0.722854 0.4610978 0.722854 0.4610978 0.845241 0.04104882 0.816201 0.4610978 0.816201 0.4610978 0.8162027 0.04104882 0.8452265 0.4610977 0.8452265 0.4610978 0.816201 0.04104882 0.7767799 0.4610978 0.7767799 0.4610978 0.845241 0.04104882 0.816201 0.4610978 0.816201 0.4610978 0.8162027 0.04104882 0.8452265 0.4610977 0.8452265 0.4610978 0.816201 0.04104882 0.7767799 0.4610978 0.7767799 0.9006401 0.8191379 0.9541748 0.9975597 0.9006401 0.9975597 0.9006401 0.7831421 0.9541748 0.8191379 0.9006401 0.8191379 0.9541748 0.8191379 0.9720889 0.9975597 0.9541748 0.9975597 0.9541748 0.7831421 0.9720889 0.8191379 0.9541748 0.8191379 0.9720889 0.8191379 1.005833 0.9975597 0.9720889 0.9975597 0.9720888 0.7831421 1.005833 0.8191379 0.9720889 0.8191379 1.005833 0.8191379 1.039876 0.9975597 1.005833 0.9975597 1.005833 0.8191379 1.039876 0.7831421 1.039876 0.8191379 1.039876 0.8191379 1.07404 0.9975597 1.039876 0.9975597 1.039876 0.8191379 1.07404 0.7831421 1.07404 0.8191379 1.07404 0.8191379 1.109797 0.9975597 1.07404 0.9975597 1.07404 0.8191379 1.109797 0.7831421 1.109797 0.8191379 1.763469 0.8191379 1.763469 0.9975597 1.109797 0.8191379 1.109797 0.7831421 1.763469 0.8191379 1.109797 0.8191379 0.9006401 0.9975597 1.99795e-4 0.8191379 0.9006401 0.8191379 0.9006401 0.8191379 1.99795e-4 0.7831424 0.9006401 0.7831421 0.2159154 0.810972 0.2240518 0.780531 0.2240518 0.8131576 0.2099592 0.805001 0.2159154 0.7827166 0.2159154 0.810972 0.2099592 0.805001 0.207779 0.7968443 0.2099592 0.7886876 0.8555474 0.7805309 0.2240518 0.8131576 0.2240518 0.780531 0.9006401 0.7831421 0.2159154 0.7827166 0.9541748 0.7831421 1.99795e-4 0.7831424 0.2240518 0.780531 0.9006401 0.7831421 1.109797 0.7831421 0.8555474 0.8131576 1.763469 0.7831419 1.07404 0.7831421 0.2240518 0.8131576 1.109797 0.7831421 1.039876 0.7831421 0.2159154 0.810972 1.07404 0.7831421 1.005833 0.7831421 0.2099592 0.805001 1.039876 0.7831421 0.9720888 0.7831421 0.207779 0.7968443 1.005833 0.7831421 0.9541748 0.7831421 0.2099592 0.7886876 0.9720888 0.7831421 0.9541748 0.9975597 0.9006401 0.8191379 0.9006401 0.9975597 0.9541748 0.8191379 0.9006401 0.7831421 0.9006401 0.8191379 0.9720889 0.9975597 0.9541748 0.8191379 0.9541748 0.9975597 0.9720889 0.8191379 0.9541748 0.7831421 0.9541748 0.8191379 1.005833 0.9975597 0.9720889 0.8191379 0.9720889 0.9975597 1.005833 0.8191379 0.9720888 0.7831421 0.9720889 0.8191379 1.039876 0.9975597 1.005833 0.8191379 1.005833 0.9975597 1.005833 0.8191379 1.039876 0.7831421 1.005833 0.7831421 1.07404 0.9975597 1.039876 0.8191379 1.039876 0.9975597 1.039876 0.8191379 1.07404 0.7831421 1.039876 0.7831421 1.109797 0.9975597 1.07404 0.8191379 1.07404 0.9975597 1.07404 0.8191379 1.109797 0.7831421 1.07404 0.7831421 1.109797 0.9975597 1.763469 0.8191379 1.109797 0.8191379 1.763469 0.8191379 1.109797 0.7831421 1.109797 0.8191379 1.99795e-4 0.8191379 0.9006401 0.9975597 0.9006401 0.8191379 1.99795e-4 0.7831424 0.9006401 0.8191379 0.9006401 0.7831421 0.2240518 0.780531 0.2159154 0.810972 0.2240518 0.8131576 0.2159154 0.810972 0.2099592 0.7886876 0.2099592 0.805001 0.2099592 0.805001 0.2099592 0.7886876 0.207779 0.7968443 0.2240518 0.8131576 0.8555474 0.7805309 0.2240518 0.780531 0.2159154 0.7827166 0.9006401 0.7831421 0.9541748 0.7831421 0.9006401 0.7831421 0.8555474 0.7805309 1.99795e-4 0.7831424 0.8555474 0.8131576 1.109797 0.7831421 1.763469 0.7831419 0.2240518 0.8131576 1.07404 0.7831421 1.109797 0.7831421 0.2159154 0.810972 1.039876 0.7831421 1.07404 0.7831421 0.2099592 0.805001 1.005833 0.7831421 1.039876 0.7831421 0.207779 0.7968443 0.9720888 0.7831421 1.005833 0.7831421 0.2099592 0.7886876 0.9541748 0.7831421 0.9720888 0.7831421 0.06514036 0.3668722 0.1606695 0.3771778 0.1412482 0.4230099 0.0170288 0.2896196 0.1006079 0.3329215 0.06514036 0.3668722 0.001999974 0.2020863 0.06112378 0.2722783 0.0170288 0.2896196 0.001999974 0.2020863 0.06357073 0.1355968 0.04830807 0.203231 0.07406431 0.0458821 0.06357073 0.1355968 0.02192944 0.1164317 0.14974 0.003671169 0.1040698 0.07958477 0.07406431 0.0458821 0.6195614 0.5745665 0.5148284 0.4073806 0.6154574 0.4607397 0.1559455 0.1396692 0.1865507 0.121998 0.1590021 0.2680943 0.6928099 0.3108493 0.6860008 0.2348763 0.7309161 0.2539402 0.6377319 0.3485177 0.6586278 0.2780884 0.6928099 0.3108493 0.7041965 0.05227887 0.6230767 0.04686689 0.6487556 0.001999974 0.7375488 0.1165454 0.6633561 0.08507966 0.7041965 0.05227887 0.7465376 0.1864173 0.689175 0.1325741 0.7375488 0.1165454 0.7309161 0.2539402 0.6968637 0.1844423 0.7465376 0.1864173 0.101422 0.634095 0.06036716 0.6246659 0.02952784 0.5959728 0.5852793 0.2353885 0.5805359 0.1326985 0.6021857 0.1456122 0.5230368 0.6350342 0.09555733 0.4714485 0.5148284 0.4073806 0.1606695 0.3771778 0.6377319 0.3485177 0.1412482 0.4230099 0.14974 0.003671169 0.6230767 0.04686689 0.1622149 0.0435754 0.1936367 0.2861952 0.5805359 0.1326985 0.5852793 0.2353885 0.1606695 0.3771778 0.1133093 0.3202432 0.1725535 0.3575822 0.06112378 0.2722783 0.1133093 0.3202432 0.1006079 0.3329215 0.04830807 0.203231 0.0768122 0.2659996 0.06112378 0.2722783 0.04830807 0.203231 0.07820439 0.1425064 0.06469547 0.2036754 0.1040698 0.07958477 0.07820439 0.1425064 0.06357073 0.1355968 0.1622149 0.0435754 0.1143243 0.09168303 0.1040698 0.07958477 0.6230767 0.04686689 0.1684391 0.05784386 0.1622149 0.0435754 0.6230767 0.04686689 0.6490157 0.09733098 0.6088612 0.06472617 0.6633561 0.08507966 0.6722816 0.1384238 0.6490157 0.09733098 0.689175 0.1325741 0.679575 0.1837438 0.6722816 0.1384238 0.6860008 0.2348763 0.679575 0.1837438 0.6968637 0.1844423 0.6860008 0.2348763 0.6469926 0.2664274 0.670466 0.2280606 0.6195502 0.3094845 0.6469926 0.2664274 0.6586278 0.2780884 0.6195502 0.3094845 0.1725535 0.3575822 0.6108974 0.2965176 0.1725535 0.3575822 0.1590021 0.2680943 0.1936367 0.2861952 0.1133093 0.3202432 0.1371962 0.2385244 0.1590021 0.2680943 0.06469547 0.2036754 0.1371962 0.2385244 0.0768122 0.2659996 0.07820439 0.1425064 0.1283884 0.203619 0.06469547 0.2036754 0.07820439 0.1425064 0.1559455 0.1396692 0.1362676 0.1686714 0.1684391 0.05784386 0.1559455 0.1396692 0.1143243 0.09168303 0.6088612 0.06472617 0.1865507 0.121998 0.1684391 0.05784386 0.6088612 0.06472617 0.6021857 0.1456122 0.5805359 0.1326985 0.6722816 0.1384238 0.6021857 0.1456122 0.6490157 0.09733098 0.679575 0.1837438 0.6146119 0.1633993 0.6722816 0.1384238 0.679575 0.1837438 0.6150705 0.2045454 0.6201506 0.1838244 0.6469926 0.2664274 0.6150705 0.2045454 0.670466 0.2280606 0.6108974 0.2965176 0.6037897 0.2224095 0.6469926 0.2664274 0.6108974 0.2965176 0.1936367 0.2861952 0.5852793 0.2353885 0.4610978 0.8183272 0.04104882 0.7773731 0.4610978 0.7773731 0.4610978 0.7773749 0.04104882 0.8183128 0.4610977 0.8183128 0.4610978 0.7773731 0.04104882 0.722854 0.4610978 0.722854 0.04104882 0.722854 0.4610978 0.7773731 0.4610978 0.722854 0.04104882 0.7773731 0.4610978 0.8183272 0.4610978 0.7773731 0.04104882 0.8183128 0.4610978 0.7773749 0.4610977 0.8183128 0.04104882 0.722854 0.4610978 0.7773731 0.4610978 0.722854 0.4610978 0.7773731 0.04104882 0.722854 0.4610978 0.722854 0.4610978 0.845241 0.04104882 0.816201 0.4610978 0.816201 0.4610978 0.8162027 0.04104882 0.8452265 0.4610977 0.8452265 0.4610978 0.816201 0.04104882 0.7767799 0.4610978 0.7767799 0.4610978 0.845241 0.04104882 0.816201 0.4610978 0.816201 0.4610978 0.8162027 0.04104882 0.8452265 0.4610977 0.8452265 0.4610978 0.816201 0.04104882 0.7767799 0.4610978 0.7767799 0.9541748 0.9975597 0.9541748 0.8191379 0.9006401 0.8191379 0.9541748 0.8191379 0.9541748 0.7831421 0.9006401 0.7831421 0.9720889 0.9975597 0.9720889 0.8191379 0.9541748 0.8191379 0.9541748 0.8191379 0.9720889 0.8191379 0.9720888 0.7831421 1.005833 0.9975597 1.005833 0.8191379 0.9720889 0.8191379 1.005833 0.8191379 1.005833 0.7831421 0.9720888 0.7831421 1.039876 0.9975597 1.039876 0.8191379 1.005833 0.8191379 1.005833 0.8191379 1.039876 0.8191379 1.039876 0.7831421 1.07404 0.9975597 1.07404 0.8191379 1.039876 0.8191379 1.07404 0.8191379 1.07404 0.7831421 1.039876 0.7831421 1.109797 0.9975597 1.109797 0.8191379 1.07404 0.8191379 1.07404 0.8191379 1.109797 0.8191379 1.109797 0.7831421 1.763469 0.9975597 1.763469 0.8191379 1.109797 0.8191379 1.763469 0.8191379 1.763469 0.7831419 1.109797 0.7831421 0.9006401 0.8191379 1.99795e-4 0.8191379 2.00033e-4 0.9975597 1.99795e-4 0.7831424 1.99795e-4 0.8191379 0.9006401 0.8191379 0.2240518 0.780531 0.2159154 0.7827166 0.2159154 0.810972 0.2159154 0.7827166 0.2099592 0.7886876 0.2099592 0.805001 0.2240518 0.8131576 0.8555474 0.8131576 0.8555474 0.7805309 0.9541748 0.7831421 0.2159154 0.7827166 0.2240518 0.780531 0.2240518 0.780531 0.8555474 0.7805309 1.99795e-4 0.7831424 0.8555474 0.8131576 0.2240518 0.8131576 1.109797 0.7831421 0.2240518 0.8131576 0.2159154 0.810972 1.07404 0.7831421 0.2159154 0.810972 0.2099592 0.805001 1.039876 0.7831421 0.2099592 0.805001 0.207779 0.7968443 1.005833 0.7831421 0.207779 0.7968443 0.2099592 0.7886876 0.9720888 0.7831421 0.2099592 0.7886876 0.2159154 0.7827166 0.9541748 0.7831421 0.9006401 0.8191379 0.9541748 0.8191379 0.9541748 0.9975597 0.9006401 0.7831421 0.9541748 0.7831421 0.9541748 0.8191379 0.9541748 0.8191379 0.9720889 0.8191379 0.9720889 0.9975597 0.9541748 0.8191379 0.9541748 0.7831421 0.9720888 0.7831421 0.9720889 0.8191379 1.005833 0.8191379 1.005833 0.9975597 0.9720888 0.7831421 1.005833 0.7831421 1.005833 0.8191379 1.005833 0.8191379 1.039876 0.8191379 1.039876 0.9975597 1.005833 0.8191379 1.005833 0.7831421 1.039876 0.7831421 1.039876 0.8191379 1.07404 0.8191379 1.07404 0.9975597 1.039876 0.7831421 1.07404 0.7831421 1.07404 0.8191379 1.07404 0.8191379 1.109797 0.8191379 1.109797 0.9975597 1.07404 0.8191379 1.07404 0.7831421 1.109797 0.7831421 1.109797 0.8191379 1.763469 0.8191379 1.763469 0.9975597 1.109797 0.7831421 1.763469 0.7831419 1.763469 0.8191379 0.9006401 0.9975597 2.00033e-4 0.9975597 1.99795e-4 0.8191379 0.9006401 0.8191379 1.99795e-4 0.8191379 1.99795e-4 0.7831424 0.2240518 0.8131576 0.2159154 0.810972 0.2159154 0.7827166 0.2099592 0.805001 0.2099592 0.7886876 0.2159154 0.7827166 0.8555474 0.7805309 0.8555474 0.8131576 0.2240518 0.8131576 0.9006401 0.7831421 0.2240518 0.780531 0.2159154 0.7827166 1.99795e-4 0.7831424 0.8555474 0.7805309 0.2240518 0.780531 1.109797 0.7831421 0.2240518 0.8131576 0.8555474 0.8131576 1.07404 0.7831421 0.2159154 0.810972 0.2240518 0.8131576 1.039876 0.7831421 0.2099592 0.805001 0.2159154 0.810972 1.005833 0.7831421 0.207779 0.7968443 0.2099592 0.805001 0.9720888 0.7831421 0.2099592 0.7886876 0.207779 0.7968443 0.9541748 0.7831421 0.2159154 0.7827166 0.2099592 0.7886876 0.8555474 0.8131576 1.558759 0.8131576 1.558759 0.7805309 1.763469 0.7831419 2.466681 0.7831419 1.558759 0.8131576 1.763469 0.7831419 2.466681 0.7831419 2.466681 0.8191379 2.00033e-4 0.9975597 0.7034118 0.9975597 0.7034116 0.8191379 1.99795e-4 0.8191379 0.7034116 0.8191379 0.7034116 0.7831424 0.8555474 0.7805309 1.558759 0.7805309 1.558759 0.8131576 1.99795e-4 0.7831424 0.7034116 0.7831424 1.558759 0.7805309 1.763469 0.8191379 1.763469 0.9975597 2.466681 0.9975597 1.763469 0.8191379 2.466681 0.8191379 2.466681 0.7831419 1.99795e-4 0.8191379 0.7034116 0.8191379 0.7034118 0.9975597 1.99795e-4 0.7831424 0.7034116 0.7831424 0.7034116 0.8191379 0.8555474 0.7805309 1.558759 0.7805309 0.7034116 0.7831424 1.763469 0.8191379 2.466681 0.8191379 2.466681 0.9975597 0.8555474 0.8131576 1.558759 0.8131576 2.466681 0.7831419 0.4610978 0.8183272 0.04104882 0.8183272 0.04104882 0.7773731 0.4610978 0.7773749 0.04104882 0.7773749 0.04104882 0.8183128 0.4610978 0.7773731 0.04104882 0.7773731 0.04104882 0.722854 0.04104882 0.722854 0.04104882 0.7773731 0.4610978 0.7773731 0.04104882 0.7773731 0.04104882 0.8183272 0.4610978 0.8183272 0.04104882 0.8183128 0.04104882 0.7773749 0.4610978 0.7773749 0.04104882 0.722854 0.04104882 0.7773731 0.4610978 0.7773731 0.4610978 0.7773731 0.04104882 0.7773731 0.04104882 0.722854 0.4610978 0.845241 0.04104882 0.845241 0.04104882 0.816201 0.4610978 0.8162027 0.04104882 0.8162027 0.04104882 0.8452265 0.4610978 0.816201 0.04104882 0.816201 0.04104882 0.7767799 0.4610978 0.845241 0.04104882 0.845241 0.04104882 0.816201 0.4610978 0.8162027 0.04104882 0.8162027 0.04104882 0.8452265 0.4610978 0.816201 0.04104882 0.816201 0.04104882 0.7767799 0.9006401 0.8191379 0.9541748 0.8191379 0.9541748 0.9975597 0.9006401 0.7831421 0.9541748 0.7831421 0.9541748 0.8191379 0.9541748 0.8191379 0.9720889 0.8191379 0.9720889 0.9975597 0.9541748 0.7831421 0.9720888 0.7831421 0.9720889 0.8191379 0.9720889 0.8191379 1.005833 0.8191379 1.005833 0.9975597 0.9720888 0.7831421 1.005833 0.7831421 1.005833 0.8191379 1.005833 0.8191379 1.039876 0.8191379 1.039876 0.9975597 1.005833 0.8191379 1.005833 0.7831421 1.039876 0.7831421 1.039876 0.8191379 1.07404 0.8191379 1.07404 0.9975597 1.039876 0.8191379 1.039876 0.7831421 1.07404 0.7831421 1.07404 0.8191379 1.109797 0.8191379 1.109797 0.9975597 1.07404 0.8191379 1.07404 0.7831421 1.109797 0.7831421 1.109797 0.9975597 1.109797 0.8191379 1.763469 0.9975597 1.109797 0.7831421 1.763469 0.7831419 1.763469 0.8191379 2.00033e-4 0.9975597 1.99795e-4 0.8191379 0.9006401 0.9975597 0.9006401 0.8191379 1.99795e-4 0.8191379 1.99795e-4 0.7831424 0.2159154 0.810972 0.2159154 0.7827166 0.2240518 0.780531 0.2099592 0.805001 0.2099592 0.7886876 0.2159154 0.7827166 0.8555474 0.7805309 0.8555474 0.8131576 0.2240518 0.8131576 0.9006401 0.7831421 0.2240518 0.780531 0.2159154 0.7827166 1.99795e-4 0.7831424 0.8555474 0.7805309 0.2240518 0.780531 1.109797 0.7831421 0.2240518 0.8131576 0.8555474 0.8131576 1.07404 0.7831421 0.2159154 0.810972 0.2240518 0.8131576 1.039876 0.7831421 0.2099592 0.805001 0.2159154 0.810972 1.005833 0.7831421 0.207779 0.7968443 0.2099592 0.805001 0.9720888 0.7831421 0.2099592 0.7886876 0.207779 0.7968443 0.9541748 0.7831421 0.2159154 0.7827166 0.2099592 0.7886876 0.9541748 0.9975597 0.9541748 0.8191379 0.9006401 0.8191379 0.9541748 0.8191379 0.9541748 0.7831421 0.9006401 0.7831421 0.9720889 0.9975597 0.9720889 0.8191379 0.9541748 0.8191379 0.9720889 0.8191379 0.9720888 0.7831421 0.9541748 0.7831421 1.005833 0.9975597 1.005833 0.8191379 0.9720889 0.8191379 1.005833 0.8191379 1.005833 0.7831421 0.9720888 0.7831421 1.039876 0.9975597 1.039876 0.8191379 1.005833 0.8191379 1.005833 0.8191379 1.039876 0.8191379 1.039876 0.7831421 1.07404 0.9975597 1.07404 0.8191379 1.039876 0.8191379 1.039876 0.8191379 1.07404 0.8191379 1.07404 0.7831421 1.109797 0.9975597 1.109797 0.8191379 1.07404 0.8191379 1.07404 0.8191379 1.109797 0.8191379 1.109797 0.7831421 1.109797 0.9975597 1.763469 0.9975597 1.763469 0.8191379 1.763469 0.8191379 1.763469 0.7831419 1.109797 0.7831421 1.99795e-4 0.8191379 2.00033e-4 0.9975597 0.9006401 0.9975597 1.99795e-4 0.7831424 1.99795e-4 0.8191379 0.9006401 0.8191379 0.2240518 0.780531 0.2159154 0.7827166 0.2159154 0.810972 0.2159154 0.810972 0.2159154 0.7827166 0.2099592 0.7886876 0.2240518 0.8131576 0.8555474 0.8131576 0.8555474 0.7805309 0.2159154 0.7827166 0.2240518 0.780531 0.9006401 0.7831421 0.9006401 0.7831421 0.2240518 0.780531 0.8555474 0.7805309 0.8555474 0.8131576 0.2240518 0.8131576 1.109797 0.7831421 0.2240518 0.8131576 0.2159154 0.810972 1.07404 0.7831421 0.2159154 0.810972 0.2099592 0.805001 1.039876 0.7831421 0.2099592 0.805001 0.207779 0.7968443 1.005833 0.7831421 0.207779 0.7968443 0.2099592 0.7886876 0.9720888 0.7831421 0.2099592 0.7886876 0.2159154 0.7827166 0.9541748 0.7831421 0.06514036 0.3668722 0.1006079 0.3329215 0.1606695 0.3771778 0.0170288 0.2896196 0.06112378 0.2722783 0.1006079 0.3329215 0.001999974 0.2020863 0.04830807 0.203231 0.06112378 0.2722783 0.001999974 0.2020863 0.02192944 0.1164317 0.06357073 0.1355968 0.07406431 0.0458821 0.1040698 0.07958477 0.06357073 0.1355968 0.14974 0.003671169 0.1622149 0.0435754 0.1040698 0.07958477 0.5230368 0.6350342 0.5148284 0.4073806 0.6195614 0.5745665 0.5148284 0.4073806 0.5722914 0.4205783 0.6154574 0.4607397 0.5230368 0.6350342 0.6195614 0.5745665 0.5794002 0.6177323 0.6154574 0.4607397 0.6327592 0.5171031 0.6195614 0.5745665 0.1865507 0.121998 0.1936367 0.2861952 0.1590021 0.2680943 0.1590021 0.2680943 0.1371962 0.2385244 0.1362676 0.1686714 0.1371962 0.2385244 0.1283884 0.203619 0.1362676 0.1686714 0.1362676 0.1686714 0.1559455 0.1396692 0.1590021 0.2680943 0.6928099 0.3108493 0.6586278 0.2780884 0.6860008 0.2348763 0.6377319 0.3485177 0.6195502 0.3094845 0.6586278 0.2780884 0.7041965 0.05227887 0.6633561 0.08507966 0.6230767 0.04686689 0.7375488 0.1165454 0.689175 0.1325741 0.6633561 0.08507966 0.7465376 0.1864173 0.6968637 0.1844423 0.689175 0.1325741 0.7309161 0.2539402 0.6860008 0.2348763 0.6968637 0.1844423 0.02952784 0.5959728 0.01716655 0.5557038 0.02659571 0.5146495 0.02659571 0.5146495 0.05528855 0.4838098 0.02952784 0.5959728 0.05528855 0.4838098 0.09555733 0.4714485 0.02952784 0.5959728 0.09555733 0.4714485 0.101422 0.634095 0.02952784 0.5959728 0.6201506 0.1838244 0.6150705 0.2045454 0.6146119 0.1633993 0.6150705 0.2045454 0.6037897 0.2224095 0.6021857 0.1456122 0.6146119 0.1633993 0.6150705 0.2045454 0.6021857 0.1456122 0.6037897 0.2224095 0.5852793 0.2353885 0.6021857 0.1456122 0.5230368 0.6350342 0.101422 0.634095 0.09555733 0.4714485 0.1606695 0.3771778 0.6195502 0.3094845 0.6377319 0.3485177 0.14974 0.003671169 0.6487556 0.001999974 0.6230767 0.04686689 0.1936367 0.2861952 0.1865507 0.121998 0.5805359 0.1326985 0.1606695 0.3771778 0.1006079 0.3329215 0.1133093 0.3202432 0.06112378 0.2722783 0.0768122 0.2659996 0.1133093 0.3202432 0.04830807 0.203231 0.06469547 0.2036754 0.0768122 0.2659996 0.04830807 0.203231 0.06357073 0.1355968 0.07820439 0.1425064 0.1040698 0.07958477 0.1143243 0.09168303 0.07820439 0.1425064 0.1622149 0.0435754 0.1684391 0.05784386 0.1143243 0.09168303 0.6230767 0.04686689 0.6088612 0.06472617 0.1684391 0.05784386 0.6230767 0.04686689 0.6633561 0.08507966 0.6490157 0.09733098 0.6633561 0.08507966 0.689175 0.1325741 0.6722816 0.1384238 0.689175 0.1325741 0.6968637 0.1844423 0.679575 0.1837438 0.6860008 0.2348763 0.670466 0.2280606 0.679575 0.1837438 0.6860008 0.2348763 0.6586278 0.2780884 0.6469926 0.2664274 0.6195502 0.3094845 0.6108974 0.2965176 0.6469926 0.2664274 0.6195502 0.3094845 0.1606695 0.3771778 0.1725535 0.3575822 0.1725535 0.3575822 0.1133093 0.3202432 0.1590021 0.2680943 0.1133093 0.3202432 0.0768122 0.2659996 0.1371962 0.2385244 0.06469547 0.2036754 0.1283884 0.203619 0.1371962 0.2385244 0.07820439 0.1425064 0.1362676 0.1686714 0.1283884 0.203619 0.07820439 0.1425064 0.1143243 0.09168303 0.1559455 0.1396692 0.1684391 0.05784386 0.1865507 0.121998 0.1559455 0.1396692 0.6088612 0.06472617 0.5805359 0.1326985 0.1865507 0.121998 0.6088612 0.06472617 0.6490157 0.09733098 0.6021857 0.1456122 0.6722816 0.1384238 0.6146119 0.1633993 0.6021857 0.1456122 0.679575 0.1837438 0.6201506 0.1838244 0.6146119 0.1633993 0.679575 0.1837438 0.670466 0.2280606 0.6150705 0.2045454 0.6469926 0.2664274 0.6037897 0.2224095 0.6150705 0.2045454 0.6108974 0.2965176 0.5852793 0.2353885 0.6037897 0.2224095 0.6108974 0.2965176 0.1725535 0.3575822 0.1936367 0.2861952 0.4610978 0.8183272 0.04104882 0.8183272 0.04104882 0.7773731 0.4610978 0.7773749 0.04104882 0.7773749 0.04104882 0.8183128 0.4610978 0.7773731 0.04104882 0.7773731 0.04104882 0.722854 0.04104882 0.722854 0.04104882 0.7773731 0.4610978 0.7773731 0.04104882 0.7773731 0.04104882 0.8183272 0.4610978 0.8183272 0.04104882 0.8183128 0.04104882 0.7773749 0.4610978 0.7773749 0.04104882 0.722854 0.04104882 0.7773731 0.4610978 0.7773731 0.4610978 0.7773731 0.04104882 0.7773731 0.04104882 0.722854 0.4610978 0.845241 0.04104882 0.845241 0.04104882 0.816201 0.4610978 0.8162027 0.04104882 0.8162027 0.04104882 0.8452265 0.4610978 0.816201 0.04104882 0.816201 0.04104882 0.7767799 0.4610978 0.845241 0.04104882 0.845241 0.04104882 0.816201 0.4610978 0.8162027 0.04104882 0.8162027 0.04104882 0.8452265 0.4610978 0.816201 0.04104882 0.816201 0.04104882 0.7767799 0.4610978 0.722854 0.4610978 0.7773731 0.4610977 0.8183128 0 0 0 0 0 0 0.4610977 0.8183128 0.4610978 0.7773731 0.4610978 0.7773749 0.4610978 0.7773749 0.4610978 0.7773731 0.4610978 0.7773731 0.4610978 0.722854 0.4610978 0.7773731 0.4610978 0.7773749 0 0 0 0 0 0 0.4610978 0.722854 0.4610978 0.7773731 0.4610977 0.8183128 0 0 0 0 0 0 0.04104882 0.7773731 0.04104882 0.8183272 0.04104882 0.722854 0.04104882 0.722854 0.04104882 0.8183272 0.04104882 0.722854 0.04104882 0.7773731 0.04104882 0.7773731 0.04104882 0.722854 0.04104882 0.722854 0.04104882 0.7773731 0.04104882 0.722854 0.04104882 0.7773731 0.04104882 0.722854 0.04104882 0.8183272 0.04104882 0.722854 0.04104882 0.722854 0.04104882 0.8183272 0.04104882 0.7773731 0.04104882 0.722854 0.04104882 0.7773731 0.04104882 0.722854 0.04104882 0.7773731 0.04104882 0.722854 0.04104882 0.816201 0.04104882 0.845241 0.04104882 0.7767799 0.04104882 0.7767799 0.04104882 0.845241 0.04104882 0.8452265 0.4610977 0.8452265 0.04104882 0.8452265 0 0 0 0 0.04104882 0.8452265 0.04104882 0.845241 0.4610978 0.7767799 0.4610977 0.8452265 0.4610978 0.816201 0.4610978 0.816201 0.4610977 0.8452265 0 0 0.4610978 0.7767799 0.4610977 0.8452265 0.4610978 0.816201 0.4610978 0.816201 0.4610977 0.8452265 0.4610978 0.845241 0 0 0.04104882 0.8452265 0.04104882 0.8162027 0.04104882 0.816201 0 0 0.04104882 0.7767799 0.04104882 0.845241 0.4610978 0.845241 0.4610977 0.8452265 0.4610977 0.8452265 0.04104882 0.8452265 0.04104882 0.845241 0.04104882 0.7767799 0.04104882 0.816201 0.04104882 0.8452265 0.04104882 0.816201 0.04104882 0.845241 0.04104882 0.8452265 0.4610977 0.8452265 0.04104882 0.8452265 0 0 0 0 0.04104882 0.8452265 0.04104882 0.845241 0.4610977 0.8452265 0 0 0.4610978 0.8162027 0 0 0.4610978 0.816201 0.4610978 0.8162027 0.4610978 0.845241 0.4610978 0.816201 0.4610978 0.7767799 0.4610978 0.7767799 0.4610977 0.8452265 0.4610978 0.845241 0.04104882 0.845241 0.4610978 0.845241 0 0 0 0 0.4610978 0.845241 0.4610977 0.8452265 0.04104882 0.845241 0 0 0.04104882 0.816201 0.04104882 0.7767799 0.04104882 0.816201 0 0</float_array>
          <technique_common>
            <accessor source="#WorkCell_001-mesh-map-0-array" count="1356" stride="2">
              <param name="S" type="float"/>
              <param name="T" type="float"/>
            </accessor>
          </technique_common>
        </source>
        <vertices id="WorkCell_001-mesh-vertices">
          <input semantic="POSITION" source="#WorkCell_001-mesh-positions"/>
        </vertices>
        <triangles material="Conveyor-material" count="452">
          <input semantic="VERTEX" source="#WorkCell_001-mesh-vertices" offset="0"/>
          <input semantic="NORMAL" source="#WorkCell_001-mesh-normals" offset="1"/>
          <input semantic="TEXCOORD" source="#WorkCell_001-mesh-map-0" offset="2" set="0"/>
          <p>3 0 0 1 1 1 0 2 2 2 3 3 4 3 4 1 3 5 7 4 6 2 5 7 3 0 8 2 6 9 8 6 10 5 6 11 10 7 12 6 8 13 7 4 14 9 9 15 8 9 16 6 9 17 13 10 18 9 11 19 10 7 20 9 12 21 14 12 22 11 12 23 16 13 24 12 14 25 13 10 26 15 6 27 14 6 28 12 6 29 19 15 30 15 16 31 16 13 32 15 17 33 20 17 34 17 17 35 56 18 36 18 18 37 19 18 38 55 19 39 20 19 40 18 19 41 1 20 42 51 20 43 0 20 44 59 21 45 1 21 46 4 21 47 24 6 48 22 6 49 21 6 50 23 6 51 25 6 52 22 6 53 25 6 54 26 6 55 27 6 56 21 22 57 60 22 58 24 22 59 5 23 60 24 23 61 4 23 62 24 24 63 59 24 64 4 24 65 49 25 66 20 25 67 57 25 68 21 26 69 17 26 70 20 26 71 22 27 72 14 27 73 17 27 74 25 28 75 11 28 76 14 28 77 27 29 78 8 29 79 11 29 80 26 30 81 5 30 82 8 30 83 29 31 84 3 0 85 0 2 86 31 32 87 28 32 88 29 32 89 28 33 90 7 4 91 3 0 92 28 32 93 33 32 94 32 32 95 32 34 96 10 7 97 7 4 98 33 32 99 34 32 100 32 32 101 34 35 102 13 10 103 10 7 104 34 32 105 37 32 106 36 32 107 36 36 108 16 13 109 13 10 110 37 32 111 38 32 112 36 32 113 38 37 114 19 15 115 16 13 116 38 32 117 41 32 118 40 32 119 40 18 120 56 18 121 19 18 122 41 32 123 50 32 124 40 32 125 0 20 126 62 20 127 29 20 128 29 32 129 52 32 130 31 32 131 42 32 132 44 32 133 43 32 134 47 32 135 44 32 136 45 32 137 47 32 138 48 32 139 46 32 140 53 32 141 42 32 142 43 32 143 31 38 144 44 38 145 30 38 146 52 20 147 43 20 148 31 20 149 41 18 150 54 18 151 61 18 152 39 39 153 42 39 154 41 39 155 37 40 156 45 40 157 39 40 158 35 41 159 47 41 160 37 41 161 33 42 162 48 42 163 35 42 164 30 43 165 46 43 166 33 43 167 49 44 168 72 44 169 60 44 170 57 45 171 63 45 172 49 45 173 61 32 174 64 32 175 50 32 176 51 20 177 157 20 178 62 20 179 62 32 180 148 32 181 52 32 182 53 32 183 156 32 184 54 32 185 52 20 186 66 20 187 53 20 188 55 18 189 68 18 190 67 18 191 55 46 192 69 46 193 57 46 194 58 20 195 65 20 196 51 20 197 59 47 198 70 47 199 58 47 200 60 48 201 71 48 202 59 48 203 50 18 204 68 18 205 56 18 206 54 49 207 73 49 208 61 49 209 79 7 210 76 7 211 74 7 212 75 50 213 81 50 214 78 50 215 74 51 216 77 51 217 75 51 218 81 52 219 79 52 220 78 52 221 85 7 222 83 7 223 82 7 224 89 50 225 87 50 226 86 50 227 88 32 228 82 32 229 87 32 230 83 6 231 89 6 232 86 6 233 91 53 234 94 53 235 90 53 236 92 50 237 97 50 238 93 50 239 90 54 240 96 54 241 92 54 242 99 7 243 102 7 244 98 7 245 100 50 246 105 50 247 101 50 248 98 18 249 104 18 250 100 18 251 108 55 252 130 56 253 127 57 254 109 6 255 110 6 256 108 6 257 110 58 258 134 59 259 130 56 260 111 6 261 112 6 262 110 6 263 112 60 264 137 50 265 134 59 266 113 61 267 114 61 268 112 61 269 114 62 270 140 63 271 137 50 272 114 64 273 117 64 274 116 64 275 116 65 276 143 66 277 140 63 278 116 6 279 119 6 280 118 6 281 118 67 282 146 68 283 143 66 284 118 6 285 107 6 286 106 6 287 67 18 288 68 18 289 106 18 290 107 69 291 67 69 292 106 69 293 127 70 294 70 70 295 108 70 296 108 71 297 71 71 298 109 71 299 123 6 300 121 6 301 122 6 302 124 6 303 120 6 304 123 6 305 124 6 306 125 6 307 126 6 308 72 72 309 122 72 310 121 72 311 109 73 312 120 73 313 111 73 314 71 20 315 121 20 316 109 20 317 107 74 318 63 74 319 69 74 320 119 75 321 122 75 322 107 75 323 117 76 324 123 76 325 119 76 326 115 77 327 124 77 328 117 77 329 113 78 330 125 78 331 115 78 332 111 79 333 126 79 334 113 79 335 130 56 336 128 80 337 127 57 338 129 32 339 131 32 340 128 32 341 134 59 342 129 81 343 130 56 344 133 82 345 132 82 346 129 82 347 137 50 348 133 83 349 134 59 350 136 84 351 135 84 352 133 84 353 140 63 354 136 85 355 137 50 356 136 86 357 141 86 358 138 86 359 143 66 360 139 87 361 140 63 362 139 32 363 144 32 364 141 32 365 146 68 366 142 88 367 143 66 368 142 89 369 147 89 370 144 89 371 146 90 372 64 90 373 145 90 374 64 91 375 147 91 376 145 91 377 157 92 378 127 92 379 128 92 380 148 91 381 128 91 382 131 91 383 152 32 384 150 32 385 149 32 386 150 32 387 154 32 388 153 32 389 153 32 390 154 32 391 155 32 392 149 93 393 66 93 394 152 93 395 151 94 396 131 94 397 132 94 398 131 95 399 66 95 400 148 95 401 156 96 402 147 96 403 73 96 404 149 97 405 144 97 406 147 97 407 150 98 408 141 98 409 144 98 410 153 99 411 138 99 412 141 99 413 155 100 414 135 100 415 138 100 416 154 101 417 132 101 418 135 101 419 159 102 420 165 103 421 158 104 422 160 88 423 166 105 424 159 102 425 161 106 426 167 67 427 160 88 428 161 106 429 169 62 430 168 107 431 163 108 432 169 62 433 162 85 434 164 109 435 170 110 436 163 108 437 160 32 438 164 32 439 162 32 440 205 111 441 206 111 442 201 111 443 173 112 444 177 11 445 172 35 446 182 113 447 178 14 448 173 112 449 174 114 450 185 115 451 183 116 452 175 117 453 179 118 454 174 114 455 176 119 456 180 120 457 175 117 458 172 35 459 181 121 460 176 119 461 182 122 462 173 122 463 172 122 464 213 123 465 207 123 466 208 123 467 158 124 468 183 124 469 164 124 470 165 103 471 182 113 472 158 104 473 164 109 474 185 115 475 171 125 476 200 126 477 207 126 478 213 126 479 165 6 480 187 6 481 186 6 482 167 6 483 187 6 484 166 6 485 168 127 486 188 127 487 167 127 488 168 128 489 190 128 490 189 128 491 170 129 492 190 129 493 169 129 494 171 130 495 191 130 496 170 130 497 185 131 498 192 131 499 171 131 500 185 6 501 194 6 502 193 6 503 179 6 504 195 6 505 194 6 506 180 6 507 196 6 508 195 6 509 177 6 510 196 6 511 181 6 512 177 132 513 198 132 514 197 132 515 184 6 516 198 6 517 178 6 518 184 6 519 186 6 520 199 6 521 186 133 522 201 134 523 200 135 524 187 136 525 202 137 526 201 134 527 189 138 528 202 137 529 188 139 530 190 140 531 203 141 532 189 138 533 190 140 534 205 142 535 204 143 536 192 144 537 205 142 538 191 145 539 193 146 540 206 147 541 192 144 542 193 146 543 208 148 544 207 149 545 195 150 546 208 148 547 194 151 548 196 152 549 209 153 550 195 150 551 196 152 552 211 154 553 210 155 554 198 156 555 211 154 556 197 157 557 199 158 558 212 159 559 198 156 560 199 158 561 200 135 562 213 160 563 215 7 564 217 7 565 214 7 566 219 50 567 221 50 568 218 50 569 214 161 570 220 161 571 219 161 572 221 162 573 215 162 574 218 162 575 223 7 576 225 7 577 222 7 578 227 50 579 229 50 580 226 50 581 228 32 582 222 32 583 229 32 584 225 6 585 227 6 586 226 6 587 231 163 588 233 163 589 230 163 590 235 50 591 237 50 592 234 50 593 230 164 594 236 164 595 235 164 596 239 7 597 241 7 598 238 7 599 243 50 600 245 50 601 242 50 602 238 18 603 244 18 604 243 18 605 3 0 606 2 5 607 1 1 608 2 165 609 5 165 610 4 165 611 7 4 612 6 8 613 2 5 614 2 6 615 6 6 616 8 6 617 10 7 618 9 11 619 6 8 620 9 166 621 11 166 622 8 166 623 13 10 624 12 14 625 9 11 626 9 167 627 12 167 628 14 167 629 16 13 630 15 16 631 12 14 632 15 6 633 17 6 634 14 6 635 19 15 636 18 168 637 15 16 638 15 6 639 18 6 640 20 6 641 56 169 642 55 169 643 18 169 644 55 170 645 57 170 646 20 170 647 1 171 648 58 171 649 51 171 650 59 172 651 58 172 652 1 172 653 24 6 654 23 6 655 22 6 656 23 6 657 26 6 658 25 6 659 21 173 660 49 173 661 60 173 662 5 174 663 23 174 664 24 174 665 24 20 666 60 20 667 59 20 668 49 175 669 21 175 670 20 175 671 21 176 672 22 176 673 17 176 674 22 177 675 25 177 676 14 177 677 25 28 678 27 28 679 11 28 680 27 29 681 26 29 682 8 29 683 26 30 684 23 30 685 5 30 686 29 31 687 28 33 688 3 0 689 31 32 690 30 32 691 28 32 692 28 33 693 32 34 694 7 4 695 28 178 696 30 178 697 33 178 698 32 34 699 34 35 700 10 7 701 33 179 702 35 179 703 34 179 704 34 35 705 36 36 706 13 10 707 34 180 708 35 180 709 37 180 710 36 36 711 38 37 712 16 13 713 37 32 714 39 32 715 38 32 716 38 37 717 40 181 718 19 15 719 38 32 720 39 32 721 41 32 722 40 18 723 50 18 724 56 18 725 41 32 726 61 32 727 50 32 728 0 182 729 51 182 730 62 182 731 29 32 732 62 32 733 52 32 734 42 32 735 45 32 736 44 32 737 47 32 738 46 32 739 44 32 740 53 32 741 54 32 742 42 32 743 31 183 744 43 183 745 44 183 746 52 20 747 53 20 748 43 20 749 41 18 750 42 18 751 54 18 752 39 184 753 45 184 754 42 184 755 37 185 756 47 185 757 45 185 758 35 186 759 48 186 760 47 186 761 33 187 762 46 187 763 48 187 764 30 188 765 44 188 766 46 188 767 49 189 768 63 189 769 72 189 770 57 190 771 69 190 772 63 190 773 61 32 774 73 32 775 64 32 776 51 20 777 65 20 778 157 20 779 62 32 780 157 32 781 148 32 782 53 32 783 66 32 784 156 32 785 52 20 786 148 20 787 66 20 788 55 191 789 56 191 790 68 191 791 55 192 792 67 192 793 69 192 794 58 20 795 70 20 796 65 20 797 59 193 798 71 193 799 70 193 800 60 194 801 72 194 802 71 194 803 50 195 804 64 195 805 68 195 806 54 18 807 156 18 808 73 18 809 79 7 810 80 7 811 76 7 812 75 50 813 77 50 814 81 50 815 74 196 816 76 196 817 77 196 818 81 197 819 80 197 820 79 197 821 85 7 822 84 7 823 83 7 824 89 50 825 88 50 826 87 50 827 88 32 828 85 32 829 82 32 830 83 6 831 84 6 832 89 6 833 91 7 834 95 7 835 94 7 836 92 50 837 96 50 838 97 50 839 90 198 840 94 198 841 96 198 842 99 7 843 103 7 844 102 7 845 100 50 846 104 50 847 105 50 848 98 18 849 102 18 850 104 18 851 108 55 852 110 58 853 130 56 854 109 6 855 111 6 856 110 6 857 110 58 858 112 60 859 134 59 860 111 6 861 113 6 862 112 6 863 112 60 864 114 62 865 137 50 866 113 6 867 115 6 868 114 6 869 114 62 870 116 65 871 140 63 872 114 199 873 115 199 874 117 199 875 116 65 876 118 67 877 143 66 878 116 200 879 117 200 880 119 200 881 118 67 882 106 201 883 146 68 884 118 202 885 119 202 886 107 202 887 146 18 888 106 18 889 68 18 890 107 203 891 69 203 892 67 203 893 65 204 894 70 204 895 127 204 896 108 205 897 70 205 898 71 205 899 123 6 900 120 6 901 121 6 902 124 6 903 126 6 904 120 6 905 72 206 906 63 206 907 122 206 908 109 207 909 121 207 910 120 207 911 71 208 912 72 208 913 121 208 914 107 209 915 122 209 916 63 209 917 119 210 918 123 210 919 122 210 920 117 211 921 124 211 922 123 211 923 115 212 924 125 212 925 124 212 926 113 213 927 126 213 928 125 213 929 111 214 930 120 214 931 126 214 932 130 56 933 129 81 934 128 80 935 129 215 936 132 215 937 131 215 938 134 59 939 133 83 940 129 81 941 133 32 942 135 32 943 132 32 944 137 50 945 136 85 946 133 83 947 136 216 948 138 216 949 135 216 950 140 63 951 139 87 952 136 85 953 136 217 954 139 217 955 141 217 956 143 66 957 142 88 958 139 87 959 139 218 960 142 218 961 144 218 962 146 68 963 145 219 964 142 88 965 142 32 966 145 32 967 147 32 968 146 220 969 68 220 970 64 220 971 64 221 972 73 221 973 147 221 974 157 222 975 65 222 976 127 222 977 148 223 978 157 223 979 128 223 980 152 32 981 151 32 982 150 32 983 150 32 984 151 32 985 154 32 986 149 224 987 156 224 988 66 224 989 151 225 990 152 225 991 131 225 992 131 226 993 152 226 994 66 226 995 156 18 996 149 18 997 147 18 998 149 227 999 150 227 1000 144 227 1001 150 228 1002 153 228 1003 141 228 1004 153 229 1005 155 229 1006 138 229 1007 155 100 1008 154 100 1009 135 100 1010 154 101 1011 151 101 1012 132 101 1013 159 102 1014 166 105 1015 165 103 1016 160 88 1017 167 67 1018 166 105 1019 161 106 1020 168 107 1021 167 67 1022 161 106 1023 162 85 1024 169 62 1025 163 108 1026 170 110 1027 169 62 1028 164 109 1029 171 125 1030 170 110 1031 158 32 1032 164 32 1033 160 32 1034 164 32 1035 163 32 1036 162 32 1037 158 230 1038 160 230 1039 159 230 1040 162 32 1041 161 32 1042 160 32 1043 206 231 1044 200 231 1045 201 231 1046 201 232 1047 202 232 1048 204 232 1049 202 233 1050 203 233 1051 204 233 1052 204 6 1053 205 6 1054 201 6 1055 173 112 1056 178 14 1057 177 11 1058 182 113 1059 184 234 1060 178 14 1061 174 114 1062 179 118 1063 185 115 1064 175 117 1065 180 120 1066 179 118 1067 176 119 1068 181 121 1069 180 120 1070 172 35 1071 177 11 1072 181 121 1073 172 32 1074 176 32 1075 175 32 1076 175 32 1077 174 32 1078 172 32 1079 174 32 1080 183 32 1081 172 32 1082 183 235 1083 182 235 1084 172 235 1085 210 6 1086 211 6 1087 209 6 1088 211 236 1089 212 236 1090 208 236 1091 209 6 1092 211 6 1093 208 6 1094 212 6 1095 213 6 1096 208 6 1097 158 237 1098 182 237 1099 183 237 1100 165 103 1101 184 234 1102 182 113 1103 164 109 1104 183 116 1105 185 115 1106 200 238 1107 206 238 1108 207 238 1109 165 6 1110 166 6 1111 187 6 1112 167 6 1113 188 6 1114 187 6 1115 168 239 1116 189 239 1117 188 239 1118 168 240 1119 169 240 1120 190 240 1121 170 6 1122 191 6 1123 190 6 1124 171 6 1125 192 6 1126 191 6 1127 185 241 1128 193 241 1129 192 241 1130 185 6 1131 179 6 1132 194 6 1133 179 242 1134 180 242 1135 195 242 1136 180 6 1137 181 6 1138 196 6 1139 177 243 1140 197 243 1141 196 243 1142 177 6 1143 178 6 1144 198 6 1145 184 6 1146 199 6 1147 198 6 1148 184 244 1149 165 244 1150 186 244 1151 186 133 1152 187 136 1153 201 134 1154 187 136 1155 188 139 1156 202 137 1157 189 138 1158 203 141 1159 202 137 1160 190 140 1161 204 143 1162 203 141 1163 190 140 1164 191 145 1165 205 142 1166 192 144 1167 206 147 1168 205 142 1169 193 146 1170 207 149 1171 206 147 1172 193 146 1173 194 151 1174 208 148 1175 195 150 1176 209 153 1177 208 148 1178 196 152 1179 210 155 1180 209 153 1181 196 152 1182 197 157 1183 211 154 1184 198 156 1185 212 159 1186 211 154 1187 199 158 1188 213 160 1189 212 159 1190 199 158 1191 186 133 1192 200 135 1193 215 7 1194 216 7 1195 217 7 1196 219 50 1197 220 50 1198 221 50 1199 214 245 1200 217 245 1201 220 245 1202 221 246 1203 216 246 1204 215 246 1205 223 7 1206 224 7 1207 225 7 1208 227 50 1209 228 50 1210 229 50 1211 228 32 1212 223 32 1213 222 32 1214 225 6 1215 224 6 1216 227 6 1217 231 7 1218 232 7 1219 233 7 1220 235 50 1221 236 50 1222 237 50 1223 230 247 1224 233 247 1225 236 247 1226 239 7 1227 240 7 1228 241 7 1229 243 50 1230 244 50 1231 245 50 1232 238 18 1233 241 18 1234 244 18 1235 87 20 1236 82 20 1237 86 20 1238 86 20 1239 82 20 1240 83 20 1241 78 20 1242 79 20 1243 75 20 1244 75 20 1245 79 20 1246 74 20 1247 218 20 1248 215 20 1249 219 20 1250 214 20 1251 219 20 1252 215 20 1253 229 20 1254 222 20 1255 226 20 1256 226 20 1257 222 20 1258 225 20 1259 217 18 1260 216 18 1261 220 18 1262 220 248 1263 216 248 1264 221 248 1265 224 18 1266 223 18 1267 227 18 1268 227 18 1269 223 18 1270 228 18 1271 85 18 1272 88 18 1273 84 18 1274 88 18 1275 89 18 1276 84 18 1277 80 18 1278 81 18 1279 76 18 1280 77 18 1281 76 18 1282 81 18 1283 241 32 1284 240 32 1285 244 32 1286 244 32 1287 240 32 1288 245 32 1289 242 20 1290 245 20 1291 239 20 1292 239 20 1293 245 20 1294 240 20 1295 243 6 1296 242 6 1297 238 6 1298 238 6 1299 242 6 1300 239 6 1301 235 6 1302 234 6 1303 230 6 1304 230 6 1305 234 6 1306 231 6 1307 232 32 1308 237 32 1309 236 32 1310 233 32 1311 232 32 1312 236 32 1313 232 20 1314 231 20 1315 234 20 1316 234 20 1317 237 20 1318 232 20 1319 104 32 1320 102 32 1321 105 32 1322 102 32 1323 103 32 1324 105 32 1325 101 20 1326 105 20 1327 99 20 1328 99 20 1329 105 20 1330 103 20 1331 101 6 1332 99 6 1333 100 6 1334 99 6 1335 98 6 1336 100 6 1337 91 6 1338 90 6 1339 92 6 1340 92 6 1341 93 6 1342 91 6 1343 95 20 1344 91 20 1345 97 20 1346 97 20 1347 91 20 1348 93 20 1349 95 32 1350 97 32 1351 94 32 1352 96 32 1353 94 32 1354 97 32 1355</p>
        </triangles>
      </mesh>
    </geometry>
  </library_geometries>
  <library_visual_scenes>
    <visual_scene id="Scene" name="Scene">
      <node id="WorkCell_001" name="WorkCell.001" type="NODE">
        <matrix sid="transform">0.001 0 0 0 0 0.001 0 0 0 0 0.001 0 0 0 0 1</matrix>
        <instance_geometry url="#WorkCell_001-mesh" name="WorkCell.001">
          <bind_material>
            <technique_common>
              <instance_material symbol="Conveyor-material" target="#Conveyor-material">
                <bind_vertex_input semantic="WorkCell_001-mesh-map-0" input_semantic="TEXCOORD" input_set="0"/>
              </instance_material>
            </technique_common>
          </bind_material>
        </instance_geometry>
      </node>
      <node id="Camera" name="Camera" type="NODE">
        <matrix sid="transform">0.6859207 -0.3240135 0.6515582 7.358891 0.7276763 0.3054208 -0.6141704 -6.925791 0 0.8953956 0.4452714 4.958309 0 0 0 1</matrix>
        <instance_camera url="#Camera-camera"/>
      </node>
      <node id="Light" name="Light" type="NODE">
        <matrix sid="transform">-0.2908646 -0.7711008 0.5663932 4.076245 0.9551712 -0.1998834 0.2183912 1.005454 -0.05518906 0.6045247 0.7946723 5.903862 0 0 0 1</matrix>
        <instance_light url="#Light-light"/>
      </node>
    </visual_scene>
  </library_visual_scenes>
  <scene>
    <instance_visual_scene url="#Scene"/>
  </scene>
</COLLADA>