<?xml version="1.0" encoding="utf-8"?>
<COLLADA xmlns="http://www.collada.org/2005/11/COLLADASchema" version="1.4.1">
  <asset>
    <contributor>
      <author>Blender User</author>
      <authoring_tool>Blender 2.76.0 commit date:2015-11-03, commit time:10:56, hash:f337fea</authoring_tool>
    </contributor>
    <created>2017-01-25T08:36:09</created>
    <modified>2017-01-25T08:36:09</modified>
    <unit name="meter" meter="1"/>
    <up_axis>Z_UP</up_axis>
  </asset>
  <library_images/>
  <library_geometries>
    <geometry id="Cube_055-mesh" name="Cube.055">
      <mesh>
        <source id="Cube_055-mesh-positions">
          <float_array id="Cube_055-mesh-positions-array" count="294">-5.390498 -3.159451 4.335709 -5.131055 -3.159452 4.723364 -4.747696 0.1151184 3.973011 -4.207737 -4.202557 -4.107459 -3.572567 -15.93323 0.3328294 -3.255137 -15.93313 1.717105 -4.747696 0.1151184 4.360666 -4.025427 -1.667534 -3.908868 -3.609987 -15.41183 -1.907782 2.175527 0.979489 4.335721 2.175527 0.979489 4.594158 2.43497 0.979489 4.335721 2.175527 0.979489 4.077284 -4.22881 0.3599301 3.973011 -2.436301 0.9790234 4.594158 2.43497 0.979489 4.594158 2.43497 0.979489 4.077284 -2.147961 -0.5711724 -2.29157 5.389847 -3.158521 4.335709 5.130404 -3.158522 4.723364 3.573146 -15.93263 0.3328285 4.191826 -4.201827 -4.107459 4.746496 0.1159673 3.973011 4.746496 0.1159673 4.360666 3.610446 -15.41123 1.907524 2.761527 -15.93273 -2.370693 3.998096 -1.666843 -3.908868 -0.2749592 -17.36355 0.5129311 -0.2749592 -17.36355 0.771368 -0.8219632 -17.36365 0.1568202 -0.56252 -17.36365 -0.1016167 0.7729173 -17.36355 0.2752532 0.7729173 -17.36355 0.5336901 -1.507083 -16.97515 1.506325 -0.6697213 -17.36365 -0.6692641 0.6705573 -17.36355 -0.6692641 -0.001338481 -4.085607 -5.339609 -3.925672 -6.318367 -4.621544 -0.002654075 -1.357083 -4.779024 3.925691 -6.317607 -4.621544 2.80568e-4 -15.93293 -3.579688 -0.3888844 -15.93293 -3.579688 -3.636262 -1.667534 -4.296523 3.608932 -1.666843 -4.296523 1.719023 -15.93273 -3.252538 2.175527 2.41783e-4 5.369468 4.741239 -3.158522 5.11102 2.175527 0.7346771 5.111032 -4.74189 -3.159452 5.11102 2.83237e-4 -15.93293 3.579439 2.656312 -15.41133 3.04209 2.564692 0.7346771 5.111032 -2.566023 0.7342115 5.111032 -1.718443 -15.93303 3.252289 -2.564695 -16.62385 -1.356816 -2.277345 -16.97515 0.2094323 -2.277345 -16.97515 0.4678693 -4.487034 -12.50712 4.489881 -5.131055 -3.159452 5.11102 -4.488253 -0.1296935 4.489885 -4.488253 0.3599302 4.231448 -4.488253 0.3599301 3.973011 -4.482072 0.0642026 1.901076 -3.765984 -1.912346 -4.038086 -4.207737 -4.202557 -4.495114 -2.785565 -15.16692 -2.783911 -2.436301 0.9790233 4.852595 -2.176858 0.9790233 4.852595 2.43497 0.979489 4.852595 2.694414 0.979489 4.594158 4.487053 0.360779 3.973011 4.480953 0.0650565 1.901076 2.00025 -1.227421 -4.326757 1.740807 -1.227421 -4.326757 -2.016581 -1.227791 -4.326757 4.487053 -0.1288446 4.489885 5.130404 -3.158522 5.11102 4.488272 -12.50632 4.489872 2.565364 -16.62335 1.356567 2.278104 -16.97485 0.2094312 2.278104 -16.97485 -0.04900568 2.786034 -15.16652 -2.783911 4.191826 -4.201827 -4.495114 3.738653 -1.911655 -4.038086 1.09664 -16.97495 2.075802 3.68065e-4 -16.97495 2.281712 -0.7359952 -16.97505 2.227382 -1.095887 -16.97505 -2.076062 -0.2091872 -16.97505 -2.275842 1.096632 -16.97495 -2.076062 -1.35533 -16.97505 -2.076062 -1.355328 -16.97505 2.075802 -3.765984 -1.422722 -4.038086 -4.488253 0.3599301 4.489885 1.356075 -16.97495 -2.076062 1.356083 -16.97495 2.075802 3.738653 -1.422031 -4.038086 4.487053 0.360779 4.489885</float_array>
          <technique_common>
            <accessor source="#Cube_055-mesh-positions-array" count="98" stride="3">
              <param name="X" type="float"/>
              <param name="Y" type="float"/>
              <param name="Z" type="float"/>
            </accessor>
          </technique_common>
        </source>
        <source id="Cube_055-mesh-normals">
          <float_array id="Cube_055-mesh-normals-array" count="549">-0.9541289 -0.2043561 0.2188074 -0.9362182 -0.0558359 -0.3469554 -0.6267959 -0.7791836 0 -0.5017204 -0.8157691 0.2877452 -0.8207561 0.1569288 0.5493021 -0.6863009 0.7273178 0 -0.9782259 0.2075431 0 -0.445823 0 0.8951212 -0.9756255 0.1771757 -0.129475 -0.3673236 0.09886664 -0.9248238 -0.6824896 0.7232747 -0.1052696 -0.7273309 0.6399452 -0.2479112 -0.9986176 -0.05237144 0.004490494 -0.7149735 -0.6834987 -0.1471132 -0.9916926 -0.1286309 0 -0.5225211 -0.6357408 -0.5681595 -0.03653496 0.7585408 -0.6506007 0 1 0 0 1 -2.2224e-7 -0.2888497 0.9573745 0 -1.00965e-4 1 1.00819e-4 0.3252839 0.8874425 0.3265523 0 0.967207 -0.2539898 0.2796046 0.9503673 -0.136467 0.1496554 0.9545611 -0.257714 -0.09194165 0.9800505 -0.176204 0.01284909 0.9896646 -0.1428254 -9.37041e-5 0.9516924 -0.3070535 -0.1559628 0.9370619 -0.3123953 0.9812405 0.1927878 0 0.330607 0.1421052 0.9330087 0.399174 0.8719454 0.2834984 0.1556237 0.5850397 -0.7959334 0.8097457 -0.2249926 0.5419321 0.6901415 -0.6917148 0.212686 0.997649 -0.06853175 0 0.4971408 -0.6555426 0.5684321 0.9458404 -0.1573601 -0.2839434 0.9635143 -0.1502692 -0.2214937 0.6269594 -0.779052 0 0.5432345 -0.8024083 -0.247057 0.9847722 0.08704763 -0.150488 0.9784144 0.1611605 -0.1293553 0.9809792 0.1941135 0 0.4458242 0 -0.8951206 0 -1 0 0.05297118 -0.9709033 0.2335399 0.2872303 -0.9336163 0.2141479 0 -0.8983945 -0.4391895 -0.1984403 -0.9640374 0.1767862 -0.01848417 -0.9674744 0.2522931 -4.56002e-5 -1 1.85127e-4 -6.18768e-6 -1 -4.08771e-6 -0.05631536 -0.9666197 -0.2499501 -0.3105623 -0.9380889 -0.1534289 -0.3308575 -0.9385767 -0.09801614 7.74979e-5 -1 -9.94412e-6 0.2445921 -0.9692637 -0.02650713 0.03909355 -0.9661413 -0.255035 0 -0.9639024 -0.266256 0 -0.1077315 -0.99418 -0.3730146 -0.2344934 -0.8977043 -0.1367416 -0.7829185 -0.6069105 0 -0.8219012 -0.5696302 -0.2242386 0.08181822 -0.9710937 -0.1559326 0.5164476 -0.8420018 -0.9395477 0.2315641 -0.2522465 -0.8937304 0 -0.4486047 0.1465306 0.1991455 -0.968953 0.9395613 0.2355107 -0.2485141 0 -0.06864142 -0.9976415 0.1943279 0.6615872 -0.7242507 0.1839586 -0.1798074 -0.9663481 0.1185851 -0.7735527 -0.6225381 0.9920374 -0.12545 0.01114702 0.6439058 -0.6603818 -0.3863691 0.2318993 -0.2001943 0.9519166 -0.5815361 -0.0382601 0.8126206 0.1167944 -0.7744051 0.6218166 0 -0.5257015 0.8506692 0.303044 0.1694183 0.9377964 0 0.7259848 0.6877107 0 0.2008395 0.9796242 0.3074638 0 0.9515599 -3.25698e-5 0.3319339 0.9433027 -0.3868317 0.2161673 0.8964558 0 0.7259848 0.6877108 -0.3285712 0.7624871 0.5573639 -0.1837839 -0.1840075 0.9655904 -0.1231127 -0.7524708 0.6470171 0 -0.06630241 0.9977996 -0.6444528 -0.6601752 0.3858103 -0.8056791 -0.2452225 0.5392098 -0.9976351 -0.06873321 0 -0.6293242 -0.763616 0.1443665 -0.4697048 -0.6512649 0.5960129 -0.9812725 0.1926251 0 -0.6862992 0.7273194 0 -0.3306519 0.1420508 0.933001 -0.6863019 0.7273169 0 -0.9855046 0.08248716 -0.1482452 -0.9819008 0.1893964 0 -0.9756702 0.1769617 -0.1294305 -0.445824 0 -0.8951207 -0.9869009 -0.101042 -0.1257668 -0.6290986 -0.7751259 -0.05843687 -0.6923329 -0.1743256 -0.7002041 -0.4463997 -0.6597871 -0.6044902 -1.00965e-4 1 0 -1.00965e-4 1 1.01819e-4 -0.2408539 0.9399604 -0.241793 -0.2888479 0.9573751 0 0.2407121 0.9400338 -0.2416491 0 0.967207 -0.2539893 0.2886683 0.9574291 0 0.1515867 0.9540756 -0.2583825 -0.09629076 0.9953534 0 0 0.9899672 -0.141298 0.0294727 0.9664113 -0.2553052 -0.2132801 0.9413732 -0.2613968 0.820738 0.1570671 0.5492896 0.9781888 0.2077182 0 0.6863 0.7273185 0 0.4458223 0 0.8951216 0.9885488 -0.1486775 0.02581292 0.6198917 -0.7801961 0.08383673 0.9636464 -0.05969101 -0.2604281 0.5107458 -0.679672 0.5264835 0.9867355 -0.1003429 -0.127611 0.991881 -0.1271697 0 0.6491703 -0.7352605 -0.1948592 0.1686518 -0.4720474 -0.8652906 0.9752492 0.1769212 -0.1326198 0.6824902 0.7232782 -0.1052413 0.3660066 0.1004495 -0.9251752 0.7275131 0.6386013 -0.2508248 0.04529792 -0.9694259 0.2411676 0.2500368 -0.9682363 0 0.3078848 -0.9358929 0.1712056 1.81319e-4 -1 0 -0.2500352 -0.9567809 0.1485025 -0.1851974 -0.9625107 0.1981795 -3.66464e-4 -1 2.71456e-4 1.06748e-4 -1 1.18314e-4 0.4517381 -0.8880623 -0.08531165 -0.2592268 -0.9646342 -0.04777449 0 -0.9639011 -0.2662609 3.37304e-5 -1 1.55305e-4 0.2500369 -0.9682364 0 -0.08690202 -0.9781351 -0.1889443 0.2791193 -0.9518327 -0.1269135 -0.09692424 -0.1462588 -0.9844868 -0.9912238 -0.1311541 -0.01655393 0 -0.7811492 -0.6243447 -0.4181698 -0.5983389 -0.6834652 -0.1456908 0.1990353 -0.9691023 -9.4619e-5 0.9613718 -0.2752533 0.05161643 0.06642478 -0.9964554 -0.1932571 0.6620299 -0.7241327 0.2247867 0.08315867 -0.970853 -0.05205696 0.06609207 -0.9964547 0.1561034 0.6102063 -0.7767111 0.8937304 0 -0.4486045 0.09690165 -0.1462332 -0.9844928 0.09374678 -0.7849988 -0.6123631 0.5284284 -0.2373327 -0.8151299 0 -0.7485281 -0.6631032 -0.03197216 -0.107275 0.9937152 0 -0.06630223 0.9977996 0.2712963 -0.6871252 0.6739861 0.5086718 0.1050913 -0.8545225 0 0.3319339 0.9433027 -7.33422e-5 0.7260216 0.687672 0.3867939 0.2162398 0.8964547 0.3284235 0.7624928 0.557443 -0.0500828 0.02798455 0.998353 0 0.2008351 0.9796251 -7.13373e-5 0.7260383 0.6876542 -0.3074834 0 0.9515535 0.01478469 -0.1136246 0.9934138 -0.04604035 -0.77892 0.625431 0.3527061 -0.05246406 0.9342622 -0.1537341 -0.7627677 0.6281332</float_array>
          <technique_common>
            <accessor source="#Cube_055-mesh-normals-array" count="183" stride="3">
              <param name="X" type="float"/>
              <param name="Y" type="float"/>
              <param name="Z" type="float"/>
            </accessor>
          </technique_common>
        </source>
        <vertices id="Cube_055-mesh-vertices">
          <input semantic="POSITION" source="#Cube_055-mesh-positions"/>
        </vertices>
        <polylist count="192">
          <input semantic="VERTEX" source="#Cube_055-mesh-vertices" offset="0"/>
          <input semantic="NORMAL" source="#Cube_055-mesh-normals" offset="1"/>
          <vcount>3 3 3 3 3 3 3 3 3 3 3 3 3 3 3 3 3 3 3 3 3 3 3 3 3 3 3 3 3 3 3 3 3 3 3 3 3 3 3 3 3 3 3 3 3 3 3 3 3 3 3 3 3 3 3 3 3 3 3 3 3 3 3 3 3 3 3 3 3 3 3 3 3 3 3 3 3 3 3 3 3 3 3 3 3 3 3 3 3 3 3 3 3 3 3 3 3 3 3 3 3 3 3 3 3 3 3 3 3 3 3 3 3 3 3 3 3 3 3 3 3 3 3 3 3 3 3 3 3 3 3 3 3 3 3 3 3 3 3 3 3 3 3 3 3 3 3 3 3 3 3 3 3 3 3 3 3 3 3 3 3 3 3 3 3 3 3 3 3 3 3 3 3 3 3 3 3 3 3 3 3 3 3 3 3 3 3 3 3 3 3 3 </vcount>
          <p>0 0 4 0 5 0 1 1 5 1 57 1 4 2 55 2 56 2 5 3 56 3 91 3 0 4 1 4 6 4 2 5 6 5 60 5 1 6 58 6 59 6 6 7 59 7 93 7 0 8 2 8 7 8 3 9 7 9 63 9 2 10 61 10 62 10 7 11 62 11 92 11 3 12 8 12 4 12 4 13 8 13 54 13 3 14 64 14 65 14 65 15 90 15 54 15 9 16 13 16 14 16 14 17 66 17 67 17 13 18 61 18 60 18 14 19 60 19 93 19 10 17 15 17 11 17 11 17 15 17 69 17 10 20 67 20 68 20 68 21 97 21 69 21 11 17 16 17 12 17 12 22 16 22 72 22 70 23 71 23 16 23 71 24 96 24 72 24 12 25 17 25 13 25 13 26 17 26 62 26 73 27 74 27 17 27 17 28 74 28 92 28 18 29 22 29 23 29 19 30 23 30 75 30 70 31 69 31 23 31 23 32 69 32 97 32 18 33 19 33 24 33 20 34 24 34 78 34 19 35 76 35 77 35 24 36 77 36 95 36 20 37 25 37 21 37 21 38 25 38 81 38 20 39 79 39 80 39 25 40 80 40 94 40 18 41 21 41 26 41 22 42 26 42 71 42 21 43 82 43 83 43 26 44 83 44 96 44 27 45 31 45 32 45 28 46 32 46 84 46 79 47 78 47 32 47 78 48 95 48 84 48 28 49 33 49 29 49 33 45 56 45 55 45 28 50 85 50 86 50 33 51 86 51 91 51 29 52 34 52 30 52 34 53 87 53 88 53 55 54 54 54 34 54 34 55 54 55 90 55 30 56 35 56 31 56 31 57 35 57 80 57 88 58 89 58 35 58 35 59 89 59 94 59 40 60 41 60 37 60 37 61 41 61 65 61 88 62 87 62 41 62 41 63 87 63 90 63 36 64 37 64 42 64 38 65 42 65 74 65 64 66 63 66 42 66 42 67 63 67 92 67 36 68 38 68 43 68 43 69 83 69 82 69 73 70 72 70 43 70 43 71 72 71 96 71 39 72 44 72 40 72 40 73 44 73 89 73 39 74 82 74 81 74 44 75 81 75 94 75 49 76 50 76 46 76 46 77 50 77 77 77 49 78 85 78 84 78 50 79 84 79 95 79 45 80 46 80 51 80 47 81 51 81 68 81 46 82 76 82 75 82 51 83 75 83 97 83 45 84 47 84 52 84 48 85 52 85 59 85 67 86 66 86 52 86 52 87 66 87 93 87 48 88 53 88 49 88 49 89 53 89 86 89 48 90 58 90 57 90 53 91 57 91 91 91 1 92 0 92 5 92 58 93 1 93 57 93 5 94 4 94 56 94 57 95 5 95 91 95 2 96 0 96 6 96 61 97 2 97 60 97 6 98 1 98 59 98 60 99 6 99 93 99 3 100 0 100 7 100 64 101 3 101 63 101 7 102 2 102 62 102 63 103 7 103 92 103 0 104 3 104 4 104 55 105 4 105 54 105 8 106 3 106 65 106 8 107 65 107 54 107 10 108 9 108 14 108 10 109 14 109 67 109 14 110 13 110 60 110 66 111 14 111 93 111 9 17 10 17 11 17 70 112 11 112 69 112 15 17 10 17 68 17 15 17 68 17 69 17 9 17 11 17 12 17 73 113 12 113 72 113 11 114 70 114 16 114 16 115 71 115 72 115 9 116 12 116 13 116 61 117 13 117 62 117 12 118 73 118 17 118 62 119 17 119 92 119 19 120 18 120 23 120 76 121 19 121 75 121 22 122 70 122 23 122 75 123 23 123 97 123 20 124 18 124 24 124 79 125 20 125 78 125 24 126 19 126 77 126 78 127 24 127 95 127 18 128 20 128 21 128 82 129 21 129 81 129 25 130 20 130 80 130 81 131 25 131 94 131 22 132 18 132 26 132 70 133 22 133 71 133 26 134 21 134 83 134 71 135 26 135 96 135 28 45 27 45 32 45 85 136 28 136 84 136 31 137 79 137 32 137 32 138 78 138 84 138 27 139 28 139 29 139 29 140 33 140 55 140 33 141 28 141 86 141 56 142 33 142 91 142 27 143 29 143 30 143 30 144 34 144 88 144 29 145 55 145 34 145 87 146 34 146 90 146 27 147 30 147 31 147 79 148 31 148 80 148 30 149 88 149 35 149 80 150 35 150 94 150 36 151 40 151 37 151 64 152 37 152 65 152 40 153 88 153 41 153 65 154 41 154 90 154 38 155 36 155 42 155 73 156 38 156 74 156 37 157 64 157 42 157 74 158 42 158 92 158 39 159 36 159 43 159 39 160 43 160 82 160 38 161 73 161 43 161 83 162 43 162 96 162 36 163 39 163 40 163 88 164 40 164 89 164 44 165 39 165 81 165 89 166 44 166 94 166 45 167 49 167 46 167 76 168 46 168 77 168 50 169 49 169 84 169 77 170 50 170 95 170 47 171 45 171 51 171 67 172 47 172 68 172 51 173 46 173 75 173 68 174 51 174 97 174 48 175 45 175 52 175 58 176 48 176 59 176 47 177 67 177 52 177 59 178 52 178 93 178 45 179 48 179 49 179 85 180 49 180 86 180 53 181 48 181 57 181 86 182 53 182 91 182</p>
        </polylist>
      </mesh>
    </geometry>
  </library_geometries>
  <library_controllers/>
  <library_visual_scenes>
    <visual_scene id="Scene" name="Scene">
      <node id="COL_VIZ_RightFingerJoint52y_link_0" name="COL_VIZ_RightFingerJoint52y_link_0" type="NODE">
        <instance_geometry url="#Cube_055-mesh" name="COL_VIZ_RightFingerJoint52y_link_0"/>
      </node>
    </visual_scene>
  </library_visual_scenes>
  <scene>
    <instance_visual_scene url="#Scene"/>
  </scene>
</COLLADA>