<?xml version="1.0" encoding="utf-8"?>
<COLLADA xmlns="http://www.collada.org/2005/11/COLLADASchema" version="1.4.1">
  <asset>
    <contributor>
      <author>Blender User</author>
      <authoring_tool>Blender 2.76.0 commit date:2015-11-03, commit time:10:56, hash:f337fea</authoring_tool>
    </contributor>
    <created>2017-01-25T08:36:09</created>
    <modified>2017-01-25T08:36:09</modified>
    <unit name="meter" meter="1"/>
    <up_axis>Z_UP</up_axis>
  </asset>
  <library_images/>
  <library_geometries>
    <geometry id="Cube_053-mesh" name="Cube.053">
      <mesh>
        <source id="Cube_053-mesh-positions">
          <float_array id="Cube_053-mesh-positions-array" count="294">-13.73516 -28.84099 -7.87197e-5 -13.36167 -29.46929 2.397898 -13.19608 -27.11761 -0.4056857 -13.36167 -29.46929 -2.398058 -13.20747 -32.43107 -8.0259e-5 -12.85106 -31.70173 2.132802 -12.85137 -27.84695 2.132802 -12.85137 -27.84695 -2.132962 -12.85106 -31.70173 -2.132962 -8.661225 -24.81632 -0.5999249 -8.161394 -25.60472 2.87399 -6.166273 -25.60452 -1.170342 -8.535303 -25.60472 -2.941556 -11.70249 -25.60502 -0.6670461 -11.30264 -26.32101 2.474193 -6.28671 -25.84542 1.531525 -6.286721 -25.84542 -1.531681 -11.30264 -26.32101 -2.47434 -3.822962 -29.46849 -8.09089e-5 -4.381092 -28.84019 2.351418 -4.459941 -32.43037 0.4055258 -4.381102 -28.84019 -2.351588 -4.876602 -26.56141 -7.95549e-5 -4.804978 -27.84625 2.132802 -5.087518 -32.30993 1.980931 -4.804648 -31.70103 -2.132962 -5.087988 -27.23735 -1.981091 -8.210842 -34.73166 0.07340282 -7.935951 -34.31756 2.142997 -11.70179 -33.94346 0.6668932 -8.534624 -33.94316 -2.941569 -5.953603 -33.94296 0.6668861 -6.074051 -33.70206 1.028225 -10.93434 -33.70246 2.106581 -10.93434 -33.70246 -2.106743 -7.79937 -33.70226 -2.753702 -7.735971 -29.46879 -4.880752 -11.17969 -28.84079 -4.447093 -8.020865 -26.56161 -3.859803 -6.430081 -29.46869 -4.533673 -8.422194 -32.43067 -4.367923 -11.83124 -31.70163 -3.364811 -10.96104 -27.84675 -4.023289 -6.05136 -27.23745 -3.138309 -6.846779 -32.31013 -3.740341 -7.735961 -29.46879 4.880592 -7.25417 -29.46879 4.880592 -8.422654 -27.11721 4.367763 -11.22609 -29.46909 4.533513 -8.422182 -32.43067 4.367763 -8.060838 -32.31023 4.12687 -6.695308 -27.84645 4.023121 -10.80924 -27.23785 3.740182 -11.83124 -31.70163 3.36465 -11.73068 -33.70256 -1.531683 -11.94268 -33.70256 0.6668933 -12.44658 -33.22746 1.168707 -12.19258 -31.70163 3.36465 -12.19258 -31.34029 3.36465 -12.19298 -27.84685 3.364651 -11.66398 -26.32101 2.474193 -12.44718 -26.32111 -0.8075272 -12.44718 -26.32111 -1.168866 -12.19298 -27.84685 -3.36481 -12.19298 -28.20819 -3.364811 -12.19258 -31.70163 -3.364811 -10.60644 -26.32091 3.362132 -8.422654 -26.87631 4.126871 -8.06131 -26.87631 4.126871 -5.466097 -26.32051 1.778015 -5.209478 -26.32051 -0.8075292 -5.209478 -26.32051 -1.168868 -6.354038 -26.32061 -2.83569 -7.658092 -25.84552 -2.90307 -10.80924 -26.87652 -3.740339 -5.463458 -27.84635 3.364651 -5.316968 -28.84029 3.511071 -5.463118 -31.70113 3.36465 -5.992116 -33.22696 2.474191 -5.127278 -33.22686 0.3547097 -5.992116 -33.22696 -2.474353 -5.463118 -31.70113 -3.364811 -5.316968 -28.84029 -3.511231 -5.316968 -28.47895 -3.511231 -7.049628 -33.22706 3.36213 -7.657412 -33.70216 2.90291 -10.3593 -33.70246 2.90291 -9.996526 -33.22726 -3.618911 -9.635183 -33.22726 -3.618911 -7.049628 -33.22706 -3.362291 -11.42249 -32.98657 -2.594799 -11.72519 -32.43098 2.897258 -11.72559 -27.11751 -2.897417 -11.72559 -27.11751 2.897258 -6.233012 -32.98608 -2.594799 -5.930442 -32.43048 2.897258 -6.233591 -26.56151 -2.594797 -5.930912 -27.11701 2.897258</float_array>
          <technique_common>
            <accessor source="#Cube_053-mesh-positions-array" count="98" stride="3">
              <param name="X" type="float"/>
              <param name="Y" type="float"/>
              <param name="Z" type="float"/>
            </accessor>
          </technique_common>
        </source>
        <source id="Cube_053-mesh-normals">
          <float_array id="Cube_053-mesh-normals-array" count="576">-0.967256 -0.1421725 0.2102449 -0.8819081 1.81945e-7 0.4714215 -0.7009685 -0.7125936 -0.02921986 -0.6842506 -0.5104755 0.520784 -0.9174389 0.3258773 0.228276 -0.7950026 0.5761767 0.1897137 -0.6373384 -7.33933e-5 0.7705842 -0.6663039 0.6551769 0.356065 -0.9327189 0.2255339 -0.2813715 -0.8819332 -1.82328e-7 -0.4713745 -0.7285394 0.6850039 0 -0.6843285 0.5103471 -0.5208076 -0.9684942 -0.2322024 -0.09000539 -0.7851439 -0.5339384 -0.3137816 -0.6373515 -7.27444e-5 -0.7705733 -0.6849226 -0.6299186 -0.3661744 -0.2484321 0.9370968 0.2452163 -0.2411126 0.9519283 0.1889376 -0.6995809 0.6947795 0.1669379 0 0.4690901 0.8831503 0.2508609 0.951183 0.1797767 0.4894806 0.8706599 0.04858106 0 0.7018477 0.7123271 0.4065396 0.7190814 0.5636023 0.1225175 0.8064532 -0.5784659 0.3375655 0.8786679 -0.3376275 0.5991393 0.8006448 0 0.4839634 0.7368095 -0.4721136 -0.2876365 0.9028897 -0.3194611 -0.4711443 0.7793901 -0.4130062 0.1348755 0.3427612 -0.92969 -0.6219258 0.598491 -0.5049919 0.9262853 0.3357217 0.1711335 0.8648707 0.1955742 0.4623303 0.5031892 0.8627319 0.04994344 0.6811851 0.4325202 0.5906888 0.9342416 -0.2201664 0.2805697 0.7549106 -0.5790002 0.308008 0.7761921 -0.07171303 0.626405 0.5891362 -0.6684288 0.4540061 0.9528307 -0.2317516 -0.195972 0.8798115 -0.06901568 -0.4702857 0.7912482 -0.5616307 -0.2418622 -0.054017 -0.4892598 -0.8704638 0.9013771 0.4209806 -0.1014636 0.9311717 0.3030039 -0.2027514 0.7781917 0 -0.6280269 0.6229446 0.5592287 -0.5469948 0.5474666 -0.6005048 0.582816 0.4813197 -0.7976089 0.3635264 0.5619929 -0.7947306 0.2292759 0.5849736 -0.4153288 0.6966404 -0.1986777 -0.9556046 0.2175942 -0.4875151 -0.7808761 0.3905913 8.56101e-5 -0.7771467 0.6293194 -0.6121517 -0.6556397 0.4420485 -0.2419747 -0.9585798 -0.1502431 -0.234264 -0.8764321 -0.4206983 -0.7054685 -0.705469 -0.06802761 -0.4239835 -0.6894674 -0.5872586 0.3616739 -0.8917277 -0.2720546 0.2794893 -0.9353913 -0.216631 0.077564 -0.6197047 -0.7809931 0.6223089 0.2517314 -0.7411903 -0.3243948 -0.2691758 -0.9068145 0 -0.3538351 -0.9353079 0 -0.6850205 -0.7285239 -0.545992 -0.5515765 -0.6305999 -0.04241394 0.3997165 -0.915657 -0.07361328 0.2898051 -0.9542506 -0.4713944 0 -0.8819225 -0.3561596 0.6551922 -0.6662383 0.4236265 0.3368188 -0.8408887 -0.4527639 0 -0.8916305 0.2916231 0.7094544 -0.6415844 0.9305199 0.3464226 -0.118845 0.2455381 -0.2939203 -0.9237543 0.3631219 -0.4226846 -0.8303495 0.6964915 -0.07212042 -0.7139315 0.4508501 -0.6418485 -0.6202941 0.594718 -0.2689606 0.7576085 0.3361363 -0.3294686 0.8823055 0.06643944 -0.7360889 0.6736164 0.6359382 -0.6618394 0.3969273 0 0.4672854 0.8841065 0.3301891 0.372155 0.8674538 0.4623 0.1955448 0.8648936 0.3560914 0.655197 0.6662701 -0.253942 0.3657997 0.8953793 -0.3921568 0.3723481 0.8411718 -0.2061884 0.4116088 0.8877301 -0.5853284 0.4163134 0.6957542 -0.3337633 -0.3646435 0.869274 -0.3388584 -0.4410696 0.8310431 0 -6.59819e-7 1 0 -0.5395492 0.8419541 -0.9684941 -0.232203 0.09000587 -0.8219258 -0.2488331 0.5123674 -0.8665511 -0.4097666 0.2849219 -0.6662247 -0.6551946 0.3561807 -0.9146622 0.3382094 0.2213767 -0.61813 0.7292437 0.2934606 -0.8312775 0.3340678 0.4442707 -0.6761662 0.3857144 0.6277131 -0.917439 0.325877 -0.2282763 -0.7877504 0.3325131 -0.5185407 -0.8262562 0.4406137 -0.3509424 -0.6663044 0.6551771 -0.3560637 -0.9672559 -0.1421734 -0.2102448 -0.689743 -0.7209932 -0.06650865 -0.8540006 -0.2495379 -0.4565237 -0.6512902 -0.5283693 -0.5446531 -0.2452692 0.9372009 0.2479872 -0.06662523 0.7071999 0.7038674 0 0.974994 0.2222316 -0.630918 0.5977458 0.4946134 0.3201456 0.9422568 0.09827941 0.5721362 0.8142703 0.09810262 0.5058242 0.6253126 0.5942442 0.2405506 0.7408522 0.6271152 0.2812817 0.9139332 -0.2925866 0.266002 0.9265273 -0.2660641 0.4837255 0.6451976 -0.5913795 0.9376701 0.3081422 -0.1606965 -0.2216407 0.8887959 -0.401145 -0.6931267 0.7208158 0 -0.2948599 0.8274059 -0.4779719 -0.601726 0.5997217 -0.5275034 0.9061054 0.4096584 0.105608 0.7042613 0.4253683 0.5683994 0.872108 0.431532 0.2306681 0.6661993 0.6552284 0.3561663 0.9152607 -0.1453834 0.3757149 0.7127474 -0.6183019 0.331201 0.9117096 -0.2224979 0.3453699 0.7065891 -0.3738409 0.6008118 0.9497177 -0.1611222 -0.2684699 0.7680385 -0.1610743 -0.6198162 0.7454151 -0.6069559 -0.2756103 0.7626149 -0.502268 -0.4076095 0.9188495 0.3330274 -0.2116799 0.586261 0.8101223 0 0.7596444 0.4447076 -0.4745267 0.6230401 0.5633134 -0.5426777 0.2906073 -0.9449368 0.1504727 0.1869146 -0.7958301 0.5759492 0.6536318 -0.5108079 0.5584271 0.2437855 -0.9253809 0.2902396 -0.172325 -0.9524466 0.251296 -0.7065199 -0.7065303 -0.04055529 -0.2005265 -0.9689273 0.1448066 -0.5345179 -0.6604197 0.5273865 -0.1764212 -0.9567589 -0.2312744 0 -0.6872898 -0.7263834 -0.07755875 -0.9911666 -0.1075798 -0.493605 -0.6939516 -0.5241997 0.379719 -0.8856672 -0.2672215 0.6029948 -0.7761628 -0.1843065 0.3596106 -0.8969204 -0.2573212 0.2881519 -0.8940132 -0.3430874 -0.1480461 -0.1353239 -0.9796785 -0.7300135 -8.32292e-5 -0.6834328 -0.3198703 -0.2316589 -0.918704 0 -0.5140268 -0.8577743 -0.08847647 0.3223139 -0.9424891 -0.1164053 0.8158158 -0.5664755 -0.5204759 0.4291985 -0.738169 -0.6873286 0.3003964 -0.661318 0.2240008 0.4891403 -0.8429505 0.4853139 0.4029029 -0.7759766 0.4342625 0.4083756 -0.8028982 0.7031741 0.5509549 -0.4494385 0.3750053 -0.2418326 -0.8949235 0.06695264 -0.7356883 -0.6740031 0.3705391 -0.2997872 -0.8791067 0.6873325 -0.4015885 -0.6052279 0 -0.2563941 0.9665724 0.5911241 -0.0713182 0.8034214 0.5673531 -0.05935072 0.8213331 0.3387464 -0.3536338 0.8718912 0.3023604 0.2865498 0.9091026 0 0.7071039 0.7071097 0.4978389 0.2649738 0.8257999 0.4576654 0.5715802 0.6810569 -0.09726828 0.1848641 0.9779388 -0.7705966 -8.81875e-5 0.6373232 -0.2164338 0.6903494 0.6903436 -0.4540614 0.6684683 0.5890489 -0.09785956 -0.1477305 0.9841744 8.33392e-5 -0.7551686 0.6555306 -0.3559175 -0.3559245 0.8640837 -0.4872377 -0.5202975 0.7013486</float_array>
          <technique_common>
            <accessor source="#Cube_053-mesh-normals-array" count="192" stride="3">
              <param name="X" type="float"/>
              <param name="Y" type="float"/>
              <param name="Z" type="float"/>
            </accessor>
          </technique_common>
        </source>
        <vertices id="Cube_053-mesh-vertices">
          <input semantic="POSITION" source="#Cube_053-mesh-positions"/>
        </vertices>
        <polylist count="192">
          <input semantic="VERTEX" source="#Cube_053-mesh-vertices" offset="0"/>
          <input semantic="NORMAL" source="#Cube_053-mesh-normals" offset="1"/>
          <vcount>3 3 3 3 3 3 3 3 3 3 3 3 3 3 3 3 3 3 3 3 3 3 3 3 3 3 3 3 3 3 3 3 3 3 3 3 3 3 3 3 3 3 3 3 3 3 3 3 3 3 3 3 3 3 3 3 3 3 3 3 3 3 3 3 3 3 3 3 3 3 3 3 3 3 3 3 3 3 3 3 3 3 3 3 3 3 3 3 3 3 3 3 3 3 3 3 3 3 3 3 3 3 3 3 3 3 3 3 3 3 3 3 3 3 3 3 3 3 3 3 3 3 3 3 3 3 3 3 3 3 3 3 3 3 3 3 3 3 3 3 3 3 3 3 3 3 3 3 3 3 3 3 3 3 3 3 3 3 3 3 3 3 3 3 3 3 3 3 3 3 3 3 3 3 3 3 3 3 3 3 3 3 3 3 3 3 3 3 3 3 3 3 </vcount>
          <p>0 0 4 0 5 0 5 1 57 1 58 1 4 2 55 2 56 2 5 3 56 3 91 3 0 4 1 4 6 4 6 5 60 5 61 5 1 6 58 6 59 6 6 7 59 7 93 7 0 8 2 8 7 8 7 9 63 9 64 9 2 10 61 10 62 10 7 11 62 11 92 11 0 12 3 12 8 12 4 13 8 13 54 13 3 14 64 14 65 14 8 15 65 15 90 15 9 16 13 16 14 16 10 17 14 17 66 17 13 18 61 18 60 18 14 19 60 19 93 19 9 20 10 20 15 20 15 21 69 21 70 21 10 22 67 22 68 22 15 23 68 23 97 23 9 24 11 24 16 24 16 25 72 25 73 25 11 26 70 26 71 26 16 27 71 27 96 27 9 28 12 28 17 28 13 29 17 29 62 29 12 30 73 30 74 30 17 31 74 31 92 31 18 32 22 32 23 32 23 33 75 33 76 33 22 34 70 34 69 34 23 35 69 35 97 35 18 36 19 36 24 36 24 37 78 37 79 37 19 38 76 38 77 38 24 39 77 39 95 39 18 40 20 40 25 40 25 41 81 41 82 41 79 42 80 42 25 42 80 43 94 43 81 43 18 44 21 44 26 44 22 45 26 45 71 45 21 46 82 46 83 46 26 47 83 47 96 47 31 48 32 48 28 48 28 49 32 49 84 49 79 50 78 50 32 50 78 51 95 51 84 51 27 52 28 52 33 52 29 53 33 53 56 53 28 54 85 54 86 54 33 55 86 55 91 55 27 56 29 56 34 56 30 57 34 57 87 57 29 58 55 58 54 58 34 59 54 59 90 59 27 60 30 60 35 60 31 61 35 61 80 61 30 62 88 62 89 62 89 63 94 63 80 63 40 64 41 64 37 64 37 65 41 65 65 65 40 66 88 66 87 66 41 67 87 67 90 67 36 68 37 68 42 68 38 69 42 69 74 69 64 70 63 70 42 70 42 71 63 71 92 71 36 72 38 72 43 72 43 73 83 73 82 73 38 74 73 74 72 74 43 75 72 75 96 75 36 76 39 76 44 76 40 77 44 77 89 77 39 78 82 78 81 78 44 79 81 79 94 79 45 80 49 80 50 80 46 81 50 81 77 81 49 82 85 82 84 82 84 83 95 83 77 83 45 84 46 84 51 84 47 85 51 85 68 85 76 86 75 86 51 86 51 87 75 87 97 87 47 88 52 88 48 88 48 89 52 89 59 89 67 90 66 90 52 90 52 91 66 91 93 91 48 92 53 92 49 92 49 93 53 93 86 93 58 94 57 94 53 94 53 95 57 95 91 95 1 96 0 96 5 96 1 97 5 97 58 97 5 98 4 98 56 98 57 99 5 99 91 99 2 100 0 100 6 100 2 101 6 101 61 101 6 102 1 102 59 102 60 103 6 103 93 103 3 104 0 104 7 104 3 105 7 105 64 105 7 106 2 106 62 106 63 107 7 107 92 107 4 108 0 108 8 108 55 109 4 109 54 109 8 110 3 110 65 110 54 111 8 111 90 111 10 112 9 112 14 112 67 113 10 113 66 113 14 114 13 114 60 114 66 115 14 115 93 115 11 116 9 116 15 116 11 117 15 117 70 117 15 118 10 118 68 118 69 119 15 119 97 119 12 120 9 120 16 120 12 121 16 121 73 121 16 122 11 122 71 122 72 123 16 123 96 123 13 124 9 124 17 124 61 125 13 125 62 125 17 126 12 126 74 126 62 127 17 127 92 127 19 128 18 128 23 128 19 129 23 129 76 129 23 130 22 130 69 130 75 131 23 131 97 131 20 132 18 132 24 132 20 133 24 133 79 133 24 134 19 134 77 134 78 135 24 135 95 135 21 136 18 136 25 136 21 137 25 137 82 137 20 138 79 138 25 138 25 139 80 139 81 139 22 140 18 140 26 140 70 141 22 141 71 141 26 142 21 142 83 142 71 143 26 143 96 143 27 144 31 144 28 144 85 145 28 145 84 145 31 146 79 146 32 146 32 147 78 147 84 147 29 148 27 148 33 148 55 149 29 149 56 149 33 150 28 150 86 150 56 151 33 151 91 151 30 152 27 152 34 152 88 153 30 153 87 153 34 154 29 154 54 154 87 155 34 155 90 155 31 156 27 156 35 156 79 157 31 157 80 157 35 158 30 158 89 158 35 159 89 159 80 159 36 160 40 160 37 160 64 161 37 161 65 161 41 162 40 162 87 162 65 163 41 163 90 163 38 164 36 164 42 164 73 165 38 165 74 165 37 166 64 166 42 166 74 167 42 167 92 167 39 168 36 168 43 168 39 169 43 169 82 169 43 170 38 170 72 170 83 171 43 171 96 171 40 172 36 172 44 172 88 173 40 173 89 173 44 174 39 174 81 174 89 175 44 175 94 175 46 176 45 176 50 176 76 177 46 177 77 177 50 178 49 178 84 178 50 179 84 179 77 179 47 180 45 180 51 180 67 181 47 181 68 181 46 182 76 182 51 182 68 183 51 183 97 183 45 184 47 184 48 184 58 185 48 185 59 185 47 186 67 186 52 186 59 187 52 187 93 187 45 188 48 188 49 188 85 189 49 189 86 189 48 190 58 190 53 190 86 191 53 191 91 191</p>
        </polylist>
      </mesh>
    </geometry>
  </library_geometries>
  <library_controllers/>
  <library_visual_scenes>
    <visual_scene id="Scene" name="Scene">
      <node id="COL_VIZ_RightFingerJoint50y_link_0" name="COL_VIZ_RightFingerJoint50y_link_0" type="NODE">
        <instance_geometry url="#Cube_053-mesh" name="COL_VIZ_RightFingerJoint50y_link_0"/>
      </node>
    </visual_scene>
  </library_visual_scenes>
  <scene>
    <instance_visual_scene url="#Scene"/>
  </scene>
</COLLADA>