<?xml version="1.0" encoding="utf-8"?>
<COLLADA xmlns="http://www.collada.org/2005/11/COLLADASchema" version="1.4.1">
  <asset>
    <contributor>
      <author>Blender User</author>
      <authoring_tool>Blender 2.76.0 commit date:2015-11-03, commit time:10:56, hash:f337fea</authoring_tool>
    </contributor>
    <created>2017-01-25T08:36:06</created>
    <modified>2017-01-25T08:36:06</modified>
    <unit name="meter" meter="1"/>
    <up_axis>Z_UP</up_axis>
  </asset>
  <library_images/>
  <library_geometries>
    <geometry id="Cube_014-mesh" name="Cube.014">
      <mesh>
        <source id="Cube_014-mesh-positions">
          <float_array id="Cube_014-mesh-positions-array" count="294">-6.403108 -7.779375 4.105926 -6.403108 -7.779374 4.493579 -5.599838 -1.045672 3.743229 -5.231769 -10.15121 -4.337167 -2.470849 -33.26668 -0.5080954 -3.040269 -32.8922 0.9255166 -3.362309 0.3611208 4.364352 -5.599838 -1.045672 3.484793 -1.539775 -33.2668 -1.919571 -2.714629 0.3611208 4.105917 -2.714629 0.3611209 4.235135 2.879649 0.3605378 4.105917 2.717729 0.3605378 3.9767 -2.876549 0.3611208 4.105917 -2.876549 0.3611209 4.235135 2.879649 0.3605379 4.235135 2.879649 0.3605378 3.9767 -2.876549 0.3611208 3.9767 6.404668 -7.780545 4.105926 6.404668 -7.780544 4.493579 2.470049 -33.2671 -0.5080954 5.252139 -10.15211 -4.337167 5.602638 -1.046732 3.743229 5.602638 -1.046732 4.001664 3.039549 -32.8927 0.9255186 3.039549 -32.8927 -0.9253014 5.602638 -1.046732 3.484793 0.1485208 -33.52989 -1.249976 -4.27483e-4 -33.52989 1.383758 -0.1623476 -33.52989 1.254541 -4.27483e-4 -33.52989 1.125323 0.1614926 -33.52989 1.254541 0.1614926 -33.52989 1.383758 -0.1623476 -33.52989 1.383758 -0.1623476 -33.52989 1.125323 0.1614926 -33.52989 1.125323 0.001937329 -9.886624 -5.569353 -4.899768 -14.96141 -4.85124 -2.714629 0.3611208 3.589047 4.899788 -14.9624 -4.8513 -3.58025e-4 -32.8925 -2.984986 -0.3241983 -32.8925 -2.984986 -3.038469 0.3611208 3.589047 3.041569 0.3605378 3.589047 1.740269 -32.4174 -3.156296 0.001550257 -0.5979655 5.139657 5.918907 -7.780544 4.881231 -2.714629 0.3611209 4.622787 -5.917347 -7.779374 4.881231 -3.59404e-4 -32.8925 2.9852 0.3234809 -32.8925 2.9852 3.041569 0.3605379 4.622787 -3.038469 0.3611209 4.622787 -1.74089 -32.4171 3.15651 -1.745639 -31.93351 -1.745176 -1.254869 -32.57089 1.07543e-4 -1.745639 -31.93351 1.74539 -3.063469 -31.8615 2.93251 -6.079268 -7.779375 4.622797 -3.362309 0.3611209 4.622787 -2.714629 -0.5976746 4.105917 -2.714629 -0.5976746 4.105917 -2.714629 -0.5976746 4.105917 -5.592228 -1.718012 1.41283 -4.907929 -10.15121 -4.466384 -1.97792 -33.26668 -1.846597 -2.714629 -0.5976746 4.105917 -2.714629 0.3611209 4.364352 2.717729 -0.5982576 4.105917 2.717729 -0.5982576 4.105917 2.717729 -0.5982576 4.105917 2.717729 -0.5982576 4.105917 3.041569 1.319333 3.589047 2.717729 0.360538 3.847482 -3.038469 1.319916 3.589047 3.365409 0.3605379 4.622787 6.080828 -7.780545 4.622797 3.062969 -31.862 2.93251 1.744919 -31.93381 1.74539 1.254009 -32.5712 1.07645e-4 1.254009 -32.5712 1.07645e-4 3.062969 -31.862 -2.932296 4.928299 -10.15211 -4.466384 5.594878 -1.719072 1.41283 1.43146 -34.48878 1.111747 -4.27483e-4 -33.52989 1.512976 -0.3242678 -34.48868 1.771411 -1.43232 -34.48847 -1.111531 -1.10848 -33.52968 -0.8530954 1.539229 -34.48878 -0.8557379 -2.267559 -32.82039 -3.534305 -2.393319 -33.85109 2.26226 -5.599838 -0.08687692 3.226358 -4.952158 -2.004468 3.743229 2.267069 -32.82069 -3.534305 2.827599 -33.85149 1.687192 5.602638 -0.08793693 3.226358 4.954958 -2.005528 3.743229</float_array>
          <technique_common>
            <accessor source="#Cube_014-mesh-positions-array" count="98" stride="3">
              <param name="X" type="float"/>
              <param name="Y" type="float"/>
              <param name="Z" type="float"/>
            </accessor>
          </technique_common>
        </source>
        <source id="Cube_014-mesh-normals">
          <float_array id="Cube_014-mesh-normals-array" count="504">-0.9333958 -0.08070826 -0.349655 -0.988132 -0.1409842 0.06098049 0.3622614 -0.8380673 0.4079337 0.6823866 -0.3960835 -0.614383 -0.3481104 0.1447362 0.926213 0 0 1 -0.9485623 0.3165909 0 0.1122558 -0.4117038 0.9043775 -0.9929599 0.1184513 0 -0.9985824 -0.05159676 0.01307517 -0.2409556 0.2525851 0.9370919 -0.8199435 -0.1875271 -0.5408571 0.8334016 0.05677264 0.5497443 -0.3663846 -0.150506 -0.9182105 0.9665101 -0.1527054 -0.2062507 0 1 0 -0.6103618 -0.2061523 0.7648266 1.04213e-4 1 -6.59636e-7 0.9860382 -0.1665199 0 0.1739138 0.9847609 -1.67236e-7 -0.5748141 0.3882954 0.7202885 0.2504269 0.2123092 0.9445693 1.04213e-4 1 -1.31268e-4 -0.986038 -0.1665207 0 0.02141952 0.3778556 0.9256168 -0.2503672 0.2123227 0.9445821 0.9929816 0.1182689 0 0.3294745 0.1098957 0.9377471 -0.005040526 -0.2570734 0.9663788 0.9911407 -0.1328163 0 -0.3623329 -0.8380201 0.4079672 0.3683161 -0.1109467 0.9230569 0.9843766 -0.1610335 0.07121217 0.5594072 0.06949573 0.8259745 0.9938381 -0.1028848 -0.04123944 -0.1661202 -0.9858607 0.02197796 0.9814184 0.101894 -0.1625899 0.1536104 0.9881316 0 0.3152253 0.5258483 -0.7900105 0.9999938 -9.28795e-4 -0.003443956 0 -1 0 -0.5338423 -0.5172614 -0.6689194 0.701495 -0.7099748 0.06197345 0.2960914 0.1955398 -0.93493 -0.7015942 -0.7098775 0.06196469 0.574816 -0.3882957 -0.7202868 -0.3090856 -0.3111545 -0.898693 0.8865403 -0.185153 -0.4239867 -0.5715693 -0.8093934 -0.1348747 -0.9532256 -0.04268419 0.299231 -0.332552 -0.9186309 0.2133694 0.961472 0.0206623 0.2741255 0 -0.10352 -0.9946275 -0.5192931 -0.2185001 -0.8261916 0.9036868 -0.3653982 0.223236 0.9242131 0.3773184 -0.05883204 -0.5664223 0.4493468 -0.6908352 0 -2.48665e-7 -1 0.2118371 0.5704231 -0.7935633 -0.03530502 0.7429692 -0.668394 6.7484e-5 0.666375 -0.7456169 -0.2121424 0.5701119 -0.7937054 -0.6237563 0 -0.781619 -0.1402173 -1.9227e-7 -0.9901208 -0.07517522 -0.08288973 -0.9937193 0.1379638 -0.7420087 -0.6560406 0.8824458 -0.0427168 0.4684706 -0.1151697 0.5950713 -0.795378 0 -0.07528871 0.9971618 0.05172759 -0.08664363 0.9948956 -0.4128103 -0.7992225 0.4368422 0.0627247 -0.7410498 0.668514 0.142026 0.08151382 0.986501 4.80636e-5 0.4745111 -0.8802496 0.8154617 0.2719938 0.5109222 0.1123288 0.4116603 -0.9043883 0 0.4744117 0.8803032 0 0.0317319 0.9994965 -0.6103559 0.2061535 -0.7648311 -0.1122555 0.4117039 -0.9043776 0.08273881 -0.05562895 0.9950175 -0.08296406 -0.5924931 0.8012921 -0.8388295 -0.1419348 0.5255659 -0.3126315 -0.3961383 0.8633286 -0.991153 -0.1327243 0 -0.3683188 -0.1109127 0.9230599 0.3439269 -0.8660631 0.3628346 -0.9128063 -0.3674794 0.1781678 -0.9929599 0.1184507 0 0.07207745 0.304679 -0.949724 -0.3663282 0.1514137 0.9180836 0.8286508 0.5597658 0 -0.9810697 0.1018387 -0.1647157 -0.3153373 0.5253629 -0.7902888 -0.1534354 0.9881587 0 -0.999994 -9.10365e-4 -0.003377556 -0.9859896 -0.1341819 -0.09909528 0.5764809 -0.7018508 -0.4184199 0.1629634 0.1283405 0.9782494 -0.1633861 0.1031084 -0.9811593 0 1 -3.56096e-7 -0.9860382 -0.1665195 0 1.04212e-4 1 0 -1.39201e-5 -0.1335605 0.9910407 1.04212e-4 1 -1.3001e-4 0 1 3.56097e-7 0.986038 -0.166521 0 0.9860381 -0.1665202 1.77893e-6 1.04212e-4 1 6.59636e-7 -0.986038 -0.1665211 8.89465e-7 0.9929817 0.1182687 -3.62774e-7 0.3682999 0.1112948 0.9230216 0.1536106 0.9881315 0 -0.07203978 0.304656 -0.9497343 0.9333782 -0.0807892 -0.3496834 -0.3439816 -0.8660482 0.3628183 0.9881242 -0.1410673 0.06091499 -0.6750726 -0.3616142 -0.6430492 0.9861466 -0.1347219 -0.09677267 0.368858 -0.09701365 -0.9244092 -0.4797234 -0.2175181 -0.8500302 0.8166655 -0.5171879 -0.2560745 0.9929816 0.1182691 0 0.9987328 -0.04884785 0.01211047 0.2410185 0.2525808 0.9370769 0.6595715 -0.7516419 0 -0.02389919 0.2434033 -0.9696307 0 -1 -2.13972e-6 -0.6596897 -0.751538 0 -0.3464537 -0.1332658 -0.9285527 0 1 2.61022e-6 0 -1 -9.52645e-5 -0.6596894 -0.7515383 0 -0.8721522 0.01432734 0.4890249 0.6595712 -0.7516421 0 0 -1 -1.19081e-4 0.7726778 -0.1593232 0.6144796 -0.03000187 -0.1115797 -0.9933025 -0.8388162 -0.04483288 0.5425657 0 -0.9581196 -0.2863685 -0.3607378 -0.5937947 -0.7192191 0 0.666365 -0.7456257 0.04751497 0.01604831 -0.9987416 0.9672122 0.02188509 -0.2530254 0.140201 -2.88372e-7 -0.9901231 0.5667511 0.449176 -0.6906767 -0.9650475 0.02658277 -0.2607232 1.01281e-4 1 1.26383e-4 0.03544694 0.7429635 -0.6683927 0.02998429 -0.1115857 -0.9933024 -0.3099949 -0.8546244 -0.4165579 0.2197592 -0.1336191 -0.9663602 -0.7235 -0.4803868 -0.4957584 -0.03719335 -0.06651651 0.997092 0.8388215 -0.1420093 0.5255587 0 -0.9176869 0.3973043 0.2174002 -0.5362368 0.8155902 4.80643e-5 0.4745172 0.8802462 0.1739125 0.9847612 0 0 0.03172969 0.9994966 0 0.474524 -0.8802426 -0.1420024 0.08153849 0.9865023 -0.8154245 0.2721536 0.5108967 0 0.4745237 -0.8802428 0.03717589 -0.06652092 0.9970923 0.949746 -0.2872714 0.124329 -0.2081536 -0.1033716 0.9726184 0.03324753 -0.539704 0.8411982</float_array>
          <technique_common>
            <accessor source="#Cube_014-mesh-normals-array" count="168" stride="3">
              <param name="X" type="float"/>
              <param name="Y" type="float"/>
              <param name="Z" type="float"/>
            </accessor>
          </technique_common>
        </source>
        <vertices id="Cube_014-mesh-vertices">
          <input semantic="POSITION" source="#Cube_014-mesh-positions"/>
        </vertices>
        <polylist count="192">
          <input semantic="VERTEX" source="#Cube_014-mesh-vertices" offset="0"/>
          <input semantic="NORMAL" source="#Cube_014-mesh-normals" offset="1"/>
          <vcount>3 3 3 3 3 3 3 3 3 3 3 3 3 3 3 3 3 3 3 3 3 3 3 3 3 3 3 3 3 3 3 3 3 3 3 3 3 3 3 3 3 3 3 3 3 3 3 3 3 3 3 3 3 3 3 3 3 3 3 3 3 3 3 3 3 3 3 3 3 3 3 3 3 3 3 3 3 3 3 3 3 3 3 3 3 3 3 3 3 3 3 3 3 3 3 3 3 3 3 3 3 3 3 3 3 3 3 3 3 3 3 3 3 3 3 3 3 3 3 3 3 3 3 3 3 3 3 3 3 3 3 3 3 3 3 3 3 3 3 3 3 3 3 3 3 3 3 3 3 3 3 3 3 3 3 3 3 3 3 3 3 3 3 3 3 3 3 3 3 3 3 3 3 3 3 3 3 3 3 3 3 3 3 3 3 3 3 3 3 3 3 3 </vcount>
          <p>0 0 4 0 5 0 1 1 5 1 57 1 55 2 56 2 5 2 5 3 56 3 91 3 1 4 6 4 2 4 6 5 60 5 61 5 58 6 59 6 6 6 59 7 93 7 60 7 0 8 2 8 7 8 3 9 7 9 63 9 2 5 61 5 62 5 7 10 62 10 92 10 3 11 8 11 4 11 4 12 8 12 54 12 3 13 64 13 65 13 65 14 90 14 54 14 13 15 14 15 10 15 14 16 66 16 67 16 13 5 61 5 60 5 60 5 93 5 66 5 10 17 15 17 11 17 11 18 15 18 69 18 10 19 67 19 68 19 68 5 97 5 69 5 11 15 16 15 12 15 16 20 72 20 73 20 11 5 70 5 71 5 71 21 96 21 72 21 9 22 12 22 17 22 13 23 17 23 62 23 73 24 74 24 17 24 74 25 92 25 62 25 18 26 22 26 23 26 23 27 75 27 76 27 70 5 69 5 23 5 23 28 69 28 97 28 18 29 19 29 24 29 24 30 78 30 79 30 19 31 76 31 77 31 24 32 77 32 95 32 20 33 25 33 21 33 21 34 25 34 81 34 20 5 79 5 80 5 25 35 80 35 94 35 18 36 21 36 26 36 22 37 26 37 71 37 21 38 82 38 83 38 26 39 83 39 96 39 31 40 32 40 28 40 32 41 84 41 85 41 79 42 78 42 32 42 78 43 95 43 84 43 28 40 33 40 29 40 33 44 56 44 55 44 85 45 86 45 33 45 33 46 86 46 91 46 29 40 34 40 30 40 34 47 87 47 88 47 55 48 54 48 34 48 54 49 90 49 87 49 30 40 35 40 31 40 35 5 80 5 79 5 88 50 89 50 35 50 89 51 94 51 80 51 40 52 41 52 37 52 37 53 41 53 65 53 88 54 87 54 41 54 87 55 90 55 65 55 36 56 37 56 42 56 38 57 42 57 74 57 64 58 63 58 42 58 42 59 63 59 92 59 36 60 38 60 43 60 43 61 83 61 82 61 73 62 72 62 43 62 43 63 72 63 96 63 39 64 44 64 40 64 40 65 44 65 89 65 39 66 82 66 81 66 44 67 81 67 94 67 49 68 50 68 46 68 46 69 50 69 77 69 85 70 84 70 50 70 50 71 84 71 95 71 45 72 46 72 51 72 47 73 51 73 68 73 46 74 76 74 75 74 75 75 97 75 68 75 45 76 47 76 52 76 48 77 52 77 59 77 67 78 66 78 52 78 66 79 93 79 59 79 48 80 53 80 49 80 49 81 53 81 86 81 48 82 58 82 57 82 53 83 57 83 91 83 1 84 0 84 5 84 58 85 1 85 57 85 4 86 55 86 5 86 57 87 5 87 91 87 0 88 1 88 2 88 2 89 6 89 61 89 1 90 58 90 6 90 6 91 59 91 60 91 3 92 0 92 7 92 64 93 3 93 63 93 7 94 2 94 62 94 63 95 7 95 92 95 0 96 3 96 4 96 55 97 4 97 54 97 8 98 3 98 65 98 8 99 65 99 54 99 9 100 13 100 10 100 10 15 14 15 67 15 14 101 13 101 60 101 14 5 60 5 66 5 9 102 10 102 11 102 70 5 11 5 69 5 15 103 10 103 68 103 15 5 68 5 69 5 9 104 11 104 12 104 12 105 16 105 73 105 16 106 11 106 71 106 16 107 71 107 72 107 13 15 9 15 17 15 61 5 13 5 62 5 12 108 73 108 17 108 17 109 74 109 62 109 19 110 18 110 23 110 19 111 23 111 76 111 22 112 70 112 23 112 75 113 23 113 97 113 20 114 18 114 24 114 20 115 24 115 79 115 24 116 19 116 77 116 78 117 24 117 95 117 18 118 20 118 21 118 82 119 21 119 81 119 25 120 20 120 80 120 81 121 25 121 94 121 22 122 18 122 26 122 70 5 22 5 71 5 26 123 21 123 83 123 71 124 26 124 96 124 27 40 31 40 28 40 28 40 32 40 85 40 31 125 79 125 32 125 32 126 78 126 84 126 27 127 28 127 29 127 29 128 33 128 55 128 28 40 85 40 33 40 56 129 33 129 91 129 27 130 29 130 30 130 30 131 34 131 88 131 29 132 55 132 34 132 34 133 54 133 87 133 27 15 30 15 31 15 31 134 35 134 79 134 30 135 88 135 35 135 35 136 89 136 80 136 36 137 40 137 37 137 64 138 37 138 65 138 40 139 88 139 41 139 41 140 87 140 65 140 38 141 36 141 42 141 73 142 38 142 74 142 37 143 64 143 42 143 74 144 42 144 92 144 39 145 36 145 43 145 39 146 43 146 82 146 38 147 73 147 43 147 83 148 43 148 96 148 36 149 39 149 40 149 88 150 40 150 89 150 44 151 39 151 81 151 89 152 44 152 94 152 45 153 49 153 46 153 76 154 46 154 77 154 49 155 85 155 50 155 77 156 50 156 95 156 47 157 45 157 51 157 67 158 47 158 68 158 51 159 46 159 75 159 51 160 75 160 68 160 48 161 45 161 52 161 58 162 48 162 59 162 47 15 67 15 52 15 52 163 66 163 59 163 45 164 48 164 49 164 85 165 49 165 86 165 53 166 48 166 57 166 86 167 53 167 91 167</p>
        </polylist>
      </mesh>
    </geometry>
  </library_geometries>
  <library_controllers/>
  <library_visual_scenes>
    <visual_scene id="Scene" name="Scene">
      <node id="COL_VIZ_LeftFingerJoint31y_link_0" name="COL_VIZ_LeftFingerJoint31y_link_0" type="NODE">
        <instance_geometry url="#Cube_014-mesh" name="COL_VIZ_LeftFingerJoint31y_link_0"/>
      </node>
    </visual_scene>
  </library_visual_scenes>
  <scene>
    <instance_visual_scene url="#Scene"/>
  </scene>
</COLLADA>