<?xml version="1.0" encoding="utf-8"?>
<COLLADA xmlns="http://www.collada.org/2005/11/COLLADASchema" version="1.4.1">
  <asset>
    <contributor>
      <author>Blender User</author>
      <authoring_tool>Blender 2.78.0 commit date:2017-02-24, commit time:14:33, hash:e92f2352830</authoring_tool>
    </contributor>
    <created>2017-07-14T10:06:20</created>
    <modified>2017-07-14T10:06:20</modified>
    <unit name="meter" meter="1"/>
    <up_axis>Z_UP</up_axis>
  </asset>
  <library_images/>
  <library_effects/>
  <library_geometries>
    <geometry id="Arm_6_Link_003-mesh" name="Arm 6 Link.003">
      <mesh>
        <source id="Arm_6_Link_003-mesh-positions">
          <float_array id="Arm_6_Link_003-mesh-positions-array" count="1101">0.02128297 0.02456182 0.04743415 0.02308404 0.02267289 0.04743415 0.02565163 0.02268475 0.04619133 -0.007662117 -0.03158384 0.04743415 -0.009770989 -0.03085398 0.04743415 -0.009502351 -0.03286039 0.04621845 -0.03632819 -0.01965981 0.03999996 -0.0343995 -0.02261197 0.03999996 -0.03574758 -0.01722061 0.04161494 -0.02797627 -0.03039038 0.03999996 -0.02786231 -0.03047907 0.03999996 -0.02872782 -0.02791595 0.04125112 -0.02259266 -0.03458064 0.03999996 -0.02222895 -0.03477746 0.03999996 -0.02290815 -0.03286039 0.04125112 0.03632819 0.01965981 0.03999996 0.0343995 0.02261197 0.03999996 0.03574758 0.01722061 0.04161494 0.03259682 0.02537113 0.03999996 0.03027683 0.02789133 0.03999996 0.02872782 0.02791595 0.04125112 0.02786231 0.03047907 0.03999996 0.0248245 0.03284353 0.03999996 0.02290815 0.03286039 0.04125112 -0.04074335 0.006798863 0.03999996 -0.03727495 0.005819678 0.04339301 -0.03669971 0.01157963 0.04272335 -0.03574758 0.01722061 0.04161494 -0.03906863 0.01341223 0.03999996 -0.03953611 0.01156616 0.03999996 -0.0343995 0.02261197 0.03999996 -0.03632819 0.01965981 0.03999996 -0.03740835 0.01719737 0.03999996 -0.0313521 0.01722061 0.04501932 -0.03019499 0.02268475 0.0433579 -0.03027683 0.02789133 0.03999996 -0.03259682 0.02537113 0.03999996 -0.03436964 0.02265763 0.03999996 -0.02797627 0.03039038 0.03999996 -0.02872782 0.02791595 0.04125112 -0.02786231 0.03047907 0.03999996 -0.02440518 0.02791595 0.04394692 -0.0248245 0.03284353 0.03999996 -0.02259266 0.03458064 0.03999996 -0.02290815 0.03286039 0.04125112 -0.02222895 0.03477746 0.03999996 -0.01861536 0.03286039 0.0433579 -0.01726424 0.0374642 0.03999996 -0.01719319 0.03750264 0.03999996 -0.01720768 0.03746736 0.04007911 -0.01659274 0.03782761 0.03999996 -0.01306283 0.03746736 0.04161494 -0.01259738 0.03919923 0.03999996 -0.01014018 0.04004275 0.03999996 -0.008783757 0.03746736 0.04272335 -0.008247852 0.04035854 0.03999996 -0.004414558 0.03746736 0.04339301 -0.004074633 0.04105496 0.03999996 -0.003411054 0.04116564 0.03999996 0 0.03746736 0.04361701 0 0.04116564 0.03999996 0.003411054 0.04116564 0.03999996 0.004414558 0.03746736 0.04339301 0.004074633 0.04105496 0.03999996 0.008783757 0.03746736 0.04272335 0.008247852 0.04035854 0.03999996 0.01014018 0.04004275 0.03999996 0.01306283 0.03746736 0.04161494 0.01259738 0.03919923 0.03999996 0.02222895 0.03477746 0.03999996 0.01726424 0.0374642 0.03999996 0.01720768 0.03746736 0.04007911 0.01719319 0.03750264 0.03999996 0.01659274 0.03782761 0.03999996 0.03669971 0.01157963 0.04272335 0.03906863 0.01341223 0.03999996 0.03740835 0.01719737 0.03999996 0.03727495 -0.005819678 0.04339301 0.04130673 0 0.03999996 0.03746736 0 0.04361701 0.04082477 0.005816757 0.03999996 0.03727495 0.005819678 0.04339301 0.04074335 0.006798863 0.03999996 0.03953611 0.01156616 0.03999996 0.03669971 -0.01157963 0.04272335 0.04074335 -0.006798863 0.03999996 0.04082477 -0.005816757 0.03999996 0.03632819 -0.01965981 0.03999996 0.03740835 -0.01719737 0.03999996 0.03574758 -0.01722061 0.04161494 0.03906863 -0.01341223 0.03999996 0.03953611 -0.01156616 0.03999996 0.03259682 -0.02537113 0.03999996 0.03436964 -0.02265763 0.03999996 0.03019499 -0.02268475 0.0433579 0.0343995 -0.02261197 0.03999996 0.0313521 -0.01722061 0.04501932 0.03027683 -0.02789133 0.03999996 0.02872782 -0.02791595 0.04125112 0.02797627 -0.03039038 0.03999996 0.02786231 -0.03047907 0.03999996 0.0248245 -0.03284353 0.03999996 0.02440518 -0.02791595 0.04394692 0.02259266 -0.03458064 0.03999996 0.02290815 -0.03286039 0.04125112 0.02222895 -0.03477746 0.03999996 0.01861536 -0.03286039 0.0433579 0.01726424 -0.0374642 0.03999996 0.01719319 -0.03750264 0.03999996 0.01720768 -0.03746736 0.04007911 0.01659274 -0.03782761 0.03999996 0.01306283 -0.03746736 0.04161494 0.01259738 -0.03919923 0.03999996 0.01014018 -0.04004275 0.03999996 0.008783757 -0.03746736 0.04272335 0.008247852 -0.04035854 0.03999996 0.004414558 -0.03746736 0.04339301 0.004074633 -0.04105496 0.03999996 0.003411054 -0.04116564 0.03999996 0 -0.03746736 0.04361701 0 -0.04116564 0.03999996 -0.003411054 -0.04116564 0.03999996 -0.004414558 -0.03746736 0.04339301 -0.004074633 -0.04105496 0.03999996 -0.008783757 -0.03746736 0.04272335 -0.008247852 -0.04035854 0.03999996 -0.01014018 -0.04004275 0.03999996 -0.01306283 -0.03746736 0.04161494 -0.01259738 -0.03919923 0.03999996 -0.01720768 -0.03746736 0.04007911 -0.01719319 -0.03750264 0.03999996 -0.01659274 -0.03782761 0.03999996 -0.03019499 -0.02268475 0.0433579 -0.03259682 -0.02537113 0.03999996 -0.03027683 -0.02789133 0.03999996 -0.03669971 -0.01157963 0.04272335 -0.03906863 -0.01341223 0.03999996 -0.03740835 -0.01719737 0.03999996 -0.04082477 0.005816757 0.03999996 -0.04130673 0 0.03999996 -0.03746736 0 0.04361701 -0.04082477 -0.005816757 0.03999996 -0.03727495 -0.005819678 0.04339301 -0.04074335 -0.006798863 0.03999996 -0.03953611 -0.01156616 0.03999996 -0.03191268 -0.006150662 0.04743415 -0.03269165 -0.005819678 0.04694288 -0.03031963 -0.01157599 0.04743415 -0.03218716 -0.01157963 0.04621845 -0.03017193 -0.012079 0.04743415 -0.0275231 -0.01721698 0.04743415 -0.0313521 -0.01722061 0.04501932 -0.02734071 -0.01757079 0.04743415 -0.02636337 -0.01881361 0.04743415 -0.02565163 -0.02268475 0.04619133 -0.0235213 -0.02242755 0.04743415 -0.02322733 -0.0226823 0.04743415 -0.01413142 -0.03286039 0.04501932 -0.01350098 -0.029563 0.04743415 -0.01491141 -0.02874869 0.04743415 -0.01861536 -0.03286039 0.0433579 -0.01636141 -0.02791154 0.04743415 -0.01983189 -0.02791595 0.04619133 -0.01885181 -0.0264737 0.04743415 -0.02039325 -0.02513802 0.04743415 -0.004835844 -0.03199023 0.04743415 -0.004775702 -0.03286039 0.04694288 -0.001546382 -0.03246319 0.04743415 0 -0.03286039 0.04718518 0 -0.03238952 0.04743415 0.004625201 -0.03216916 0.04743415 0.004775702 -0.03286039 0.04694288 0.004827022 -0.03212022 0.04743415 0.009502351 -0.03286039 0.04621845 0.009762406 -0.03092288 0.04743415 0.01062965 -0.03071248 0.04743415 0.01413142 -0.03286039 0.04501932 0.01491099 -0.02875733 0.04743415 0.01624995 -0.02814579 0.04743415 0.01657485 -0.02791446 0.04743415 0.02038609 -0.02520048 0.04743415 0.01983189 -0.02791595 0.04619133 0.02128297 -0.02456182 0.04743415 0.02308404 -0.02267289 0.04743415 0.02565163 -0.02268475 0.04619133 0.02554672 -0.02009016 0.04743415 0.02635776 -0.01882815 0.04743415 0.03218716 -0.01157963 0.04621845 0.03021883 -0.0115658 0.04743415 0.02888715 -0.01489233 0.04743415 0.03286039 0 0.04718518 0.0323528 -0.003089308 0.04743415 0.03269165 -0.005819678 0.04694288 0.03182816 -0.005811333 0.04743415 0.03118348 -0.009156286 0.04743415 0.03269165 0.005819678 0.04694288 0.0323528 0.003089308 0.04743415 0.0323528 0 0.04743415 0.03218716 0.01157963 0.04621845 0.03118348 0.009156286 0.04743415 0.03182816 0.005811333 0.04743415 0.02635776 0.01882815 0.04743415 0.02740061 0.01720535 0.04743415 0.0313521 0.01722061 0.04501932 0.02888715 0.01489233 0.04743415 0.03021883 0.0115658 0.04743415 0.03019499 0.02268475 0.0433579 0.02554672 0.02009016 0.04743415 0.01624995 0.02814579 0.04743415 0.01657485 0.02791446 0.04743415 0.01983189 0.02791595 0.04619133 0.02038609 0.02520048 0.04743415 0.02440518 0.02791595 0.04394692 0.009762406 0.03092288 0.04743415 0.01062965 0.03071248 0.04743415 0.01413142 0.03286039 0.04501932 0.01491099 0.02875733 0.04743415 0.01861536 0.03286039 0.0433579 0.009502351 0.03286039 0.04621845 0.004775702 0.03286039 0.04694288 0.004827022 0.03212022 0.04743415 -0.004775702 0.03286039 0.04694288 -0.001546382 0.03246319 0.04743415 0 0.03286039 0.04718518 0 0.03238952 0.04743415 0.004625201 0.03216916 0.04743415 -0.009502351 0.03286039 0.04621845 -0.007662117 0.03158384 0.04743415 -0.004835844 0.03199023 0.04743415 -0.01413142 0.03286039 0.04501932 -0.01350098 0.029563 0.04743415 -0.009770989 0.03085398 0.04743415 -0.01636141 0.02791154 0.04743415 -0.01491141 0.02874869 0.04743415 -0.01885181 0.0264737 0.04743415 -0.01983189 0.02791595 0.04619133 -0.02039325 0.02513802 0.04743415 -0.02322733 0.0226823 0.04743415 -0.03218716 0.01157963 0.04621845 -0.03017193 0.012079 0.04743415 -0.0275231 0.01721698 0.04743415 -0.02734071 0.01757079 0.04743415 -0.02565163 0.02268475 0.04619133 -0.02636337 0.01881361 0.04743415 -0.0235213 0.02242755 0.04743415 -0.03194433 -0.005818784 0.04743415 -0.03249996 0 0.04743415 -0.03286039 0 0.04718518 -0.03194433 0.005818784 0.04743415 -0.03269165 0.005819678 0.04694288 -0.03191268 0.006150662 0.04743415 -0.03031963 0.01157599 0.04743415 -0.02440518 -0.02791595 0.04394692 -0.01726424 -0.0374642 0.03999996 -0.0248245 -0.03284353 0.03999996 0.02740061 -0.01720535 0.04743415 -0.03436964 -0.02265763 0.03999996 0.03436964 0.02265763 0.03999996 0.02797627 0.03039038 0.03999996 0.02259266 0.03458064 0.03999996 -0.02279758 0.02173745 0.08074998 -0.0235213 0.02242755 0.08074998 -0.02649945 0.01703017 0.08074998 -0.02734071 0.01757079 0.08074998 -0.02924358 0.01170736 0.08074998 -0.03017193 0.012079 0.08074998 -0.03093075 0.005961358 0.08074998 -0.03191268 0.006150662 0.08074998 -0.03149998 0 0.08074998 -0.03249996 0 0.08074998 -0.03093075 -0.005961358 0.08074998 -0.03191268 -0.006150662 0.08074998 -0.02924358 -0.01170736 0.08074998 -0.03017193 -0.012079 0.08074998 -0.02649945 -0.01703017 0.08074998 -0.02734071 -0.01757079 0.08074998 -0.02279758 -0.02173745 0.08074998 -0.0235213 -0.02242755 0.08074998 -0.01827174 -0.02565914 0.08074998 -0.01885181 -0.0264737 0.08074998 -0.01308554 -0.02865338 0.08074998 -0.01350098 -0.029563 0.08074998 -0.007426381 -0.03061205 0.08074998 -0.007662117 -0.03158384 0.08074998 -0.001498818 -0.03146427 0.08074998 -0.001546382 -0.03246319 0.08074998 0.004482865 -0.03117936 0.08074998 0.004625201 -0.03216916 0.08074998 0.0103026 -0.02976751 0.08074998 0.01062965 -0.03071248 0.08074998 0.01574999 -0.02727979 0.08074998 0.01624995 -0.02814579 0.08074998 0.02062809 -0.02380609 0.08074998 0.02128297 -0.02456182 0.08074998 0.02476066 -0.019472 0.08074998 0.02554672 -0.02009016 0.08074998 0.02799826 -0.01443409 0.08074998 0.02888715 -0.01489233 0.08074998 0.03022402 -0.008874535 0.08074998 0.03118348 -0.009156286 0.08074998 0.03135734 -0.002994239 0.08074998 0.0323528 -0.003089308 0.08074998 0.03149998 0 0.08074998 0.03249996 0 0.08074998 0.03135734 0.002994239 0.08074998 0.0323528 0.003089308 0.08074998 0.03022402 0.008874535 0.08074998 0.03118348 0.009156286 0.08074998 0.02799826 0.01443409 0.08074998 0.02888715 0.01489233 0.08074998 0.02476066 0.019472 0.08074998 0.02554672 0.02009016 0.08074998 0.02062809 0.02380609 0.08074998 0.02128297 0.02456182 0.08074998 0.01574999 0.02727979 0.08074998 0.01624995 0.02814579 0.08074998 0.0103026 0.02976751 0.08074998 0.01062965 0.03071248 0.08074998 0.004482865 0.03117936 0.08074998 0.004625201 0.03216916 0.08074998 -0.001498818 0.03146427 0.08074998 -0.001546382 0.03246319 0.08074998 -0.007426381 0.03061205 0.08074998 -0.007662117 0.03158384 0.08074998 -0.01308554 0.02865338 0.08074998 -0.01350098 0.029563 0.08074998 -0.01827174 0.02565914 0.08074998 -0.01885181 0.0264737 0.08074998 0.03249996 0 0.08074998 -0.03249996 0 0.04743415 0.03135734 0.002994239 0.08399999 0.03149998 0 0.08399999 0.03149998 0 0.08074998 0.03022402 0.008874535 0.08399999 0.02799826 0.01443409 0.08399999 0.02476066 0.019472 0.08399999 0.02062809 0.02380609 0.08399999 0.01574999 0.02727979 0.08399999 0.0103026 0.02976751 0.08399999 0.004482865 0.03117936 0.08399999 -0.001498818 0.03146427 0.08399999 -0.007426381 0.03061205 0.08399999 -0.01308554 0.02865338 0.08399999 -0.01827174 0.02565914 0.08399999 -0.02279758 0.02173745 0.08399999 -0.02649945 0.01703017 0.08399999 -0.02924358 0.01170736 0.08399999 -0.03093075 0.005961358 0.08399999 -0.03149998 0 0.08399999 -0.03093075 -0.005961358 0.08399999 -0.02924358 -0.01170736 0.08399999 -0.02649945 -0.01703017 0.08399999 -0.02279758 -0.02173745 0.08399999 -0.01827174 -0.02565914 0.08399999 -0.01308554 -0.02865338 0.08399999 -0.007426381 -0.03061205 0.08399999 -0.001498818 -0.03146427 0.08399999 0.004482865 -0.03117936 0.08399999 0.0103026 -0.02976751 0.08399999 0.01574999 -0.02727979 0.08399999 0.02062809 -0.02380609 0.08399999 0.02476066 -0.019472 0.08399999 0.02799826 -0.01443409 0.08399999 0.03022402 -0.008874535 0.08399999 0.03135734 -0.002994239 0.08399999 0.03149998 0 0.08399999 0.04130673 0 0.03999996</float_array>
          <technique_common>
            <accessor source="#Arm_6_Link_003-mesh-positions-array" count="367" stride="3">
              <param name="X" type="float"/>
              <param name="Y" type="float"/>
              <param name="Z" type="float"/>
            </accessor>
          </technique_common>
        </source>
        <source id="Arm_6_Link_003-mesh-normals">
          <float_array id="Arm_6_Link_003-mesh-normals-array" count="1878">0.4011219 0.3824681 0.8323577 -0.1824851 -0.5272563 0.8298796 -0.5556163 -0.3630008 0.7480114 -0.394792 -0.507257 0.7660481 -0.3218766 -0.5947993 0.7366202 0.5556163 0.3630008 0.7480114 0.547533 0.5040405 0.6679453 0.4497456 0.5778351 0.6810548 -0.6690633 0.1514096 0.727619 -0.6405087 0.2507387 0.7258642 -0.6825942 0.1728549 0.7100608 -0.6825943 0.1728562 0.7100604 -0.5556176 0.3630005 0.7480106 -0.6686121 0.2932793 0.6833338 -0.6686143 0.2932817 0.6833307 -0.58901 0.3466879 0.7299827 -0.5028409 0.4628977 0.7299841 -0.5813044 0.3797849 0.7196171 -0.5813072 0.3797299 0.7196438 -0.394792 0.507257 0.7660481 -0.4551827 0.5099878 0.7298776 -0.4234987 0.5441124 0.7242863 -0.3218766 0.5947993 0.7366202 -0.353815 0.5958735 0.7209367 -0.3341519 0.6174587 0.7121007 -0.4552865 0.8411896 0.2917438 -0.2714213 0.6242892 0.7325254 -0.2388755 0.6958193 0.6773287 -0.2388745 0.6958192 0.6773291 -0.187166 0.665498 0.722552 -0.1155323 0.6923424 0.7122601 -0.10933 0.6922236 0.7133538 -0.1148583 0.6883107 0.7162653 -0.114852 0.688311 0.716266 -0.03710496 0.681025 0.7313194 0 0.699207 0.7149193 0.03710496 0.681025 0.7313194 0.1148519 0.6883104 0.7162666 0.1098757 0.6884506 0.7169122 0.1155316 0.6923425 0.7122601 0.1155323 0.6923424 0.7122601 0.187166 0.665498 0.722552 0.2388768 0.6958184 0.677329 0.4552631 0.8411967 0.2917597 0.4552786 0.8411922 0.2917485 0.1413112 0.913567 0.3813486 0.2992919 0.5530412 0.777541 0.2388746 0.6958192 0.6773291 0.6405084 0.2507382 0.7258647 0.6686143 0.2932817 0.6833307 0.6686121 0.2932793 0.6833338 0.6848362 -0.05061799 0.7269369 0.6846103 0.05672866 0.7266985 0.690103 0.05060017 0.7219401 0.6898605 0.05715984 0.7216823 0.6690633 0.1514098 0.727619 0.6825943 0.1728562 0.7100604 0.6825942 0.1728549 0.7100608 0.6690633 -0.1514093 0.7276191 0.6898605 -0.05715984 0.7216823 0.6898605 -0.05716407 0.721682 0.6686126 -0.2932791 0.6833334 0.6686143 -0.2932817 0.6833307 0.6405087 -0.2507387 0.7258642 0.6825942 -0.1728549 0.7100608 0.6825943 -0.1728562 0.7100604 0.5813041 -0.379785 0.7196173 0.5813072 -0.3797299 0.7196438 0.58901 -0.3466883 0.7299826 0.5475322 -0.5040388 0.6679472 0.394792 -0.507257 0.7660481 0.4234986 -0.5441123 0.7242863 0.4551824 -0.5099875 0.7298779 0.4751644 -0.4401165 0.7619162 0.5686295 -0.439516 0.6953318 0.5028409 -0.4628977 0.7299841 0.3218766 -0.5947993 0.7366202 0.353815 -0.5958735 0.7209367 0.3341519 -0.6174587 0.7121007 0.4552865 -0.8411896 0.2917438 0.2714213 -0.6242892 0.7325254 0.2388755 -0.6958193 0.6773287 0.2388745 -0.6958192 0.6773291 0.187166 -0.665498 0.722552 0.1155323 -0.6923424 0.7122601 0.10933 -0.6922236 0.7133538 0.1148583 -0.6883107 0.7162653 0.114852 -0.688311 0.716266 0.03710496 -0.681025 0.7313194 0 -0.699207 0.7149193 -0.03710496 -0.681025 0.7313194 -0.1148519 -0.6883104 0.7162666 -0.1098757 -0.6884506 0.7169122 -0.1155316 -0.6923425 0.7122601 -0.1155323 -0.6923424 0.7122601 -0.187166 -0.665498 0.722552 -0.2388768 -0.6958184 0.677329 -0.1413112 -0.913567 0.3813486 -0.2992919 -0.5530412 0.777541 -0.2388746 -0.6958192 0.6773291 -0.5252032 -0.4405245 0.7280794 -0.5475322 -0.5040408 0.6679457 -0.5475324 -0.5040391 0.6679469 -0.6405084 -0.2507382 0.7258647 -0.6686143 -0.2932817 0.6833307 -0.6686121 -0.2932793 0.6833338 -0.6898604 0.05715984 0.7216824 -0.6898605 0.05716407 0.721682 -0.6848362 0.05061799 0.7269369 -0.6846103 -0.05672866 0.7266985 -0.690103 -0.05060017 0.7219401 -0.6898605 -0.05715984 0.7216823 -0.6690633 -0.1514098 0.727619 -0.6825943 -0.1728562 0.7100604 -0.6825942 -0.1728549 0.7100608 -0.5761598 -0.1691783 0.7996366 -0.5390614 -0.1514196 0.828544 -0.5384787 -0.1581081 0.827673 -0.5458342 -0.281399 0.7892273 -0.5162602 -0.2505121 0.8189744 -0.5141797 -0.2650779 0.8156918 -0.5057216 -0.3472207 0.7897364 -0.4733075 -0.3722131 0.7983968 -0.4410321 -0.3468324 0.8277669 -0.4033681 -0.4655066 0.7877804 -0.2131095 -0.5270089 0.8227065 -0.1923007 -0.5556147 0.8088961 -0.3029341 -0.5246972 0.795565 -0.2957459 -0.5248575 0.7981598 -0.3007853 -0.5209733 0.798821 -0.2856273 -0.5284277 0.7994881 -0.2907138 -0.5035273 0.8136005 -0.3818085 -0.4406278 0.8124467 -0.08869498 -0.6168904 0.7820355 -0.1317003 -0.4942306 0.8592969 -0.07103991 -0.4940984 0.8664989 -0.03912079 -0.6355662 0.7710546 0.02226281 -0.4672912 0.8838232 0.02225941 -0.4672918 0.8838229 0.04153561 -0.5727958 0.8186451 0.1344815 -0.5544311 0.8212923 0.1260568 -0.5546395 0.8224869 0.1308726 -0.5394662 0.8317744 0.1308797 -0.5394674 0.8317726 0.2074061 -0.5620387 0.8006842 0.2401462 -0.5258484 0.8159738 0.2401463 -0.5258494 0.8159731 0.2931234 -0.5369038 0.7910835 0.3573284 -0.5018014 0.7877259 0.3186345 -0.4474668 0.835611 0.3903652 -0.4636033 0.7954162 0.401119 -0.3824679 0.8323592 0.538625 -0.3461557 0.7681534 0.5074806 -0.2503821 0.824483 0.564397 -0.2259504 0.7939789 0.6694815 -0.05026763 0.7411261 0.4916 -0.09474945 0.8656512 0.4877553 -0.1508625 0.8598462 0.6323671 -0.1218764 0.7650216 0.5132342 -0.2054685 0.8332908 0.6694815 0.05026763 0.7411261 0.4403849 0 0.8978091 0.5926608 0.1514033 0.7910944 0.4916023 0.09474658 0.8656502 0.4916 0.09474945 0.8656512 0.4936251 0.3172329 0.8097516 0.4936251 0.3172342 0.809751 0.5461582 0.2507501 0.7992721 0.5132335 0.2054668 0.8332916 0.5132342 0.2054685 0.8332908 0.4964237 0.3470602 0.7956839 0.4962359 0.3472729 0.7957082 0.5386284 0.3461548 0.7681514 0.40112 0.3824679 0.8323588 0.3186336 0.4474602 0.8356149 0.3186405 0.4474655 0.8356093 0.3939357 0.4477685 0.8026942 0.1504657 0.6202172 0.7698642 0.2401461 0.5258481 0.8159741 0.2955798 0.5256317 0.7977117 0.2111062 0.5396898 0.8149657 0.1275663 0.5393815 0.8323427 0.1345043 0.554427 0.8212913 -0.03912091 0.6355677 0.7710535 0.0222612 0.4672929 0.8838223 0.04480677 0.4669424 0.8831518 0.02739793 0.5751292 0.8176037 0.1344789 0.5544307 0.8212929 -0.12277 0.5858785 0.8010457 -0.07104218 0.4940989 0.8664984 -0.07103991 0.4940984 0.8664989 -0.209191 0.551418 0.8075751 -0.1824836 0.5272546 0.829881 -0.1824865 0.527256 0.8298795 -0.2960771 0.5233091 0.7990531 -0.3029345 0.5246974 0.7955649 -0.3029341 0.5246972 0.795565 -0.3818087 0.4406281 0.8124464 -0.3955266 0.4404881 0.8059336 -0.3887807 0.4486784 0.804697 -0.5448458 0.2507465 0.8001683 -0.5141764 0.2650763 0.8156945 -0.5000325 0.3471279 0.7933914 -0.5697881 0.2937462 0.767499 -0.4944971 0.3560219 0.7929194 -0.441029 0.3468331 0.8277684 -0.441032 0.3468325 0.827767 -0.5485163 -0.05237567 0.8344979 -0.5485222 -0.05237817 0.8344939 -0.5676389 -0.05067002 0.8217169 -0.5675311 0.05419224 0.8215666 -0.5485769 0.0506531 0.8345643 -0.5485184 0.05237561 0.8344966 -0.5725188 0.1514856 0.8057757 -0.5384796 0.1581119 0.8276717 -0.5384789 0.1581081 0.8276728 0.4552921 -0.8411856 0.2917461 0.6912338 -0.5471642 0.4720248 0.2748268 -0.6118404 0.7417019 0.2748268 -0.6118412 0.7417013 0.198345 -0.6118407 0.765709 0.1983464 -0.6118405 0.7657088 0.1198281 -0.6118409 0.7818517 0.1198276 -0.6118408 0.7818519 0.04008024 -0.6118406 0.789965 0.04008078 -0.61184 0.7899655 -0.04008024 -0.6118405 0.7899651 -0.04008078 -0.6118401 0.7899655 -0.119827 -0.6118409 0.7818518 -0.1198285 -0.6118403 0.7818521 -0.1983449 -0.6118401 0.7657095 -0.1983464 -0.6118406 0.7657088 -0.2748259 -0.6118409 0.7417018 -0.2748278 -0.611841 0.741701 -0.4033709 -0.4655145 0.7877742 -0.3958275 -0.4401211 0.8059864 -0.3955266 -0.4404881 0.8059336 -0.3739671 -0.5286804 0.7620011 -0.3739675 -0.5286794 0.7620016 -0.353815 -0.5958732 0.720937 -0.3391472 -0.6120613 0.7143949 -0.4552685 -0.8411936 0.2917605 -0.4552786 -0.8411922 0.2917485 0.4497474 -0.5778332 0.6810552 0.4675099 -0.5280673 0.7089285 0.3739681 -0.5286802 0.7620008 0.3739665 -0.5286797 0.7620019 0.302356 -0.5288441 0.7930352 0.3186405 -0.4474654 0.8356093 -0.4963369 -0.3467594 0.7958692 -0.4751632 -0.4401158 0.7619174 -0.4751638 -0.4401167 0.7619165 -0.4551824 -0.5099875 0.7298779 -0.4378445 -0.5289348 0.726994 -0.4497448 -0.5778353 0.6810551 -0.4497485 -0.5778328 0.6810548 0.4936257 -0.3172342 0.8097507 0.493626 -0.317233 0.8097509 0.4964237 -0.3470602 0.7956839 0.4962359 -0.3472725 0.7957085 0.4751625 -0.4401161 0.7619176 0.3895968 -0.4399709 0.8090983 0.4387777 -0.4183734 0.7952597 -0.5704936 0.3632981 0.736581 -0.5928172 0.2504575 0.7654011 -0.5928155 0.2504571 0.7654026 -0.6052824 0.151304 0.7814989 -0.6052835 0.1513028 0.7814982 -0.6115472 0.05060678 0.7895879 -0.6115485 0.05060505 0.789587 -0.6115484 -0.05060654 0.7895869 -0.6115472 -0.05060529 0.789588 -0.6052835 -0.1513033 0.7814981 -0.6052823 -0.1513039 0.7814989 -0.5928176 -0.2504568 0.7654011 -0.5928151 -0.250458 0.7654026 -0.5704935 -0.3632981 0.7365811 -0.58901 -0.3466879 0.7299827 -0.5813072 -0.3797299 0.7196438 -0.5813044 -0.3797849 0.7196171 0.5813049 0.3797278 0.7196468 0.58901 0.3466879 0.7299828 0.5704936 0.3632981 0.736581 0.592815 0.250458 0.7654026 0.5928176 0.2504565 0.7654011 0.6052824 0.1513035 0.781499 0.6052834 0.1513032 0.7814982 0.6115472 0.05060547 0.789588 0.6115484 0.05060678 0.7895869 0.6115485 -0.05060529 0.789587 0.6115472 -0.05060702 0.7895879 0.6052835 -0.1513028 0.7814981 0.6052823 -0.1513039 0.7814989 0.5928155 -0.2504571 0.7654026 0.5928173 -0.2504574 0.7654012 0.5704935 -0.3632981 0.7365811 0.5556175 -0.3630005 0.7480107 -0.4033681 0.4655066 0.7877804 -0.4092211 0.4403704 0.7991322 -0.4751626 0.4401159 0.7619177 -0.4751644 0.4401168 0.761916 -0.5686295 0.439516 0.6953318 -0.5475322 0.5040388 0.6679472 0.5813038 0.3797851 0.7196174 0.5252032 0.4405245 0.7280794 0.4751632 0.4401163 0.7619172 0.4751638 0.4401167 0.7619165 0.4156279 0.4404553 0.7957717 0.3531851 0.495979 0.7932623 -0.2907128 0.5035275 0.8136008 -0.2856276 0.5284276 0.7994881 -0.3739665 0.5286797 0.7620019 -0.3739681 0.5286802 0.7620008 -0.4675095 0.5280671 0.7089288 -0.4497482 0.5778325 0.6810551 0.5475322 0.5040388 0.6679472 0.3947961 0.507256 0.7660466 0.4551823 0.5099875 0.729878 0.4378445 0.5289348 0.726994 0.3739671 0.5286806 0.762001 0.3739675 0.5286794 0.7620016 0.3082788 0.5289528 0.7906789 0.2541232 0.5564534 0.7910633 0.4497482 0.5778325 0.6810551 0.3218702 0.5948007 0.7366219 0.3538152 0.5958732 0.720937 0.3391472 0.6120613 0.7143949 0.2748277 0.6118406 0.7417014 0.2748259 0.6118412 0.7417015 0.1983464 0.6118406 0.7657088 0.1983449 0.6118401 0.7657095 0.1198286 0.6118409 0.7818516 0.119827 0.611841 0.7818518 0.04008078 0.6118401 0.7899655 0.04008024 0.6118405 0.7899651 -0.04008078 0.61184 0.7899655 -0.04008024 0.6118406 0.789965 -0.1198276 0.6118408 0.7818519 -0.1198281 0.6118404 0.7818521 -0.1983464 0.6118405 0.7657088 -0.198345 0.6118407 0.765709 -0.2748268 0.6118412 0.7417013 -0.2748268 0.6118405 0.7417018 -0.6912475 0.5471523 0.4720183 -0.4553101 0.8411875 0.2917128 0 0 1 -9.76406e-6 0 1 9.46364e-6 0 1 9.46364e-6 0 1 -9.76406e-6 0 1 -4.88207e-6 0 1 2.36591e-6 0 1 -9.46363e-6 0 1 9.76407e-6 0 1 -9.76408e-6 0 1 -4.88203e-6 0 1 2.3659e-6 0 1 9.76408e-6 0 1 -9.46362e-6 0 1 -0.9954721 -0.09505552 0 -0.9954726 -0.09504944 0 -0.9594928 -0.2817335 0 -0.9594931 -0.2817325 0 -0.9594963 -0.2817212 0 -0.8888353 -0.4582269 0 -0.8888356 -0.4582263 0 -0.786053 -0.6181592 0 -0.7860531 -0.6181592 0 -0.7860542 -0.6181578 0 -0.8888338 -0.4582298 0 -0.6548641 -0.7557466 0 -0.6548603 -0.7557501 0 -0.6548607 -0.7557496 0 -0.5 -0.8660254 0 -0.5 -0.8660255 1.41386e-7 -0.5000007 -0.8660252 0 -0.6548601 -0.7557502 0 -0.5000004 -0.8660252 0 -0.3270681 -0.9450008 0 -0.327068 -0.9450008 0 -0.3270675 -0.9450011 0 -0.1423146 -0.9898216 0 -0.142315 -0.9898214 -2.12079e-7 0.04758226 -0.9988673 0 0.04758203 -0.9988674 1.41386e-7 0.04758131 -0.9988675 0 -0.1423154 -0.9898214 0 0.2357635 -0.9718105 0 0.2357587 -0.9718117 -1.72012e-7 0.2357589 -0.9718116 1.23713e-7 0.2357597 -0.9718114 0 0.4154152 -0.909632 0 0.4154149 -0.9096321 0 0.5800567 -0.8145761 0 0.5800566 -0.8145762 -1.41386e-7 0.58006 -0.8145738 0 0.4154152 -0.9096319 0 0.7237338 -0.6900793 0 0.7237342 -0.6900789 -1.41386e-7 0.7237347 -0.6900783 0 0.5800576 -0.8145754 0 0.8412547 -0.5406392 0 0.8412525 -0.5406425 0 0.8412536 -0.5406408 0 0.8412532 -0.5406414 0 0.9283684 -0.3716614 0 0.9283682 -0.3716619 0 0.928367 -0.371665 0 0.9819293 -0.1892486 0 0.9819287 -0.1892513 0 0.9819286 -0.1892523 0 0.9988673 -0.04758292 0 0.9999904 0 -0.004417061 0.9988576 0.04758244 -0.004412055 1 0 0 0.9819286 0.1892523 0 0.9819287 0.1892513 0 0.9819293 0.1892486 0 0.928367 0.371665 0 0.9283682 0.3716619 0 0.8412525 0.5406425 0 0.8412536 0.5406407 0 0.8412532 0.5406414 0 0.9283684 0.3716614 0 0.7237347 0.6900783 0 0.7237342 0.6900789 -1.41386e-7 0.7237338 0.6900793 0 0.8412547 0.5406392 0 0.5800576 0.8145754 0 0.5800567 0.8145761 0 0.5800566 0.8145762 0 0.58006 0.8145738 0 0.4154152 0.9096319 0 0.4154149 0.9096321 0 0.2357587 0.9718117 -1.72012e-7 0.2357589 0.9718116 1.41386e-7 0.2357597 0.9718114 0 0.4154152 0.909632 0 0.2357635 0.9718105 0 0.04758226 0.9988673 0 0.04758203 0.9988674 0 0.04758131 0.9988675 0 -0.1423154 0.9898214 0 -0.142315 0.9898214 -2.12079e-7 -0.1423146 0.9898216 0 -0.3270675 0.9450011 0 -0.327068 0.9450008 0 -0.4999994 0.8660258 0 -0.5000001 0.8660255 1.41386e-7 -0.5000004 0.8660252 0 -0.3270681 0.9450008 0 -0.6548603 0.7557501 0 -0.6548607 0.7557496 0 -0.6548601 0.7557502 0 -0.5000007 0.8660252 0 -0.6548641 0.7557466 0 -0.786053 0.6181592 0 -0.786053 0.6181592 0 -0.7860542 0.6181578 0 -0.8888338 0.4582298 0 -0.8888356 0.4582264 0 -0.8888353 0.4582269 0 -0.9594963 0.2817212 0 -0.9594931 0.2817325 0 -0.9594928 0.2817335 0 -0.9954726 0.09504944 0 -0.9954721 0.09505552 0 -0.995472 0.09505581 0 -0.995472 -0.09505581 0 0.9988673 0.04758244 0 0.9988673 -0.04758214 0 0.9988673 0.04758214 0 0.9819289 0.1892507 0 0.9819289 0.1892505 0 0.9283683 0.3716616 0 0.9283679 0.3716627 0 0.8412532 0.5406416 0 0.8412539 0.5406405 0 0.7237346 0.6900784 0 0.7237336 0.6900796 0 0.5800575 0.8145756 0 0.5800578 0.8145754 0 0.4154165 0.9096313 0 0.4154139 0.9096325 0 0.2357592 0.9718116 0 0.2357585 0.9718117 0 0.04758173 0.9988673 0 0.04758137 0.9988675 0 -0.1423146 0.9898216 0 -0.1423146 0.9898215 0 -0.3270691 0.9450005 0 -0.3270663 0.9450014 0 -0.5000017 0.8660244 0 -0.4999993 0.8660259 0 -0.6548618 0.7557488 0 -0.6548614 0.7557491 0 -0.7860535 0.6181585 0 -0.7860517 0.6181609 0 -0.8888357 0.458226 0 -0.8888348 0.4582279 0 -0.9594933 0.2817315 0 -0.9594927 0.2817337 0 -0.9954721 0.09505468 0 -0.995472 0.09505677 0 -0.995472 -0.09505617 0 -0.995472 -0.09505522 0 -0.9594929 -0.2817329 0 -0.9594931 -0.2817323 0 -0.8888354 -0.4582266 0 -0.8888351 -0.4582272 0 -0.7860528 -0.6181594 0 -0.7860524 -0.6181599 0 -0.6548614 -0.7557491 0 -0.6548618 -0.7557488 0 -0.5000016 -0.8660246 0 -0.4999995 -0.8660258 0 -0.327069 -0.9450005 0 -0.3270664 -0.9450014 0 -0.1423146 -0.9898215 0 -0.1423146 -0.9898216 0 0.04758173 -0.9988673 0 0.04758137 -0.9988675 0 0.2357592 -0.9718115 0 0.2357585 -0.9718117 0 0.4154164 -0.9096314 0 0.4154141 -0.9096325 0 0.5800578 -0.8145754 0 0.5800575 -0.8145756 0 0.723735 -0.6900781 0 0.7237332 -0.69008 0 0.8412539 -0.5406405 0 0.8412532 -0.5406416 0 0.9283683 -0.3716616 0 0.9283679 -0.3716627 0 0.981929 -0.1892499 0 0.9819287 -0.1892512 0 0.9988673 -0.04758244 0 -3.20782e-7 0 1 1.43586e-6 0 1 -9.79249e-7 0 1 -2.18704e-7 0 1 -3.58964e-7 0 1 1.44681e-6 0 1 5.36018e-7 0 1 -9.05919e-7 0 1 -2.4911e-6 0 1 1.84659e-6 0 1 7.23353e-7 0 1 -2.18704e-7 0 1 -2.50617e-7 0 1 1.86743e-6 0 1 -2.07964e-6 0 1 4.35942e-6 0 1 -2.71776e-6 0 1 5.89378e-6 0 1 -8.57631e-6 0 1 0 0 -1 2.0015e-6 0 -1 -2.02437e-6 0 -1 1.48727e-6 0 -1 -2.21782e-5 0 -1 0 0 -1 9.07986e-7 0 -1 -1.0953e-5 0 -1 8.80866e-6 0 -1 -3.87288e-5 0 -1 0 0 -1 1.06178e-6 0 -1 -3.13649e-5 0 -1 -1.47047e-6 0 -1 2.19278e-5 0 -1 0 0 -1 -1.02558e-6 0 -1 3.02959e-5 0 -1 -1.36027e-6 0 -1 8.77924e-7 0 -1 1.52643e-5 0 -1 -1.44143e-6 0 -1 3.65187e-6 0 -1 -4.1988e-6 0 -1 -1.44283e-6 0 -1 1.19736e-5 0 -1 -1.00123e-5 0 -1 1.59207e-6 0 -1 2.09838e-6 0 -1 -2.54529e-6 0 -1 -9.14459e-6 0 -1 4.34651e-6 0 -1 3.95556e-6 0 -1 5.85696e-6 0 -1 -1.03571e-5 0 -1 5.29815e-6 0 -1 0.001204431 0 -0.9999993 -9.32407e-6 0 -1 8.82902e-7 0 -1 -1.40953e-6 0 -1 1.49529e-6 0 -1 -7.77639e-6 0 -1 3.87288e-5 0 -1 2.2536e-6 0 -1 -1.4661e-6 0 -1 1.16784e-6 0 -1 -7.59614e-5 0 -1 4.39792e-6 0 -1 -3.74797e-5 0 -1 -3.0935e-6 0 -1 6.71132e-5 0 -1 -4.1226e-7 0 -1 7.66319e-6 0 -1 -3.48835e-6 0 -1 2.50944e-6 0 -1 1.44283e-6 0 -1 1.00123e-5 0 -1 -1.20649e-6 0 -1 4.54863e-6 0 -1 -8.72219e-5 0 -1 2.74179e-6 0 -1 1.26146e-5 0 -1 -1.24805e-6 0 -1 -1.07649e-5 0 -1 -1.95269e-6 0 -1 3.88277e-6 0 -1 -1.19736e-5 0 -1 -3.51102e-6 0 -1 2.54529e-6 0 -1 -1.00465e-6 0 -1</float_array>
          <technique_common>
            <accessor source="#Arm_6_Link_003-mesh-normals-array" count="626" stride="3">
              <param name="X" type="float"/>
              <param name="Y" type="float"/>
              <param name="Z" type="float"/>
            </accessor>
          </technique_common>
        </source>
        <vertices id="Arm_6_Link_003-mesh-vertices">
          <input semantic="POSITION" source="#Arm_6_Link_003-mesh-positions"/>
        </vertices>
        <polylist count="720">
          <input semantic="VERTEX" source="#Arm_6_Link_003-mesh-vertices" offset="0"/>
          <input semantic="NORMAL" source="#Arm_6_Link_003-mesh-normals" offset="1"/>
          <vcount>3 3 3 3 3 3 3 3 3 3 3 3 3 3 3 3 3 3 3 3 3 3 3 3 3 3 3 3 3 3 3 3 3 3 3 3 3 3 3 3 3 3 3 3 3 3 3 3 3 3 3 3 3 3 3 3 3 3 3 3 3 3 3 3 3 3 3 3 3 3 3 3 3 3 3 3 3 3 3 3 3 3 3 3 3 3 3 3 3 3 3 3 3 3 3 3 3 3 3 3 3 3 3 3 3 3 3 3 3 3 3 3 3 3 3 3 3 3 3 3 3 3 3 3 3 3 3 3 3 3 3 3 3 3 3 3 3 3 3 3 3 3 3 3 3 3 3 3 3 3 3 3 3 3 3 3 3 3 3 3 3 3 3 3 3 3 3 3 3 3 3 3 3 3 3 3 3 3 3 3 3 3 3 3 3 3 3 3 3 3 3 3 3 3 3 3 3 3 3 3 3 3 3 3 3 3 3 3 3 3 3 3 3 3 3 3 3 3 3 3 3 3 3 3 3 3 3 3 3 3 3 3 3 3 3 3 3 3 3 3 3 3 3 3 3 3 3 3 3 3 3 3 3 3 3 3 3 3 3 3 3 3 3 3 3 3 3 3 3 3 3 3 3 3 3 3 3 3 3 3 3 3 3 3 3 3 3 3 3 3 3 3 3 3 3 3 3 3 3 3 3 3 3 3 3 3 3 3 3 3 3 3 3 3 3 3 3 3 3 3 3 3 3 3 3 3 3 3 3 3 3 3 3 3 3 3 3 3 3 3 3 3 3 3 3 3 3 3 3 3 3 3 3 3 3 3 3 3 3 3 3 3 3 3 3 3 3 3 3 3 3 3 3 3 3 3 3 3 3 3 3 3 3 3 3 3 3 3 3 3 3 3 3 3 3 3 3 3 3 3 3 3 3 3 3 3 3 3 3 3 3 3 3 3 3 3 3 3 3 3 3 3 3 3 3 3 3 3 3 3 3 3 3 3 3 3 3 3 3 3 3 3 3 3 3 3 3 3 3 3 3 3 3 3 3 3 3 3 3 3 3 3 3 3 3 3 3 3 3 3 3 3 3 3 3 3 3 3 3 3 3 3 3 3 3 3 3 3 3 3 3 3 3 3 3 3 3 3 3 3 3 3 3 3 3 3 3 3 3 3 3 3 3 3 3 3 3 3 3 3 3 3 3 3 3 3 3 3 3 3 3 3 3 3 3 3 3 3 3 3 3 3 3 3 3 3 3 3 3 3 3 3 3 3 3 3 3 3 3 3 3 3 3 3 3 3 3 3 3 3 3 3 3 3 3 3 3 3 3 3 3 3 3 3 3 3 3 3 3 3 3 3 3 3 3 3 3 3 3 3 3 3 3 3 3 3 3 3 3 3 3 3 3 3 3 3 3 3 3 3 3 3 3 3 3 3 3 3 3 3 3 3 3 3 3 3 3 3 3 3 3 3 3 3 3 3 3 3 3 3 3 3 3 3 3 3 3 3 3 3 3 3 3 3 3 3 3 3 3 3 3 3 3 3 3 3 3 3 3 3 3 3 3 3 3 3 3 3 3 3 3 3 3 3 3 3 3 3 3 3 3 3 3 3 3 3 3 3 3 3 3 3 3 3 3 3 3 3 3 3 </vcount>
          <p>0 0 1 0 2 0 3 1 4 1 5 1 6 2 7 2 8 2 9 3 10 3 11 3 12 4 13 4 14 4 15 5 16 5 17 5 18 6 19 6 20 6 21 7 22 7 23 7 24 8 25 8 26 8 27 9 28 9 26 9 26 10 28 10 29 10 26 11 29 11 24 11 30 12 31 12 27 12 27 13 31 13 32 13 27 14 32 14 28 14 33 15 34 15 30 15 35 16 36 16 34 16 34 17 36 17 37 17 34 18 37 18 30 18 38 19 39 19 40 19 40 20 39 20 41 20 40 21 41 21 42 21 43 22 44 22 45 22 45 23 44 23 46 23 45 24 46 24 47 24 48 25 49 25 50 25 50 26 49 26 51 26 50 27 51 27 52 27 52 28 51 28 53 28 53 29 51 29 54 29 53 30 54 30 55 30 55 31 54 31 56 31 55 32 56 32 57 32 57 33 56 33 58 33 58 34 56 34 59 34 58 35 59 35 60 35 60 35 59 35 61 35 61 36 59 36 62 36 61 37 62 37 63 37 63 38 62 38 64 38 63 39 64 39 65 39 65 40 64 40 66 40 66 41 64 41 67 41 66 42 67 42 68 42 69 43 70 43 71 43 71 44 70 44 72 44 71 45 72 45 67 45 67 46 72 46 73 46 67 47 73 47 68 47 74 48 75 48 17 48 17 49 75 49 76 49 17 50 76 50 15 50 77 51 78 51 79 51 79 52 78 52 80 52 79 53 80 53 81 53 81 54 80 54 82 54 81 55 82 55 74 55 74 56 82 56 83 56 74 57 83 57 75 57 84 58 85 58 77 58 77 59 85 59 86 59 77 60 86 60 78 60 87 61 88 61 89 61 89 62 88 62 90 62 89 63 90 63 84 63 84 64 90 64 91 64 84 65 91 65 85 65 92 66 93 66 94 66 94 67 93 67 95 67 94 68 95 68 96 68 97 69 98 69 99 69 99 70 98 70 100 70 101 71 100 71 102 71 102 72 100 72 98 72 102 73 98 73 94 73 94 74 98 74 97 74 94 75 97 75 92 75 103 76 104 76 105 76 105 77 104 77 106 77 105 78 106 78 107 78 108 79 109 79 110 79 110 80 109 80 111 80 110 81 111 81 112 81 112 82 111 82 113 82 113 83 111 83 114 83 113 84 114 84 115 84 115 85 114 85 116 85 115 86 116 86 117 86 117 87 116 87 118 87 118 88 116 88 119 88 118 89 119 89 120 89 120 89 119 89 121 89 121 90 119 90 122 90 121 91 122 91 123 91 123 92 122 92 124 92 123 93 124 93 125 93 125 94 124 94 126 94 126 95 124 95 127 95 126 96 127 96 128 96 129 97 130 97 127 97 127 98 130 98 131 98 127 99 131 99 128 99 132 100 133 100 11 100 11 101 133 101 134 101 11 102 134 102 9 102 135 103 136 103 8 103 8 104 136 104 137 104 8 105 137 105 6 105 24 106 138 106 25 106 25 107 138 107 139 107 25 108 139 108 140 108 140 109 139 109 141 109 140 110 141 110 142 110 142 111 141 111 143 111 142 112 143 112 135 112 135 113 143 113 144 113 135 114 144 114 136 114 145 115 146 115 147 115 147 116 146 116 148 116 147 117 148 117 149 117 149 118 148 118 150 118 150 119 148 119 151 119 150 120 151 120 152 120 152 121 151 121 132 121 152 122 132 122 153 122 153 123 154 123 155 123 155 124 154 124 156 124 5 125 4 125 157 125 4 126 158 126 157 126 157 127 158 127 159 127 157 128 159 128 160 128 160 129 159 129 161 129 160 130 161 130 162 130 162 131 161 131 163 131 162 132 163 132 164 132 3 133 5 133 165 133 165 134 5 134 166 134 165 135 166 135 167 135 167 136 166 136 168 136 167 137 168 137 169 137 169 138 168 138 170 138 170 139 168 139 171 139 170 140 171 140 172 140 172 141 171 141 173 141 172 142 173 142 174 142 174 143 173 143 175 143 175 144 173 144 176 144 175 145 176 145 177 145 177 146 176 146 178 146 178 147 176 147 106 147 178 148 106 148 179 148 180 149 181 149 182 149 182 150 181 150 102 150 183 151 184 151 185 151 185 152 184 152 186 152 187 153 188 153 96 153 96 154 188 154 189 154 190 155 191 155 192 155 192 156 191 156 193 156 192 157 193 157 187 157 187 158 193 158 194 158 187 159 194 159 188 159 195 160 196 160 190 160 190 161 196 161 197 161 190 161 197 161 191 161 198 162 199 162 195 162 195 163 199 163 200 163 195 164 200 164 196 164 201 165 202 165 203 165 203 166 202 166 204 166 203 167 204 167 198 167 198 168 204 168 205 168 198 169 205 169 199 169 203 170 206 170 201 170 201 171 206 171 2 171 201 172 2 172 207 172 207 173 2 173 1 173 208 174 209 174 210 174 210 175 209 175 211 175 210 176 211 176 212 176 213 177 214 177 215 177 215 178 214 178 216 178 215 179 216 179 217 179 215 180 218 180 213 180 213 181 218 181 219 181 213 182 219 182 220 182 221 183 222 183 223 183 223 184 222 184 224 184 223 185 224 185 219 185 219 186 224 186 225 186 219 187 225 187 220 187 226 188 227 188 221 188 221 189 227 189 228 189 221 190 228 190 222 190 229 191 230 191 226 191 226 192 230 192 231 192 226 193 231 193 227 193 46 194 232 194 229 194 229 195 232 195 233 195 229 196 233 196 230 196 234 197 235 197 236 197 236 198 235 198 41 198 236 199 41 199 237 199 238 200 239 200 33 200 33 201 239 201 240 201 33 202 240 202 34 202 34 203 240 203 241 203 34 204 241 204 242 204 242 205 241 205 243 205 242 206 243 206 244 206 145 207 245 207 146 207 146 208 245 208 246 208 146 209 246 209 247 209 247 210 246 210 248 210 247 211 248 211 249 211 249 212 248 212 250 212 249 213 250 213 238 213 238 214 250 214 251 214 238 215 251 215 239 215 108 216 107 216 109 216 109 217 107 217 106 217 109 218 106 218 111 218 111 219 106 219 176 219 111 220 176 220 114 220 114 221 176 221 173 221 114 222 173 222 116 222 116 223 173 223 171 223 116 224 171 224 119 224 119 225 171 225 168 225 119 226 168 226 122 226 122 227 168 227 166 227 122 228 166 228 124 228 124 229 166 229 5 229 124 230 5 230 127 230 127 231 5 231 157 231 127 232 157 232 129 232 129 233 157 233 160 233 156 234 154 234 164 234 164 235 154 235 252 235 164 236 252 236 162 236 162 237 252 237 14 237 162 238 14 238 160 238 160 239 14 239 13 239 160 240 13 240 129 240 129 241 13 241 253 241 129 242 253 242 130 242 103 243 101 243 104 243 104 244 101 244 102 244 104 245 102 245 106 245 106 246 102 246 181 246 106 247 181 247 179 247 179 248 181 248 180 248 153 249 132 249 154 249 154 250 132 250 11 250 154 251 11 251 252 251 252 252 11 252 10 252 252 253 10 253 14 253 14 254 10 254 254 254 14 255 254 255 12 255 189 256 255 256 96 256 96 257 255 257 186 257 96 258 186 258 94 258 94 259 186 259 184 259 94 260 184 260 102 260 102 261 184 261 183 261 102 262 183 262 182 262 30 263 27 263 33 263 33 264 27 264 26 264 33 265 26 265 238 265 238 266 26 266 25 266 238 267 25 267 249 267 249 268 25 268 140 268 249 269 140 269 247 269 247 270 140 270 142 270 247 271 142 271 146 271 146 272 142 272 135 272 146 273 135 273 148 273 148 274 135 274 8 274 148 275 8 275 151 275 151 276 8 276 7 276 151 277 7 277 132 277 132 278 7 278 256 278 132 279 256 279 133 279 257 280 206 280 16 280 16 281 206 281 203 281 16 282 203 282 17 282 17 283 203 283 198 283 17 284 198 284 74 284 74 285 198 285 195 285 74 286 195 286 81 286 81 287 195 287 190 287 81 288 190 288 79 288 79 289 190 289 192 289 79 290 192 290 77 290 77 291 192 291 187 291 77 292 187 292 84 292 84 293 187 293 96 293 84 294 96 294 89 294 89 295 96 295 95 295 89 296 95 296 87 296 244 297 237 297 242 297 242 298 237 298 41 298 242 299 41 299 34 299 34 300 41 300 39 300 34 301 39 301 35 301 35 302 39 302 38 302 257 303 18 303 206 303 206 304 18 304 20 304 206 305 20 305 2 305 2 306 20 306 212 306 212 307 0 307 2 307 0 308 212 308 211 308 234 309 232 309 235 309 235 310 232 310 46 310 235 311 46 311 41 311 41 312 46 312 44 312 41 313 44 313 42 313 42 314 44 314 43 314 19 315 258 315 20 315 20 316 258 316 21 316 20 317 21 317 212 317 212 318 21 318 23 318 212 319 23 319 210 319 210 320 23 320 217 320 210 321 217 321 208 321 208 322 217 322 216 322 22 323 259 323 23 323 23 324 259 324 69 324 23 325 69 325 217 325 217 326 69 326 71 326 217 327 71 327 215 327 215 328 71 328 67 328 215 329 67 329 218 329 218 330 67 330 64 330 218 331 64 331 219 331 219 332 64 332 62 332 219 333 62 333 223 333 223 334 62 334 59 334 223 335 59 335 221 335 221 336 59 336 56 336 221 337 56 337 226 337 226 338 56 338 54 338 226 339 54 339 229 339 229 340 54 340 51 340 229 341 51 341 46 341 46 342 51 342 49 342 46 343 49 343 47 343 47 344 49 344 48 344 260 345 261 345 262 345 262 345 261 345 263 345 262 346 263 346 264 346 264 345 263 345 265 345 264 345 265 345 266 345 266 347 265 347 267 347 266 345 267 345 268 345 268 345 267 345 269 345 268 345 269 345 270 345 270 345 269 345 271 345 270 345 271 345 272 345 272 348 271 348 273 348 272 349 273 349 274 349 274 345 273 345 275 345 274 345 275 345 276 345 276 345 275 345 277 345 276 345 277 345 278 345 278 345 277 345 279 345 278 345 279 345 280 345 280 345 279 345 281 345 280 345 281 345 282 345 282 345 281 345 283 345 282 345 283 345 284 345 284 345 283 345 285 345 284 345 285 345 286 345 286 345 285 345 287 345 286 350 287 350 288 350 288 351 287 351 289 351 288 345 289 345 290 345 290 345 289 345 291 345 290 345 291 345 292 345 292 345 291 345 293 345 292 345 293 345 294 345 294 345 293 345 295 345 294 345 295 345 296 345 296 345 295 345 297 345 296 345 297 345 298 345 298 352 297 352 299 352 298 345 299 345 300 345 300 345 299 345 301 345 300 345 301 345 302 345 302 345 301 345 303 345 302 345 303 345 304 345 304 345 303 345 305 345 304 353 305 353 306 353 306 345 305 345 307 345 306 354 307 354 308 354 308 345 307 345 309 345 308 345 309 345 310 345 310 345 309 345 311 345 310 345 311 345 312 345 312 345 311 345 313 345 312 355 313 355 314 355 314 345 313 345 315 345 314 355 315 355 316 355 316 345 315 345 317 345 316 345 317 345 318 345 318 345 317 345 319 345 318 345 319 345 320 345 320 345 319 345 321 345 320 345 321 345 322 345 322 356 321 356 323 356 322 345 323 345 324 345 324 345 323 345 325 345 324 345 325 345 326 345 326 345 325 345 327 345 326 357 327 357 260 357 260 358 327 358 261 358 245 359 271 359 269 359 245 360 145 360 271 360 271 361 145 361 147 361 271 362 147 362 273 362 147 363 149 363 273 363 273 364 149 364 150 364 273 365 150 365 275 365 155 366 277 366 153 366 153 367 277 367 275 367 153 368 275 368 152 368 152 369 275 369 150 369 155 370 156 370 277 370 277 371 156 371 164 371 277 372 164 372 279 372 159 373 281 373 161 373 161 374 281 374 279 374 161 375 279 375 163 375 163 376 279 376 164 376 159 377 158 377 281 377 281 378 158 378 4 378 281 379 4 379 283 379 4 380 3 380 283 380 283 381 3 381 165 381 283 382 165 382 285 382 170 383 287 383 169 383 169 384 287 384 285 384 169 385 285 385 167 385 167 386 285 386 165 386 170 387 172 387 287 387 287 388 172 388 174 388 287 389 174 389 289 389 174 390 175 390 289 390 289 391 175 391 177 391 289 392 177 392 291 392 180 393 293 393 179 393 179 394 293 394 291 394 179 395 291 395 178 395 178 396 291 396 177 396 185 397 295 397 183 397 183 398 295 398 293 398 183 399 293 399 182 399 182 400 293 400 180 400 185 401 186 401 295 401 295 402 186 402 255 402 295 403 255 403 297 403 255 404 189 404 297 404 297 405 189 405 188 405 297 406 188 406 299 406 188 407 194 407 299 407 299 408 194 408 193 408 299 409 193 409 301 409 301 410 193 410 191 410 301 411 191 411 328 411 328 412 191 412 197 412 328 413 197 413 305 413 197 414 196 414 305 414 305 415 196 415 200 415 305 416 200 416 307 416 200 417 199 417 307 417 307 418 199 418 205 418 307 419 205 419 309 419 201 420 311 420 202 420 202 421 311 421 309 421 202 422 309 422 204 422 204 423 309 423 205 423 0 424 313 424 1 424 1 425 313 425 311 425 1 426 311 426 207 426 207 427 311 427 201 427 0 428 211 428 313 428 313 429 211 429 209 429 313 430 209 430 315 430 209 431 208 431 315 431 315 432 208 432 216 432 315 433 216 433 317 433 220 434 319 434 213 434 213 435 319 435 317 435 213 436 317 436 214 436 214 437 317 437 216 437 220 438 225 438 319 438 319 439 225 439 224 439 319 440 224 440 321 440 224 441 222 441 321 441 321 442 222 442 228 442 321 443 228 443 323 443 228 444 227 444 323 444 323 445 227 445 231 445 323 446 231 446 325 446 232 447 327 447 233 447 233 448 327 448 325 448 233 449 325 449 230 449 230 450 325 450 231 450 237 451 261 451 236 451 236 452 261 452 327 452 236 453 327 453 234 453 234 454 327 454 232 454 237 455 244 455 261 455 261 456 244 456 243 456 261 457 243 457 263 457 243 458 241 458 263 458 263 459 241 459 240 459 263 460 240 460 265 460 240 461 239 461 265 461 265 462 239 462 251 462 265 463 251 463 267 463 251 464 250 464 267 464 267 465 250 465 248 465 267 466 248 466 269 466 269 467 248 467 329 467 269 468 329 468 245 468 330 469 331 469 332 469 332 470 331 470 300 470 332 471 304 471 330 471 330 472 304 472 306 472 330 473 306 473 333 473 333 474 306 474 308 474 333 475 308 475 334 475 334 476 308 476 310 476 334 477 310 477 335 477 335 478 310 478 312 478 335 479 312 479 336 479 336 480 312 480 314 480 336 481 314 481 337 481 337 482 314 482 316 482 337 483 316 483 338 483 338 484 316 484 318 484 338 485 318 485 339 485 339 486 318 486 320 486 339 487 320 487 340 487 340 488 320 488 322 488 340 489 322 489 341 489 341 490 322 490 324 490 341 491 324 491 342 491 342 492 324 492 326 492 342 493 326 493 343 493 343 494 326 494 260 494 343 495 260 495 344 495 344 496 260 496 262 496 344 497 262 497 345 497 345 498 262 498 264 498 345 499 264 499 346 499 346 500 264 500 266 500 346 501 266 501 347 501 347 502 266 502 268 502 347 503 268 503 348 503 348 504 268 504 270 504 348 505 270 505 349 505 349 506 270 506 272 506 349 507 272 507 350 507 350 508 272 508 274 508 350 509 274 509 351 509 351 510 274 510 276 510 351 511 276 511 352 511 352 512 276 512 278 512 352 513 278 513 353 513 353 514 278 514 280 514 353 515 280 515 354 515 354 516 280 516 282 516 354 517 282 517 355 517 355 518 282 518 284 518 355 519 284 519 356 519 356 520 284 520 286 520 356 521 286 521 357 521 357 522 286 522 288 522 357 523 288 523 358 523 358 524 288 524 290 524 358 525 290 525 359 525 359 526 290 526 292 526 359 527 292 527 360 527 360 528 292 528 294 528 360 529 294 529 361 529 361 530 294 530 296 530 361 531 296 531 362 531 362 532 296 532 298 532 362 533 298 533 363 533 363 534 298 534 300 534 363 535 300 535 364 535 364 536 300 536 331 536 349 345 364 345 348 345 348 345 364 345 365 345 348 345 365 345 330 345 330 345 333 345 348 345 348 537 333 537 334 537 348 345 334 345 335 345 335 538 336 538 348 538 348 539 336 539 337 539 348 540 337 540 338 540 349 345 350 345 364 345 364 345 350 345 351 345 364 541 351 541 352 541 359 542 356 542 358 542 358 543 356 543 357 543 359 345 360 345 356 345 356 544 360 544 361 544 356 545 361 545 362 545 362 546 363 546 356 546 356 547 363 547 364 547 356 345 364 345 355 345 352 345 353 345 364 345 364 548 353 548 354 548 364 549 354 549 355 549 338 345 339 345 348 345 348 550 339 550 340 550 348 551 340 551 341 551 341 345 342 345 348 345 348 552 342 552 343 552 348 553 343 553 344 553 344 554 345 554 348 554 348 345 345 345 346 345 348 555 346 555 347 555 47 556 48 556 141 556 259 557 22 557 13 557 12 558 254 558 70 558 141 556 48 556 143 556 254 559 10 559 70 559 70 560 10 560 9 560 70 561 9 561 134 561 12 556 70 556 13 556 13 562 70 562 69 562 13 563 69 563 259 563 86 556 85 556 91 556 131 564 130 564 16 564 16 565 130 565 253 565 16 566 253 566 13 566 134 556 133 556 70 556 70 567 133 567 256 567 70 568 256 568 7 568 22 569 21 569 13 569 13 570 21 570 258 570 13 571 258 571 19 571 19 556 18 556 13 556 13 572 18 572 257 572 13 573 257 573 16 573 137 556 48 556 6 556 6 556 48 556 7 556 137 556 136 556 48 556 48 574 136 574 144 574 48 575 144 575 143 575 48 576 50 576 7 576 7 577 50 577 52 577 7 578 52 578 53 578 53 579 55 579 7 579 7 580 55 580 57 580 7 581 57 581 58 581 58 556 60 556 7 556 7 556 60 556 61 556 7 582 61 582 63 582 63 583 65 583 7 583 7 584 65 584 66 584 7 585 66 585 68 585 88 556 16 556 90 556 90 586 16 586 91 586 97 556 16 556 92 556 92 556 16 556 93 556 105 556 16 556 103 556 103 587 16 587 101 587 139 588 138 588 37 588 37 589 138 589 24 589 29 556 28 556 32 556 24 590 29 590 37 590 37 591 29 591 32 591 37 592 32 592 30 592 30 593 32 593 31 593 139 556 37 556 141 556 141 594 37 594 36 594 141 595 36 595 35 595 68 596 73 596 7 596 7 597 73 597 72 597 7 598 72 598 70 598 16 556 15 556 91 556 91 599 15 599 76 599 91 600 76 600 75 600 83 556 82 556 80 556 88 556 87 556 16 556 16 601 87 601 95 601 16 602 95 602 93 602 97 603 99 603 16 603 16 604 99 604 100 604 16 605 100 605 101 605 105 556 107 556 16 556 16 606 107 606 108 606 16 607 108 607 112 607 112 608 108 608 110 608 112 609 113 609 16 609 16 610 113 610 115 610 16 611 115 611 117 611 121 612 123 612 16 612 16 613 123 613 125 613 35 614 38 614 141 614 141 615 38 615 40 615 141 616 40 616 42 616 42 556 43 556 141 556 141 617 43 617 45 617 141 618 45 618 47 618 75 619 83 619 91 619 91 620 83 620 80 620 91 621 80 621 86 621 86 556 80 556 366 556 117 622 118 622 16 622 16 556 118 556 120 556 16 556 120 556 121 556 125 623 126 623 16 623 16 624 126 624 128 624 16 625 128 625 131 625</p>
        </polylist>
      </mesh>
    </geometry>
  </library_geometries>
  <library_controllers/>
  <library_visual_scenes>
    <visual_scene id="Scene" name="Scene">
      <node id="COL_hollie_right_arm_6_link" name="COL_hollie_right_arm_6_link" type="NODE">
        <instance_geometry url="#Arm_6_Link_003-mesh" name="COL_hollie_right_arm_6_link"/>
      </node>
    </visual_scene>
  </library_visual_scenes>
  <scene>
    <instance_visual_scene url="#Scene"/>
  </scene>
</COLLADA>