<?xml version="1.0"?>
<COLLADA xmlns="http://www.collada.org/2005/11/COLLADASchema" version="1.4.1">
    <asset>
        <contributor>
            <authoring_tool>CINEMA4D 18.030 COLLADA Exporter</authoring_tool>
        </contributor>
        <created>2018-01-15T11:09:00Z</created>
        <modified>2018-01-15T11:09:00Z</modified>
        <unit meter="0.01" name="centimeter"/>
        <up_axis>Y_UP</up_axis>
    </asset>
    <library_geometries>
        <geometry id="ID3">
            <mesh>
                <source id="ID4">
                    <float_array id="ID5" count="894">35.7645 -24.9187 55.3327 35.7803 4.56951 62.1732 35.7623 20.8284 49.2105 82.0091 -27.2426 69.0578 82.0091 4.66762 77.7592 82.0091 25.42 62.0737 142.88 -26.0288 73.5867 142.88 2.15192 85.577 142.88 22.5382 69.3089 142.88 -30.3558 1.15208 142.88 38.3116 0.883064 142.88 -25.9935 -65.3709 142.88 2.18322 -75.7218 142.88 21.4891 -62.7072 82.0091 -27.2426 -70.5738 82.0091 4.48689 -80.0051 82.0091 24.3357 -66.67 35.7645 -24.9187 -58.3122 35.78 4.3889 -66.0273 35.7605 19.7448 -54.8823 35.6045 -29.6094 -0.42558 35.6348 34.9602 -0.8695 82.0091 41.1497 -0.729965 82.0091 -32.1985 -0.216564 26.6548 -14.7367 33.7486 26.4753 5.9884 34.9856 25.4744 -16.476 -0.303239 26.6791 18.3376 32.1526 26.6548 -14.7367 -36.2819 25.656 24.5613 -0.335582 26.4736 5.83099 -37.7441 26.6715 17.4975 -35.3463 202.133 -69.7459 81.9396 202.133 -21.4428 139.517 202.133 52.9871 112.128 202.133 -76.0119 -0.466781 202.133 82.9996 0.952369 202.133 -68.2083 -83.0987 202.133 -12.514 -128.044 202.133 52.7428 -98.3254 238.883 -1.7036 3.49018 25.69 6.95214 0.274104 190.312 -29.1725 66.1818 190.312 -6.7853 94.2329 190.312 22.2128 78.9016 190.312 -32.2619 0.480983 190.312 39.8995 1.67718 190.312 -28.8637 -61.7122 190.312 -5.11923 -82.5163 190.312 21.403 -66.9394 233.633 -69.7459 81.9396 233.633 -21.4428 139.517 233.633 52.9871 112.128 233.633 -76.0119 -0.466781 233.633 82.9996 0.952369 233.633 -68.2083 -83.0987 233.633 -12.514 -128.044 233.633 52.7428 -98.3254 196.883 -45.5359 71.5825 196.883 -13.4525 112.9 196.883 34.3885 92.9136 196.883 -49.7619 0.013494 196.883 57.1395 1.4455 196.883 -44.7144 -69.8923 196.883 -8.75409 -101.297 196.883 33.8261 -79.8633 238.883 -43.0536 65.3685 238.883 -12.8451 103.813 238.883 32.3589 85.1522 238.883 -47.1136 0.331771 238.883 53.3424 1.65564 238.883 -42.2351 -63.3603 238.883 -8.28107 -92.7303 238.883 31.9101 -72.7149 55.1403 -12.0985 72.4573 35.7878 -10.9247 63.2117 55.1403 4.61094 71.2933 82.0091 -12.3749 78.9232 55.1403 -26.9341 63.4002 112.303 -12.3199 83.3089 112.303 4.12447 82.1449 142.88 -13.0478 85.3879 112.303 -26.6207 72.8953 55.1403 15.178 67.8012 35.7826 13.7497 59.1296 55.1403 23.547 56.416 82.0091 16.1482 74.2671 112.303 15.3219 78.6528 112.303 24.4995 65.9111 142.88 13.135 82.536 55.1403 33.6623 31.5725 35.6867 30.0182 27.5452 55.1403 38.9757 -0.961465 82.0091 35.8362 34.8055 112.303 34.8843 36.9983 112.303 40.1978 0.0242758 142.88 32.9981 38.9399 55.1403 32.9394 -35.4184 35.6855 29.2957 -31.0369 55.1403 22.4626 -62.6328 82.0091 35.1133 -37.7254 112.303 34.1614 -36.9012 112.303 23.4151 -65.2278 142.88 32.2752 -35.4077 112.303 -12.3199 -79.0075 142.88 -12.9064 -75.5662 112.303 3.94374 -78.3569 82.0091 -12.3749 -80.6558 112.303 -26.6207 -69.1316 55.1403 -12.0985 -76.0418 55.1403 4.43021 -75.3912 35.7878 -10.9247 -66.6168 55.1403 -26.9341 -66.5366 112.303 14.599 -76.405 142.88 12.5534 -73.7904 82.0091 15.4253 -78.0532 55.1403 14.4551 -73.4393 35.7815 13.0273 -64.3307 55.1403 -31.8792 -38.0209 35.6698 -29.5982 -33.3264 55.1403 -31.8792 -0.448063 82.0091 -32.1985 -40.3279 112.303 -31.3877 -39.5038 112.303 -31.3877 0.537676 142.88 -30.3558 -37.1835 55.1403 -31.8792 36.2287 35.6698 -29.5982 31.6239 82.0091 -32.1985 39.4616 112.303 -31.3877 41.6545 142.88 -30.3558 41.7918 28.0426 -8.2875 50.4869 27.9495 -20.4202 44.2661 26.456 -5.7831 35.2121 28.0125 5.15836 49.8249 27.5705 -24.5238 25.3157 27.3096 -24.5683 -0.417871 25.8659 -16.4092 19.9859 28.0218 13.2016 48.1271 26.4469 13.7511 34.5858 27.9404 19.2121 40.7298 27.5705 -24.5238 -26.9878 27.9495 -20.4202 -47.1928 25.8659 -16.4092 -21.505 27.6381 26.5596 22.9694 25.9673 22.1406 19.3765 27.4306 30.3873 -0.65335 28.0426 -8.2875 -53.8318 28.0114 4.97812 -53.4255 26.456 -5.7831 -37.9858 27.6336 25.8386 -25.6375 25.9604 21.511 -21.1062 27.9336 18.1307 -45.1844 28.0173 12.4807 -52.4951 26.4401 13.1215 -37.604 196.883 14.2069 126.186 196.883 44.4849 103.344 202.133 16.9449 137.903 196.883 -17.7901 127.35 196.883 10.9556 112.274 238.883 14.2069 126.186 238.883 -17.7901 127.349 233.633 16.9449 137.903 238.883 44.4849 103.344 238.883 10.5069 105.547 196.883 -42.6782 108.667 202.133 -50.948 117.65 196.883 -58.6785 77.2049 196.883 -32.8578 97.9986 238.883 -42.6782 108.667 238.883 -58.6785 77.2049 233.633 -50.948 117.65 238.883 -31.8531 91.9163 196.883 -64.0119 40.0306 202.133 -76.0119 42.0216 196.883 -64.0119 -0.247227 196.883 -49.7619 37.6663 238.883 -64.0119 40.0306 238.883 -64.0119 -0.247227 233.633 -76.0119 42.0216 238.883 -48.0932 35.2155 196.883 -64.0119 -41.0195 202.133 -76.0119 -43.8887 196.883 -57.4682 -77.0615 196.883 -49.7619 -37.6123 238.883 -64.0119 -41.0195 238.883 -57.4682 -77.0615 233.633 -76.0119 -43.8887 238.883 -48.0932 -34.7602 196.883 -37.8372 -103.148 202.133 -44.7975 -112.951 196.883 -10.7952 -115.817 196.883 -29.5718 -91.5075 238.883 -37.8372 -103.148 238.883 -10.7952 -115.817 233.633 -44.7975 -112.951 238.883 -28.5795 -85.5484 196.883 17.9813 -111.604 202.133 21.9075 -122.976 196.883 44.0952 -89.8856 196.883 13.319 -98.1006 238.883 17.9813 -111.604 238.883 44.0952 -89.8856 233.633 21.9075 -122.976 238.883 12.9106 -91.9053 25.6422 15.256 -19.329 25.4392 16.7865 0.0612366 25.806 6.58065 -19.1412 25.6467 15.6155 18.2984 25.8072 6.67052 18.3925 25.5791 -5.00771 18.3166 25.3182 -5.05227 0.0400153 25.5791 -5.00771 -19.378 217.883 77.9739 -56.2172 217.883 55.6253 -101.139 233.633 74.2677 -54.6719 217.883 86.9402 0.877225 202.133 74.2677 -54.6719 217.883 79.2023 63.0237 233.633 75.4557 61.5152 217.883 55.8212 115.056 202.133 75.4557 61.5152 217.883 17.8576 141.808 217.883 -22.6604 143.573 217.883 -53.7046 120.645 217.883 -73.4351 83.5178 217.883 -80.0119 42.6853 217.883 -80.0119 -0.539966 217.883 -80.0119 -44.8451 217.883 -71.7883 -85.1111 217.883 -47.1176 -116.219 217.883 -13.087 -132.12 217.883 23.2162 -126.767 170.597 10.0233 87.4946 190.312 7.85619 93.8136 170.597 -2.07963 89.1824 170.597 21.2887 73.6477 170.597 -15.6731 84.9337 190.312 -19.9042 85.3275 170.597 -26.4272 69.8063 170.597 -30.0119 38.8583 190.312 -32.2619 35.88 170.597 -30.0119 0.964066 170.597 -30.0119 -35.0021 190.312 -32.2619 -33.956 170.597 -26.2858 -62.4528 170.597 -15.1077 -74.8009 190.312 -18.6692 -77.0685 170.597 -1.41225 -77.3754 170.597 9.86583 -75.5052 190.312 8.34551 -80.5471 170.597 20.3457 -63.5093 170.597 31.6465 -35.7064 190.312 33.7312 -37.4717 170.597 37.6829 1.42821 170.597 32.3694 41.4192 190.312 34.4769 44.3289 196.883 39.9854 -40.3781 196.883 26.0793 -72.3026 196.883 49.9458 -44.531 196.883 46.5492 1.64746 238.883 31.8868 -28.0743 238.883 47.9212 -41.4551 238.883 18.4153 -43.709 238.883 31.3607 2.488 196.883 40.7994 47.5615 196.883 50.8684 51.6156 196.883 26.7719 85.0448 238.883 32.4901 35.1328 238.883 48.7911 48.5084 238.883 18.6536 53.9993 196.883 8.5028 101.778 196.883 -10.1802 102 238.883 6.70812 74.8724 238.883 -7.75063 65.6515 196.883 -25.4495 89.9507 196.883 -35.6213 67.341 238.883 -21.4306 65.6213 238.883 -25.692 42.485 196.883 -39.0119 35.8827 196.883 -39.0119 0.210178 238.883 -32.3373 26.0796 238.883 -28.4187 1.48329 196.883 -39.0119 -35.042 196.883 -35.0931 -64.4839 238.883 -32.3373 -23.6336 238.883 -25.1762 -38.356 196.883 -23.3366 -82.7258 196.883 -7.2143 -90.3436 238.883 -19.3673 -58.8896 238.883 -5.32224 -56.0758 196.883 9.80182 -87.9135 238.883 8.16821 -63.1325 196.883 63.1491 -50.0361 196.883 71.1778 1.1778 238.883 63.1491 -50.0361 238.883 71.1778 1.1778 196.883 64.2158 56.9897 238.883 64.2158 56.9897</float_array>
                    <technique_common>
                        <accessor count="298" source="#ID5" stride="3">
                            <param name="X" type="float"/>
                            <param name="Y" type="float"/>
                            <param name="Z" type="float"/>
                        </accessor>
                    </technique_common>
                </source>
                <source id="ID6">
                    <float_array id="ID7" count="951">-0.654864 0.137851 0.743068 -0.328117 0.179503 0.927425 -0.326999 -0.226761 0.917415 -0.671086 -0.167363 0.722242 -0.185158 0.181873 0.965732 -0.177498 -0.253265 0.950974 -0.148533 -0.548075 0.823135 -0.294503 -0.498845 0.81512 -0.571349 -0.684039 0.453488 -0.114812 0.168919 0.97892 -0.098688 -0.293016 0.951001 -0.0974866 0.0902134 0.99114 -0.0517143 -0.40255 0.913936 0.00253069 -0.891679 0.452661 -0.0705913 -0.600248 0.796692 -0.445937 0.778922 0.440931 -0.219425 0.85193 0.475466 -0.295081 0.562002 0.77271 -0.587355 0.482412 0.649841 -0.0930477 0.872761 0.479197 -0.155689 0.572814 0.804764 -0.0118198 0.883305 0.46865 -0.0785071 0.577649 0.812501 -0.00754152 0.884514 0.466452 -0.0722348 0.555998 0.828039 -0.350434 0.936566 -0.00637061 -0.150162 0.988642 -0.00613189 -0.171203 0.948857 0.265256 -0.36987 0.89242 0.258425 -0.0293238 0.999544 -0.00718293 -0.0505573 0.965743 0.254526 0.045724 0.998907 -0.00970176 0.0259975 0.969836 0.242368 0.04038 0.999106 -0.012527 0.0230766 0.971909 0.234223 -0.464462 0.776286 -0.42621 -0.210401 0.856446 -0.471415 -0.167282 0.950047 -0.26349 -0.37992 0.889165 -0.255041 -0.039094 0.872337 -0.487339 -0.0302324 0.96526 -0.259538 0.0708941 0.867151 -0.492973 0.0567249 0.963921 -0.260074 0.0583878 0.861102 -0.505068 0.0487234 0.96283 -0.265676 0.0320249 0.0683866 -0.997145 0.0770577 0.103442 -0.991646 0.0783794 -0.289675 -0.95391 0.0487892 -0.357765 -0.932536 -0.0571558 0.109971 -0.99229 -0.0541707 -0.272692 -0.960575 -0.0454816 -0.557048 -0.829234 0.0714786 -0.576797 -0.813754 0.0452225 -0.869659 -0.491578 -0.304602 0.108156 -0.946319 -0.300282 -0.251232 -0.92017 -0.66669 0.0811455 -0.740905 -0.674692 -0.185434 -0.714427 -0.569101 -0.692843 -0.442822 -0.27008 -0.518149 -0.811528 0.0783658 0.781667 -0.618753 0.0635146 0.772366 -0.631994 -0.0424151 0.790201 -0.611378 0.0763878 0.179258 -0.980832 -0.0564801 0.180359 -0.981978 0.0275491 0.177424 -0.983749 -0.23207 0.780311 -0.580739 -0.617367 0.436372 -0.654551 -0.302389 0.178715 -0.936281 -0.328557 -0.944484 3.36764e-005 -0.0640033 -0.99795 1.88644e-006 -0.0814993 -0.992961 -0.0859445 -0.371703 -0.924301 -0.0866335 0.00743812 -0.999972 -0 0.00323651 -0.996635 -0.0819045 -0.000988072 -0.986579 -0.16328 -0.0983837 -0.980318 -0.171164 0.0302406 -0.999543 -0 0.0331354 -0.996305 -0.0792415 0.023069 -0.999734 -0 0.025693 -0.996846 -0.0750864 0.0358215 -0.986792 -0.157985 -0.103597 -0.978493 0.178381 -0.0841489 -0.992416 0.0896114 -0.373687 -0.923068 0.0911219 -0.0162289 -0.986155 0.165032 -0.00441009 -0.996556 0.0828011 0.0160428 -0.988493 0.150411 0.0232086 -0.996882 0.0754202 0.0211477 -0.997522 0.0670939 -0.994948 -0.0701223 0.0718395 -0.997047 -0.0124541 0.0757706 -0.94802 -0.0669609 0.311087 -0.923541 -0.318415 0.213738 -0.997091 0.00440475 0.0760953 -0.941983 0.0502796 0.331872 -0.993586 -0.113079 0.000357002 -0.994378 -0.0990875 0.0373428 -0.98349 -0.176794 0.0386266 -0.978281 -0.207282 0.000291345 -0.584202 -0.807211 0.0843722 -0.525531 -0.850774 6.1983e-005 -0.995175 0.0482497 0.0854368 -0.914516 0.235834 0.3287 -0.9837 0.14685 0.103774 -0.836426 0.471736 0.279027 -0.995167 -0.0710641 -0.0677638 -0.994453 -0.0992194 -0.0349129 -0.983413 -0.177685 -0.0364177 -0.92281 -0.324302 -0.207964 -0.58135 -0.809698 -0.0801337 -0.98433 0.163928 0.0649831 -0.956647 0.277272 0.0891425 -0.985405 0.170223 -0.00109525 -0.95361 0.301036 -0.00235773 -0.500407 0.831155 0.242431 -0.481914 0.876194 -0.00657978 -0.997513 0.00176054 -0.0704629 -0.997367 -0.0128615 -0.071372 -0.949222 -0.0740173 -0.305776 -0.945955 0.0283647 -0.323056 -0.985283 0.159331 -0.0618925 -0.958946 0.270092 -0.0864451 -0.985422 0.141426 -0.094557 -0.848276 0.460757 -0.26102 -0.516283 0.822482 -0.238695 -0.996028 0.0434272 -0.0777251 -0.925828 0.210998 -0.313564 -0.916884 0.311773 0.249243 -0.919764 0.130716 0.370064 -0.979882 0.0664704 0.188182 -0.979123 0.15877 0.126927 -0.924201 -0.112675 0.364906 -0.981042 -0.0571766 0.18517 -1 0 -0 0.924201 -0.112675 0.364906 0.919764 0.130716 0.370064 0.979882 0.0664704 0.188182 0.981042 -0.0571766 0.18517 0.916884 0.311773 0.249243 0.979123 0.15877 0.126926 1 0 -0 -0.918578 -0.301911 0.255077 -0.979519 -0.153807 0.129948 -0.915946 -0.381666 0.123992 -0.978808 -0.194759 0.0632711 0.915946 -0.381666 0.123992 0.918578 -0.301911 0.255077 0.979519 -0.153807 0.129948 0.978808 -0.194759 0.0632711 -0.915892 -0.400303 0.0299878 -0.978757 -0.204452 0.0153161 -0.916157 -0.400819 -0 -0.978815 -0.204747 -0 0.916157 -0.400819 -0 0.915892 -0.400303 0.0299878 0.978757 -0.204452 0.0153161 0.978815 -0.204747 -0 -0.916682 -0.397855 -0.0375007 -0.978964 -0.203133 -0.0191468 -0.919186 -0.359183 -0.161507 -0.979678 -0.182932 -0.0822556 0.919186 -0.359183 -0.161507 0.916682 -0.397855 -0.0375007 0.978964 -0.203133 -0.0191468 0.979678 -0.182932 -0.0822556 -0.918372 -0.247655 -0.308644 -0.979476 -0.126142 -0.157207 -0.920264 -0.0570019 -0.387124 -0.980002 -0.0289869 -0.196863 0.920264 -0.0570019 -0.387124 0.918372 -0.247655 -0.308644 0.979476 -0.126142 -0.157207 0.980002 -0.0289869 -0.196863 -0.918443 0.160008 -0.361747 -0.979521 0.0814451 -0.184132 -0.915908 0.314642 -0.249226 -0.978835 0.160422 -0.127069 0.915908 0.314642 -0.249226 0.918443 0.160008 -0.361747 0.979521 0.0814451 -0.184132 0.978835 0.160422 -0.127069 -0.999999 0.0016574 0.000393018 -0.9997 0.000707443 -0.0244891 -0.999447 0.0147269 -0.0298102 -0.999973 0.00728574 0.00032913 -0.999319 0.0164474 0.033027 -0.999626 0.00128221 0.0272988 -0.999482 -0.00140077 0.0321652 -0.999993 0.00371702 0.000366281 -0.999563 -0.0008685 -0.0295475 0.246118 0.753945 -0.609092 0.243685 0.924277 -0.293819 7.76656e-009 0.953006 -0.302951 4.32566e-008 0.777872 -0.628422 0.242751 0.969966 -0.0154438 -3.87578e-009 0.999873 -0.01592 -0.242751 0.969966 -0.0154438 -0.243685 0.924277 -0.293819 -0.246118 0.753945 -0.609092 0.243254 0.93431 0.260561 0 0.963243 0.26863 0.247944 0.749102 0.614304 -3.97778e-009 0.773247 0.634105 -0.247944 0.749102 0.614304 -0.243254 0.93431 0.260561 0.25108 0.313926 0.915647 0 0.324315 0.945949 0.259686 -0.282579 0.923424 1.2229e-008 -0.292618 0.956229 -0.259686 -0.282579 0.923424 -0.25108 0.313926 0.915647 0.250057 -0.734272 0.631123 7.8795e-009 -0.758364 0.651831 0.246088 -0.919379 0.306892 -3.89286e-009 -0.94855 0.316629 -0.246088 -0.919379 0.306892 -0.250057 -0.734272 0.631123 0.246114 -0.966228 0.0763611 0 -0.996892 0.0787844 0.246154 -0.969231 -0 0 -1 -0 -0.246154 -0.969231 -0 -0.246114 -0.966228 0.0763611 0.247589 -0.964076 -0.0962172 0 -0.995057 -0.0993091 0.25141 -0.878363 -0.406536 3.95038e-009 -0.907512 -0.420027 -0.25141 -0.878363 -0.406536 -0.247589 -0.964076 -0.0962172 0.249225 -0.601473 -0.759024 0 -0.62107 -0.783755 0.252825 -0.14025 -0.957293 4.00964e-009 -0.144959 -0.989438 -0.252825 -0.14025 -0.957293 -0.249225 -0.601473 -0.759024 0.249301 0.385259 -0.888496 3.57757e-008 0.39782 -0.917464 -0.249301 0.385259 -0.888496 -0.542982 -0.195093 0.816768 -0.17647 -0.0774007 0.981258 -0.192774 0.141824 0.97094 -0.53097 0.366017 0.764266 -0.0907255 0.869027 0.486376 -0.104911 0.768624 0.63104 -0.466961 0.755006 0.46034 -0.440342 -0.857634 0.265638 -0.048903 -0.930046 0.364173 -0.10483 -0.581437 0.80681 -0.489136 -0.629375 0.603849 -0.440551 -0.897727 -0 -0.0505917 -0.998719 -0 -0.048692 -0.997108 0.058353 -0.437528 -0.897917 0.0481059 -0.459687 -0.825821 -0.326662 -0.0589568 -0.903774 -0.42393 -0.0506919 -0.996396 -0.0680149 -0.440528 -0.895902 -0.0574058 -0.52531 -0.0787685 -0.847257 -0.133759 -0.0124092 -0.990936 -0.100324 -0.486527 -0.867886 -0.503555 -0.518764 -0.690881 -0.450073 0.747979 -0.487814 -0.0541621 0.849777 -0.524353 -0.101534 0.485105 -0.868541 -0.501511 0.404944 -0.76453 -0.440739 0.897535 -0.0134231 -0.0488653 0.998704 -0.0142496 -0.0480121 0.961731 -0.269757 -0.441049 0.863337 -0.245203 -0.0630053 0.971053 0.230405 -0.447164 0.86998 0.207798 -0.7129 0.674077 -0.193375 -0.713161 0.700919 -0.0106746 -0.71688 0.577567 -0.390513 1 -1.15227e-007 7.94283e-008 1 -1.18791e-007 3.47231e-008 1 5.83314e-008 6.73454e-009 1 -1.79948e-007 3.66608e-009 -0.715095 0.679449 0.16428 -0.724626 0.579238 0.373363 1 -1.21139e-007 -2.9835e-008 1 -1.11147e-007 -7.34254e-008 -0.941653 0.135396 0.308152 -0.944013 -0.100346 0.314278 1 -2.70566e-008 -6.80656e-008 1 4.09655e-008 -9.29969e-008 -0.744393 -0.519273 0.419803 -0.716101 -0.672678 0.186291 1 8.16773e-008 -5.59303e-008 1 1.79752e-007 -5.01277e-008 -0.713726 -0.69946 0.0367559 -0.716512 -0.697574 -0 1 1.57992e-007 -1.09066e-008 1 2.34257e-007 1.71761e-009 -0.715522 -0.697172 -0.044487 -0.726942 -0.644714 -0.23643 1 1.5435e-007 1.31968e-008 1 1.63284e-007 5.75939e-008 -0.751144 -0.429224 -0.501547 -0.763429 -0.0861073 -0.640126 1 6.33626e-008 6.35951e-008 1 2.13887e-008 1.01082e-007 -0.748129 0.303858 -0.589892 1 -3.48443e-008 7.11813e-008 -0.914255 0.386603 -0.121148 -0.978369 0.197403 -0.0618593 -0.913953 0.405769 -0.00640932 -0.978288 0.207226 -0.00327324 0.913953 0.405769 -0.00640932 0.914255 0.386603 -0.121148 0.978369 0.197403 -0.0618593 0.978288 0.207226 -0.00327324 -0.913797 0.391767 0.107211 -0.978249 0.200075 0.0547525 0.913797 0.391766 0.107211 0.978249 0.200075 0.0547525</float_array>
                    <technique_common>
                        <accessor count="317" source="#ID7" stride="3">
                            <param name="X" type="float"/>
                            <param name="Y" type="float"/>
                            <param name="Z" type="float"/>
                        </accessor>
                    </technique_common>
                </source>
                <source id="ID8">
                    <float_array id="ID9" count="2">0 1</float_array>
                    <technique_common>
                        <accessor count="1" source="#ID9" stride="2">
                            <param name="S" type="float"/>
                            <param name="T" type="float"/>
                        </accessor>
                    </technique_common>
                </source>
                <vertices id="ID10">
                    <input semantic="POSITION" source="#ID4"/>
                </vertices>
                <triangles count="592" material="">
                    <input offset="0" semantic="VERTEX" source="#ID10"/>
                    <input offset="1" semantic="NORMAL" source="#ID6"/>
                    <input offset="2" semantic="TEXCOORD" source="#ID8" set="0"/>
                    <p>74 2 0 76 1 0 1 0 0 75 3 0 74 2 0 1 0 0 74 2 0 77 5 0 4 4 0 76 1 0 74 2 0 4 4 0 74 2 0 78 7 0 3 6 0 77 5 0 74 2 0 3 6 0 74 2 0 75 3 0 0 8 0 78 7 0 74 2 0 0 8 0 79 10 0 80 9 0 4 4 0 77 5 0 79 10 0 4 4 0 79 10 0 81 12 0 7 11 0 80 9 0 79 10 0 7 11 0 79 10 0 82 14 0 6 13 0 81 12 0 79 10 0 6 13 0 79 10 0 77 5 0 3 6 0 82 14 0 79 10 0 3 6 0 83 17 0 85 16 0 2 15 0 84 18 0 83 17 0 2 15 0 83 17 0 86 20 0 5 19 0 85 16 0 83 17 0 5 19 0 83 17 0 76 1 0 4 4 0 86 20 0 83 17 0 4 4 0 83 17 0 84 18 0 1 0 0 76 1 0 83 17 0 1 0 0 87 22 0 88 21 0 5 19 0 86 20 0 87 22 0 5 19 0 87 22 0 89 24 0 8 23 0 88 21 0 87 22 0 8 23 0 87 22 0 80 9 0 7 11 0 89 24 0 87 22 0 7 11 0 87 22 0 86 20 0 4 4 0 80 9 0 87 22 0 4 4 0 90 27 0 92 26 0 21 25 0 91 28 0 90 27 0 21 25 0 90 27 0 93 30 0 22 29 0 92 26 0 90 27 0 22 29 0 90 27 0 85 16 0 5 19 0 93 30 0 90 27 0 5 19 0 90 27 0 91 28 0 2 15 0 85 16 0 90 27 0 2 15 0 94 32 0 95 31 0 22 29 0 93 30 0 94 32 0 22 29 0 94 32 0 96 34 0 10 33 0 95 31 0 94 32 0 10 33 0 94 32 0 88 21 0 8 23 0 96 34 0 94 32 0 8 23 0 94 32 0 93 30 0 5 19 0 88 21 0 94 32 0 5 19 0 97 37 0 99 36 0 19 35 0 98 38 0 97 37 0 19 35 0 97 37 0 100 40 0 16 39 0 99 36 0 97 37 0 16 39 0 97 37 0 92 26 0 22 29 0 100 40 0 97 37 0 22 29 0 97 37 0 98 38 0 21 25 0 92 26 0 97 37 0 21 25 0 101 42 0 102 41 0 16 39 0 100 40 0 101 42 0 16 39 0 101 42 0 103 44 0 13 43 0 102 41 0 101 42 0 13 43 0 101 42 0 95 31 0 10 33 0 103 44 0 101 42 0 10 33 0 101 42 0 100 40 0 22 29 0 95 31 0 101 42 0 22 29 0 104 47 0 106 46 0 12 45 0 105 48 0 104 47 0 12 45 0 104 47 0 107 50 0 15 49 0 106 46 0 104 47 0 15 49 0 104 47 0 108 52 0 14 51 0 107 50 0 104 47 0 14 51 0 104 47 0 105 48 0 11 53 0 108 52 0 104 47 0 11 53 0 109 55 0 110 54 0 15 49 0 107 50 0 109 55 0 15 49 0 109 55 0 111 57 0 18 56 0 110 54 0 109 55 0 18 56 0 109 55 0 112 59 0 17 58 0 111 57 0 109 55 0 17 58 0 109 55 0 107 50 0 14 51 0 112 59 0 109 55 0 14 51 0 113 60 0 102 41 0 13 43 0 114 61 0 113 60 0 13 43 0 113 60 0 115 62 0 16 39 0 102 41 0 113 60 0 16 39 0 113 63 0 106 46 0 15 49 0 115 64 0 113 63 0 15 49 0 113 63 0 114 65 0 12 45 0 106 46 0 113 63 0 12 45 0 116 66 0 99 36 0 16 39 0 115 62 0 116 66 0 16 39 0 116 66 0 117 67 0 19 35 0 99 36 0 116 66 0 19 35 0 116 68 0 110 54 0 18 56 0 117 67 0 116 68 0 18 56 0 116 68 0 115 64 0 15 49 0 110 54 0 116 68 0 15 49 0 118 71 0 120 70 0 20 69 0 119 72 0 118 71 0 20 69 0 118 71 0 121 74 0 23 73 0 120 70 0 118 71 0 23 73 0 118 71 0 112 76 0 14 75 0 121 74 0 118 71 0 14 75 0 118 71 0 119 72 0 17 58 0 112 76 0 118 71 0 17 58 0 122 78 0 123 77 0 23 73 0 121 74 0 122 78 0 23 73 0 122 78 0 124 80 0 9 79 0 123 77 0 122 78 0 9 79 0 122 78 0 108 81 0 11 53 0 124 80 0 122 78 0 11 53 0 122 78 0 121 74 0 14 75 0 108 81 0 122 78 0 14 75 0 125 83 0 78 82 0 0 8 0 126 84 0 125 83 0 0 8 0 125 83 0 127 86 0 3 85 0 78 82 0 125 83 0 3 85 0 125 83 0 120 70 0 23 73 0 127 86 0 125 83 0 23 73 0 125 83 0 126 84 0 20 69 0 120 70 0 125 83 0 20 69 0 128 88 0 82 87 0 3 85 0 127 86 0 128 88 0 3 85 0 128 88 0 129 89 0 6 13 0 82 87 0 128 88 0 6 13 0 128 88 0 123 77 0 9 79 0 129 89 0 128 88 0 9 79 0 128 88 0 127 86 0 23 73 0 123 77 0 128 88 0 23 73 0 130 92 0 132 91 0 24 90 0 131 93 0 130 92 0 24 90 0 130 92 0 133 95 0 25 94 0 132 91 0 130 92 0 25 94 0 130 92 0 75 3 0 1 0 0 133 95 0 130 92 0 1 0 0 130 92 0 131 93 0 0 8 0 75 3 0 130 92 0 0 8 0 134 98 0 136 97 0 26 96 0 135 99 0 134 98 0 26 96 0 134 98 0 131 93 0 24 90 0 136 97 0 134 98 0 24 90 0 134 100 0 126 84 0 0 8 0 131 93 0 134 100 0 0 8 0 134 100 0 135 101 0 20 69 0 126 84 0 134 100 0 20 69 0 137 103 0 138 102 0 25 94 0 133 95 0 137 103 0 25 94 0 137 103 0 139 105 0 27 104 0 138 102 0 137 103 0 27 104 0 137 103 0 84 18 0 2 15 0 139 105 0 137 103 0 2 15 0 137 103 0 133 95 0 1 0 0 84 18 0 137 103 0 1 0 0 140 108 0 142 107 0 28 106 0 141 109 0 140 108 0 28 106 0 140 108 0 135 99 0 26 96 0 142 107 0 140 108 0 26 96 0 140 110 0 119 72 0 20 69 0 135 101 0 140 110 0 20 69 0 140 110 0 141 109 0 17 58 0 119 72 0 140 110 0 17 58 0 143 112 0 144 111 0 27 104 0 139 105 0 143 112 0 27 104 0 143 112 0 145 114 0 29 113 0 144 111 0 143 112 0 29 113 0 143 115 0 91 28 0 21 25 0 145 116 0 143 115 0 21 25 0 143 115 0 139 105 0 2 15 0 91 28 0 143 115 0 2 15 0 146 119 0 148 118 0 30 117 0 147 120 0 146 119 0 30 117 0 146 119 0 141 109 0 28 106 0 148 118 0 146 119 0 28 106 0 146 119 0 111 57 0 17 58 0 141 109 0 146 119 0 17 58 0 146 119 0 147 120 0 18 56 0 111 57 0 146 119 0 18 56 0 149 122 0 150 121 0 29 113 0 145 114 0 149 122 0 29 113 0 149 122 0 151 124 0 31 123 0 150 121 0 149 122 0 31 123 0 149 125 0 98 38 0 19 35 0 151 124 0 149 125 0 19 35 0 149 125 0 145 116 0 21 25 0 98 38 0 149 125 0 21 25 0 152 127 0 153 126 0 31 123 0 151 124 0 152 127 0 31 123 0 152 127 0 147 120 0 30 117 0 153 126 0 152 127 0 30 117 0 152 127 0 117 67 0 18 56 0 147 120 0 152 127 0 18 56 0 152 127 0 151 124 0 19 35 0 117 67 0 152 127 0 19 35 0 154 130 0 156 129 0 34 128 0 155 131 0 154 130 0 34 128 0 154 130 0 157 133 0 33 132 0 156 129 0 154 130 0 33 132 0 154 130 0 158 134 0 59 134 0 157 133 0 154 130 0 59 134 0 154 130 0 155 131 0 60 134 0 158 134 0 154 130 0 60 134 0 159 137 0 161 136 0 51 135 0 160 138 0 159 137 0 51 135 0 159 137 0 162 140 0 52 139 0 161 136 0 159 137 0 52 139 0 159 137 0 163 141 0 68 141 0 162 140 0 159 137 0 68 141 0 159 137 0 160 138 0 67 141 0 163 141 0 159 137 0 67 141 0 164 143 0 165 142 0 33 132 0 157 133 0 164 143 0 33 132 0 164 143 0 166 145 0 32 144 0 165 142 0 164 143 0 32 144 0 164 143 0 167 134 0 58 134 0 166 145 0 164 143 0 58 134 0 164 143 0 157 133 0 59 134 0 167 134 0 164 143 0 59 134 0 168 148 0 170 147 0 50 146 0 169 149 0 168 148 0 50 146 0 168 148 0 160 138 0 51 135 0 170 147 0 168 148 0 51 135 0 168 148 0 171 141 0 67 141 0 160 138 0 168 148 0 67 141 0 168 148 0 169 149 0 66 141 0 171 141 0 168 148 0 66 141 0 172 151 0 173 150 0 32 144 0 166 145 0 172 151 0 32 144 0 172 151 0 174 153 0 35 152 0 173 150 0 172 151 0 35 152 0 172 151 0 175 134 0 61 134 0 174 153 0 172 151 0 61 134 0 172 151 0 166 145 0 58 134 0 175 134 0 172 151 0 58 134 0 176 156 0 178 155 0 53 154 0 177 157 0 176 156 0 53 154 0 176 156 0 169 149 0 50 146 0 178 155 0 176 156 0 50 146 0 176 156 0 179 141 0 66 141 0 169 149 0 176 156 0 66 141 0 176 156 0 177 157 0 69 141 0 179 141 0 176 156 0 69 141 0 180 159 0 181 158 0 35 152 0 174 153 0 180 159 0 35 152 0 180 159 0 182 161 0 37 160 0 181 158 0 180 159 0 37 160 0 180 159 0 183 134 0 63 134 0 182 161 0 180 159 0 63 134 0 180 159 0 174 153 0 61 134 0 183 134 0 180 159 0 61 134 0 184 164 0 186 163 0 55 162 0 185 165 0 184 164 0 55 162 0 184 164 0 177 157 0 53 154 0 186 163 0 184 164 0 53 154 0 184 164 0 187 141 0 69 141 0 177 157 0 184 164 0 69 141 0 184 164 0 185 165 0 71 141 0 187 141 0 184 164 0 71 141 0 188 167 0 189 166 0 37 160 0 182 161 0 188 167 0 37 160 0 188 167 0 190 169 0 38 168 0 189 166 0 188 167 0 38 168 0 188 167 0 191 134 0 64 134 0 190 169 0 188 167 0 64 134 0 188 167 0 182 161 0 63 134 0 191 134 0 188 167 0 63 134 0 192 172 0 194 171 0 56 170 0 193 173 0 192 172 0 56 170 0 192 172 0 185 165 0 55 162 0 194 171 0 192 172 0 55 162 0 192 172 0 195 141 0 71 141 0 185 165 0 192 172 0 71 141 0 192 172 0 193 173 0 72 141 0 195 141 0 192 172 0 72 141 0 196 175 0 197 174 0 38 168 0 190 169 0 196 175 0 38 168 0 196 175 0 198 177 0 39 176 0 197 174 0 196 175 0 39 176 0 196 175 0 199 134 0 65 134 0 198 177 0 196 175 0 65 134 0 196 175 0 190 169 0 64 134 0 199 134 0 196 175 0 64 134 0 200 180 0 202 179 0 57 178 0 201 181 0 200 180 0 57 178 0 200 180 0 193 173 0 56 170 0 202 179 0 200 180 0 56 170 0 200 180 0 203 141 0 72 141 0 193 173 0 200 180 0 72 141 0 200 180 0 201 181 0 73 141 0 203 141 0 200 180 0 73 141 0 204 184 0 206 183 0 41 182 0 205 185 0 204 184 0 41 182 0 204 184 0 153 126 0 30 117 0 206 183 0 204 184 0 30 117 0 204 184 0 150 121 0 31 123 0 153 126 0 204 184 0 31 123 0 204 184 0 205 185 0 29 113 0 150 121 0 204 184 0 29 113 0 207 186 0 138 102 0 27 104 0 144 111 0 207 186 0 27 104 0 207 186 0 208 187 0 25 94 0 138 102 0 207 186 0 25 94 0 207 186 0 205 185 0 41 182 0 208 187 0 207 186 0 41 182 0 207 186 0 144 111 0 29 113 0 205 185 0 207 186 0 29 113 0 209 188 0 136 97 0 24 90 0 132 91 0 209 188 0 24 90 0 209 188 0 210 189 0 26 96 0 136 97 0 209 188 0 26 96 0 209 188 0 208 187 0 41 182 0 210 189 0 209 188 0 41 182 0 209 188 0 132 91 0 25 94 0 208 187 0 209 188 0 25 94 0 211 190 0 148 118 0 28 106 0 142 107 0 211 190 0 28 106 0 211 190 0 206 183 0 30 117 0 148 118 0 211 190 0 30 117 0 211 190 0 210 189 0 41 182 0 206 183 0 211 190 0 41 182 0 211 190 0 142 107 0 26 96 0 210 189 0 211 190 0 26 96 0 212 193 0 214 192 0 57 191 0 213 194 0 212 193 0 57 191 0 212 193 0 215 196 0 54 195 0 214 192 0 212 193 0 54 195 0 212 193 0 216 198 0 36 197 0 215 196 0 212 193 0 36 197 0 212 193 0 213 194 0 39 199 0 216 198 0 212 193 0 39 199 0 217 201 0 218 200 0 54 195 0 215 196 0 217 201 0 54 195 0 217 201 0 219 203 0 52 202 0 218 200 0 217 201 0 52 202 0 217 201 0 220 205 0 34 204 0 219 203 0 217 201 0 34 204 0 217 201 0 215 196 0 36 197 0 220 205 0 217 201 0 36 197 0 221 207 0 161 206 0 52 202 0 219 203 0 221 207 0 52 202 0 221 207 0 222 209 0 51 208 0 161 206 0 221 207 0 51 208 0 221 207 0 156 211 0 33 210 0 222 209 0 221 207 0 33 210 0 221 207 0 219 203 0 34 204 0 156 211 0 221 207 0 34 204 0 223 213 0 170 212 0 51 208 0 222 209 0 223 213 0 51 208 0 223 213 0 224 215 0 50 214 0 170 212 0 223 213 0 50 214 0 223 213 0 165 217 0 32 216 0 224 215 0 223 213 0 32 216 0 223 213 0 222 209 0 33 210 0 165 217 0 223 213 0 33 210 0 225 219 0 178 218 0 50 214 0 224 215 0 225 219 0 50 214 0 225 219 0 226 221 0 53 220 0 178 218 0 225 219 0 53 220 0 225 219 0 173 223 0 35 222 0 226 221 0 225 219 0 35 222 0 225 219 0 224 215 0 32 216 0 173 223 0 225 219 0 32 216 0 227 225 0 186 224 0 53 220 0 226 221 0 227 225 0 53 220 0 227 225 0 228 227 0 55 226 0 186 224 0 227 225 0 55 226 0 227 225 0 181 229 0 37 228 0 228 227 0 227 225 0 37 228 0 227 225 0 226 221 0 35 222 0 181 229 0 227 225 0 35 222 0 229 231 0 194 230 0 55 226 0 228 227 0 229 231 0 55 226 0 229 231 0 230 233 0 56 232 0 194 230 0 229 231 0 56 232 0 229 231 0 189 235 0 38 234 0 230 233 0 229 231 0 38 234 0 229 231 0 228 227 0 37 228 0 189 235 0 229 231 0 37 228 0 231 237 0 202 236 0 56 232 0 230 233 0 231 237 0 56 232 0 231 237 0 213 194 0 57 191 0 202 236 0 231 237 0 57 191 0 231 237 0 197 238 0 39 199 0 213 194 0 231 237 0 39 199 0 231 237 0 230 233 0 38 234 0 197 238 0 231 237 0 38 234 0 232 241 0 234 240 0 43 239 0 233 242 0 232 241 0 43 239 0 232 241 0 89 24 0 7 11 0 234 240 0 232 241 0 7 11 0 232 244 0 235 243 0 8 23 0 89 24 0 232 244 0 8 23 0 232 244 0 233 242 0 44 245 0 235 243 0 232 244 0 44 245 0 236 248 0 238 247 0 42 246 0 237 249 0 236 248 0 42 246 0 236 248 0 81 12 0 6 13 0 238 247 0 236 248 0 6 13 0 236 248 0 234 240 0 7 11 0 81 12 0 236 248 0 7 11 0 236 248 0 237 249 0 43 239 0 234 240 0 236 248 0 43 239 0 239 252 0 241 251 0 45 250 0 240 253 0 239 252 0 45 250 0 239 252 0 129 89 0 9 79 0 241 251 0 239 252 0 9 79 0 239 252 0 238 247 0 6 13 0 129 89 0 239 252 0 6 13 0 239 252 0 240 253 0 42 246 0 238 247 0 239 252 0 42 246 0 242 256 0 244 255 0 47 254 0 243 257 0 242 256 0 47 254 0 242 256 0 124 80 0 11 53 0 244 255 0 242 256 0 11 53 0 242 256 0 241 251 0 9 79 0 124 80 0 242 256 0 9 79 0 242 256 0 243 257 0 45 250 0 241 251 0 242 256 0 45 250 0 245 260 0 247 259 0 48 258 0 246 261 0 245 260 0 48 258 0 245 260 0 105 48 0 12 45 0 247 259 0 245 260 0 12 45 0 245 260 0 244 255 0 11 53 0 105 48 0 245 260 0 11 53 0 245 260 0 246 261 0 47 254 0 244 255 0 245 260 0 47 254 0 248 264 0 250 263 0 49 262 0 249 265 0 248 264 0 49 262 0 248 264 0 114 61 0 13 43 0 250 263 0 248 264 0 13 43 0 248 264 0 247 259 0 12 45 0 114 65 0 248 264 0 12 45 0 248 264 0 249 265 0 48 258 0 247 259 0 248 264 0 48 258 0 251 268 0 253 267 0 46 266 0 252 269 0 251 268 0 46 266 0 251 268 0 103 44 0 10 33 0 253 267 0 251 268 0 10 33 0 251 268 0 250 263 0 13 43 0 103 44 0 251 268 0 13 43 0 251 268 0 252 269 0 49 262 0 250 263 0 251 268 0 49 262 0 254 270 0 235 243 0 44 245 0 255 271 0 254 270 0 44 245 0 254 270 0 96 34 0 8 23 0 235 243 0 254 270 0 8 23 0 254 270 0 253 267 0 10 33 0 96 34 0 254 270 0 10 33 0 254 270 0 255 271 0 46 266 0 253 267 0 254 270 0 46 266 0 256 134 0 258 134 0 65 134 0 257 134 0 256 134 0 65 134 0 256 134 0 259 134 0 62 134 0 258 134 0 256 134 0 62 134 0 256 272 0 252 269 0 46 266 0 259 273 0 256 272 0 46 266 0 256 272 0 257 274 0 49 262 0 252 269 0 256 272 0 49 262 0 260 276 0 262 275 0 73 141 0 261 141 0 260 276 0 73 141 0 260 276 0 263 278 0 40 277 0 262 275 0 260 276 0 40 277 0 260 276 0 261 141 0 70 141 0 263 278 0 260 276 0 70 141 0 264 134 0 265 134 0 62 134 0 259 134 0 264 134 0 62 134 0 264 134 0 266 134 0 60 134 0 265 134 0 264 134 0 60 134 0 264 279 0 255 271 0 44 245 0 266 280 0 264 279 0 44 245 0 264 279 0 259 273 0 46 266 0 255 271 0 264 279 0 46 266 0 267 281 0 263 278 0 70 141 0 268 141 0 267 281 0 70 141 0 267 281 0 269 282 0 40 277 0 263 278 0 267 281 0 40 277 0 267 281 0 268 141 0 68 141 0 269 282 0 267 281 0 68 141 0 270 283 0 158 134 0 60 134 0 266 134 0 270 283 0 60 134 0 270 283 0 271 284 0 59 134 0 158 134 0 270 283 0 59 134 0 270 283 0 233 242 0 43 239 0 271 284 0 270 283 0 43 239 0 270 283 0 266 280 0 44 245 0 233 242 0 270 283 0 44 245 0 272 285 0 269 282 0 68 141 0 163 141 0 272 285 0 68 141 0 272 285 0 273 286 0 40 277 0 269 282 0 272 285 0 40 277 0 272 285 0 163 141 0 67 141 0 273 286 0 272 285 0 67 141 0 274 134 0 167 134 0 59 134 0 271 284 0 274 134 0 59 134 0 274 134 0 275 134 0 58 134 0 167 134 0 274 134 0 58 134 0 274 287 0 237 249 0 42 246 0 275 288 0 274 287 0 42 246 0 274 287 0 271 284 0 43 239 0 237 249 0 274 287 0 43 239 0 276 289 0 273 286 0 67 141 0 171 141 0 276 289 0 67 141 0 276 289 0 277 290 0 40 277 0 273 286 0 276 289 0 40 277 0 276 289 0 171 141 0 66 141 0 277 290 0 276 289 0 66 141 0 278 134 0 175 134 0 58 134 0 275 134 0 278 134 0 58 134 0 278 134 0 279 134 0 61 134 0 175 134 0 278 134 0 61 134 0 278 291 0 240 253 0 45 250 0 279 292 0 278 291 0 45 250 0 278 291 0 275 288 0 42 246 0 240 253 0 278 291 0 42 246 0 280 293 0 277 290 0 66 141 0 179 141 0 280 293 0 66 141 0 280 293 0 281 294 0 40 277 0 277 290 0 280 293 0 40 277 0 280 293 0 179 141 0 69 141 0 281 294 0 280 293 0 69 141 0 282 134 0 183 134 0 61 134 0 279 134 0 282 134 0 61 134 0 282 134 0 283 134 0 63 134 0 183 134 0 282 134 0 63 134 0 282 295 0 243 257 0 47 254 0 283 296 0 282 295 0 47 254 0 282 295 0 279 292 0 45 250 0 243 257 0 282 295 0 45 250 0 284 297 0 281 294 0 69 141 0 187 141 0 284 297 0 69 141 0 284 297 0 285 298 0 40 277 0 281 294 0 284 297 0 40 277 0 284 297 0 187 141 0 71 141 0 285 298 0 284 297 0 71 141 0 286 134 0 191 134 0 63 134 0 283 134 0 286 134 0 63 134 0 286 134 0 287 134 0 64 134 0 191 134 0 286 134 0 64 134 0 286 299 0 246 261 0 48 258 0 287 300 0 286 299 0 48 258 0 286 299 0 283 296 0 47 254 0 246 261 0 286 299 0 47 254 0 288 301 0 285 298 0 71 141 0 195 141 0 288 301 0 71 141 0 288 301 0 289 302 0 40 277 0 285 298 0 288 301 0 40 277 0 288 301 0 195 141 0 72 141 0 289 302 0 288 301 0 72 141 0 290 134 0 199 134 0 64 134 0 287 134 0 290 134 0 64 134 0 290 134 0 257 134 0 65 134 0 199 134 0 290 134 0 65 134 0 290 303 0 249 265 0 49 262 0 257 274 0 290 303 0 49 262 0 290 303 0 287 300 0 48 258 0 249 265 0 290 303 0 48 258 0 291 304 0 289 302 0 72 141 0 203 141 0 291 304 0 72 141 0 291 304 0 262 275 0 40 277 0 289 302 0 291 304 0 40 277 0 291 304 0 203 141 0 73 141 0 262 275 0 291 304 0 73 141 0 292 306 0 216 305 0 39 176 0 198 177 0 292 306 0 39 176 0 292 306 0 293 308 0 36 307 0 216 305 0 292 306 0 36 307 0 292 306 0 258 134 0 62 134 0 293 308 0 292 306 0 62 134 0 292 306 0 198 177 0 65 134 0 258 134 0 292 306 0 65 134 0 294 311 0 214 310 0 54 309 0 295 312 0 294 311 0 54 309 0 294 311 0 201 181 0 57 178 0 214 310 0 294 311 0 57 178 0 294 311 0 261 141 0 73 141 0 201 181 0 294 311 0 73 141 0 294 311 0 295 312 0 70 141 0 261 141 0 294 311 0 70 141 0 296 314 0 220 313 0 36 307 0 293 308 0 296 314 0 36 307 0 296 314 0 155 131 0 34 128 0 220 313 0 296 314 0 34 128 0 296 314 0 265 134 0 60 134 0 155 131 0 296 314 0 60 134 0 296 314 0 293 308 0 62 134 0 265 134 0 296 314 0 62 134 0 297 316 0 218 315 0 52 139 0 162 140 0 297 316 0 52 139 0 297 316 0 295 312 0 54 309 0 218 315 0 297 316 0 54 309 0 297 316 0 268 141 0 70 141 0 295 312 0 297 316 0 70 141 0 297 316 0 162 140 0 68 141 0 268 141 0 297 316 0 68 141 0</p>
                </triangles>
            </mesh>
        </geometry>
    </library_geometries>
    <library_visual_scenes>
        <visual_scene id="ID1">
            <node id="ID2" name="collision_hand.1">
                <translate sid="translate">0 0 -0</translate>
                <rotate sid="rotateY">0 1 0 -0</rotate>
                <rotate sid="rotateX">1 0 0 0</rotate>
                <rotate sid="rotateZ">0 0 1 -0</rotate>
                <scale sid="scale">1 1 1</scale>
                <instance_geometry url="#ID3"/>
            </node>
        </visual_scene>
    </library_visual_scenes>
    <scene>
        <instance_visual_scene url="#ID1"/>
    </scene>
</COLLADA>
